﻿web-scraper-order,web-scraper-start-url,category-link,category-link-href,subcategory-link,subcategory-link-href,Numer artykułu,Nazwa produktu [EN],Rozszerzenie opisu produktu [EN],Zdjęcie główne produktu,Podkategoria produktu
"1589854638-328","https://www.kcprofessional.co.uk/products/couch-covers","SCOTT® Couch Covers","https://www.kcprofessional.co.uk/products/couch-covers/scott-couch-covers","SCOTT® EXTRA Couch Covers","https://www.kcprofessional.co.uk/products/couch-covers/scott-couch-covers/scott-extra-couch-covers","7398","7398 - 07398000 - SCOTT® EXTRA Couch Covers - Blue","The Scott® Couch Cover range has been designed to provide customers with quality protection for couches in the healthcare industry. The Scott® Couch Cover (51W) 7398 is soft, absorbent, tear-resistant and durable.  These couch covers are delivered in a lightweight, portable roll and are easy to remove and fit.  Individual sheet size 38cm (L) x 51cm (W). Compatible with Kimberly-Clark Professional™ Rolled Hand Towel Dispenser (product code 7056).","https://www.contenthubext.kimberly-clark.com/ePIM/ImageStore/public/201639715.jpg","SCOTT® EXTRA Couch Covers"
"1589854638-330","https://www.kcprofessional.co.uk/products/couch-covers","SCOTT® Couch Covers","https://www.kcprofessional.co.uk/products/couch-covers/scott-couch-covers","SCOTT® EXTRA Couch Covers","https://www.kcprofessional.co.uk/products/couch-covers/scott-couch-covers/scott-extra-couch-covers","7415","7415 - 07415010 - SCOTT® EXTRA Couch Covers - White","The Scott® Extra Couch Cover range has been designed to provide customers with quality protection for couches in the healthcare industry. The Scott® Extra Couch Cover (51W) 7415 is soft, absorbent, tear-resistant and durable.  These couch covers are delivered in a lightweight, portable roll and are easy to remove and fit.  Individual sheet size 38cm (L) x 51cm (W). Compatible with Kimberly-Clark Professional™ Rolled Hand Towel Dispenser (product code 7056).","https://www.contenthubext.kimberly-clark.com/ePIM/ImageStore/public/201132495.jpg","SCOTT® EXTRA Couch Covers"
"1589854638-331","https://www.kcprofessional.co.uk/products/couch-covers","SCOTT® Couch Covers","https://www.kcprofessional.co.uk/products/couch-covers/scott-couch-covers","SCOTT® EXTRA Couch Covers","https://www.kcprofessional.co.uk/products/couch-covers/scott-couch-covers/scott-extra-couch-covers","7414","7414 - 07414010 - SCOTT® EXTRA Couch Covers - Blue","The Scott® Extra Couch Cover range has been designed to provide customers with quality protection for couches in the healthcare industry. The Scott® Extra Couch Cover (51W) 7414 is soft, absorbent, tear-resistant and durable.  These couch covers are delivered in a lightweight, portable roll and are easy to remove and fit. Individual sheet size 51cm (L) x 38cm (W). Compatible with Kimberly-Clark Professional™ Rolled Hand Towel Dispenser (product code 7056).","https://www.contenthubext.kimberly-clark.com/ePIM/ImageStore/public/201130854.jpg","SCOTT® EXTRA Couch Covers"
"1589854638-329","https://www.kcprofessional.co.uk/products/couch-covers","SCOTT® Couch Covers","https://www.kcprofessional.co.uk/products/couch-covers/scott-couch-covers","SCOTT® EXTRA Couch Covers","https://www.kcprofessional.co.uk/products/couch-covers/scott-couch-covers/scott-extra-couch-covers","7399","7399 - 07399000 - SCOTT® EXTRA Couch Covers - Roll / Blue","The Scott® Couch Cover range has been designed to provide customers with quality protection for couches in the healthcare industry. The Scott® Couch Cover (51W) 7399 is soft, absorbent, tear-resistant and durable.  These couch covers are delivered in a lightweight, portable roll and are easy to remove and fit. Individual sheet size 46cm (L) x 51cm (W). Compatible with Kimberly-Clark Professional™ Rolled Hand Towel Dispenser (product code 7056).","https://www.contenthubext.kimberly-clark.com/ePIM/ImageStore/public/201639725.jpg","SCOTT® EXTRA Couch Covers"
"1589854643-333","https://www.kcprofessional.co.uk/products/couch-covers","SCOTT® Couch Covers","https://www.kcprofessional.co.uk/products/couch-covers/scott-couch-covers","SCOTT® ESSENTIAL Couch Covers","https://www.kcprofessional.co.uk/products/couch-covers/scott-couch-covers/scott-essential-couch-covers","7397","7397 - 07397010 - SCOTT® Couch Covers - Roll / White","The Scott® Couch Cover range has been designed to provide customers with cost-efficient protection for couches in the healthcare industry. The Scott® Couch Cover (51W) 7397 is soft, absorbent, tear-resistant and durable.  These couch covers are delivered in a lightweight, portable roll and are easy to remove and fit. Individual sheet size 38cm (L) x 51cm (W). Compatible with Kimberly-Clark Professional™ Rolled Hand Towel Dispenser (product code 7056).","https://www.contenthubext.kimberly-clark.com/ePIM/ImageStore/public/201773582_h.jpg","SCOTT® ESSENTIAL Couch Covers"
"1589854638-327","https://www.kcprofessional.co.uk/products/couch-covers","SCOTT® Couch Covers","https://www.kcprofessional.co.uk/products/couch-covers/scott-couch-covers","SCOTT® EXTRA Couch Covers","https://www.kcprofessional.co.uk/products/couch-covers/scott-couch-covers/scott-extra-couch-covers","6003","6003 - 06003020 - SCOTT® EXTRA Couch Covers - White","The SCOTT® Extra Couch Cover range has been designed to provide customers with quality protection for couches in the healthcare industry.The SCOTT® Extra Couch Cover (50W) 6003 is soft, absorbent, tear-resistant and durable.  These couch covers are delivered in a lightweight, portable roll and are easy to remove and fit.This product is sold as 6 rolls x 135 white, 2 ply sheets (810 total).  Individual sheet size 37cm (L) x 50cm (W). Compatible with KIMBERLY-CLARK PROFESSIONAL* Rolled Hand Towel Dispenser (product code 7056).","http://www.contenthubext.kimberly-clark.com/ePIM/ImageStore/public/201149699.jpg","SCOTT® EXTRA Couch Covers"
"1589854643-332","https://www.kcprofessional.co.uk/products/couch-covers","SCOTT® Couch Covers","https://www.kcprofessional.co.uk/products/couch-covers/scott-couch-covers","SCOTT® ESSENTIAL Couch Covers","https://www.kcprofessional.co.uk/products/couch-covers/scott-couch-covers/scott-essential-couch-covers","7396","7396 - 07396000 - SCOTT® Couch Covers - Roll / Blue","The Scott® Couch Cover range has been designed to provide customers with cost-efficient protection for couches in the healthcare industry. The Scott® Couch Cover (51W) 7396 is soft, absorbent, tear-resistant and durable.  These couch covers are delivered in a lightweight, portable roll and are easy to remove and fit. Individual sheet size 38cm (L) x 51cm (W). Compatible with Kimberly-Clark Professional™ Rolled Hand Towel Dispenser (product code 7056).","https://www.contenthubext.kimberly-clark.com/ePIM/ImageStore/public/201639683.jpg","SCOTT® ESSENTIAL Couch Covers"
