﻿web-scraper-order,web-scraper-start-url,product-link,product-link-href,Numer artykułu,Nazwa produktu [EN],Krótki opis produktu [EN],Rozszerzenie opisu produktu [EN]
"1596545523-182","https://www.gojo.com/en-EU/Product-Catalog/GOJO-Brand#f:Category=[Shower%20%2F%20Shampoo%20%2F%20Handwash]","GOJO® SPA BATH® Body & Hair Shampoo","https://www.gojo.com/en-EU/Product/2152-08-EEU00","2152-08-EEU00","GOJO® SPA BATH® Body & Hair Shampoo","1000 mL Refill for GOJO® NXT® Dispenser","Enriched, spa-inspired formula for hands, hair and body.

                        
                            
                            Pleasant herbal fragrance
                            
                            Ideal for  use within the leisure industry
                            
                            SANITARY SEALED™ refill helps prevent contamination
                            
                            Fresh dispensing valve with each refill"
