﻿web-scraper-order,web-scraper-start-url,Nazwa produktu [PL],Nazwa produktu [PL]-href,Rozszerzenie opisu produktu [PL],Zdjęcie główne produktu,Pojemność [L]
"1593079708-5","http://barlon.pl/?mechaniczne-mycie-naczyn,22","Sól do zmywarek PLUS","http://barlon.pl/?sol-do-zmywarek-plus,27","Sól do Zmywarek PLUS skutecznie zmiękcza wodę i poprawia wydajność detergentów, chroniąc naczynia przed plamami i zaciekami. Jest całkowicie wolna od zanieczyszczeń. Jej wysoka czystość zapewnia idealne działanie aparatu do zmiękczania wody. 
Produkt profesjonalny.
Dostępny w formie granulatu i tabletek w opakowaniach 1kg i 25kg","files/150/sol do zmyw.jpg","Sól do Zmywarek PLUS skutecznie zmiękcza wodę i poprawia wydajność detergentów, chroniąc naczynia przed plamami i zaciekami. Jest całkowicie wolna od zanieczyszczeń. Jej wysoka czystość zapewnia idealne działanie aparatu do zmiękczania wody. 
Produkt profesjonalny.
Dostępny w formie granulatu i tabletek w opakowaniach 1kg i 25kg"
"1593079712-7","http://barlon.pl/?mechaniczne-mycie-naczyn,22","Proszek do zmywarek BARLON M","http://barlon.pl/?proszek-do-zmywarek-barlon-m,23","Przeznaczenie:
Proszek Barlon M przeznaczony jest do mycia naczyń, sprzętów kuchennych, 
wyposażenia w zmywarkach mechanicznych. Do stosowania w gospodarstwach 
domowych, gastronomii i przemyśle spożywczym.

Właściwości:
Biały, sypki proszek z kolorowymi granulkami.
- Doskonale usuwa tłuszcz i uporczywe osady z kawy i herbaty.
- Dokładnie usuwa wszelkie zabrudzenia bez uprzedniego namaczania.
-    Zawiera środki zmiękczające wodę, co chroni zmywarkę przed 
osadzaniem się kamienia.
- Zawiera środki antykorozyjne, które chronią zmywarkę przed korozją.
- Nie pozostawia smug, nadaje blask zmywanym naczyniom.
O właściwościach antybakteryjnych
 
Dostępne opakowania: 0,5kg; 1kg; 1,8kg; 10kg; 20kg","files/150/Barlon m.jpg","Przeznaczenie:
Proszek Barlon M przeznaczony jest do mycia naczyń, sprzętów kuchennych, 
wyposażenia w zmywarkach mechanicznych. Do stosowania w gospodarstwach 
domowych, gastronomii i przemyśle spożywczym.

Właściwości:
Biały, sypki proszek z kolorowymi granulkami.
- Doskonale usuwa tłuszcz i uporczywe osady z kawy i herbaty.
- Dokładnie usuwa wszelkie zabrudzenia bez uprzedniego namaczania.
-    Zawiera środki zmiękczające wodę, co chroni zmywarkę przed 
osadzaniem się kamienia.
- Zawiera środki antykorozyjne, które chronią zmywarkę przed korozją.
- Nie pozostawia smug, nadaje blask zmywanym naczyniom.
O właściwościach antybakteryjnych
 
Dostępne opakowania: 0,5kg; 1kg; 1,8kg; 10kg; 20kg"
"1593079710-6","http://barlon.pl/?mechaniczne-mycie-naczyn,22","Tabletki do zmywarek","http://barlon.pl/?tabletki-do-zmywarek,24","Tabletki do zmywarek łączą w sobie wszystkie niezbędne funkcje zapewniające nieskazitelną czystość naczyń i sztućców. 
 Wielofunkcyjna tabletka czyści, nabłyszcza, chroni stal nierdzewną przed matowieniem.
Opakowanie 30szt","files/150/tabletki.jpg","Tabletki do zmywarek łączą w sobie wszystkie niezbędne funkcje zapewniające nieskazitelną czystość naczyń i sztućców. 
 Wielofunkcyjna tabletka czyści, nabłyszcza, chroni stal nierdzewną przed matowieniem.
Opakowanie 30szt"
