﻿web-scraper-order,web-scraper-start-url,Nazwa produktu [EN],Krótki opis produktu [EN],Zdjęcie główne produktu-src,Karta charakterystyki EN [nazwa pliku z rozszerzeniem]
"1590567487-417","http://www.garchem.pl/kategoria/24/produkty","Extra ""4U"" 1L surface disinfectant","Extra ""4U"" 1L surface disinfectant","/storage/products/5e99d93a2e41e.png","/storage/products/5ec12493d418b_1.pdf"
"1590567487-415","http://www.garchem.pl/kategoria/24/produkty","Hand sanitizer gel 500 ml ""4U""","Hand sanitizer gel 500 ml ""4U""","/storage/products/5ec1246213c47.png","/storage/products/5ec1243e09c28_1.pdf"
"1590567487-416","http://www.garchem.pl/kategoria/24/produkty","Hand sanitizer gel   ""4U"" 5L","Hand sanitizer gel   ""4U"" 5L","/storage/products/5ec1254b21a39.png","/storage/products/5ec1254b21a39_1.pdf"
"1590567487-418","http://www.garchem.pl/kategoria/24/produkty","Extra ""4U"" 5 L surface disinfectant","Extra ""4U"" 5 L surface disinfectant","/storage/products/5e99dbadeda4b.png","/storage/products/5ec124b8bf480_1.pdf"
