﻿web-scraper-order,web-scraper-start-url,product-link,product-link-href,Podkategoria produktu,Numer artykułu,Nazwa produktu [PL],Krótki opis produktu [PL],Kolor,Pojemność [L],Rozszerzenie opisu produktu [PL],Zdjęcie główne produktu-src,Karta charakterystyki PL [nazwa pliku z rozszerzeniem],Karta produktu PL [nazwa pliku z rozszerzeniem]
"1592289290-6","http://www.woca.pl/produkty-na-zewnatrz","Zewnętrzna szczotka
    
      
Zobacz więcej","http://www.woca.pl/shop/produkt/zewnetrzna-szczotka","Akcesoria","599601","Zewnętrzna szczotka","[{""Krótki opis produktu [PL]"":""""},{""Krótki opis produktu [PL]"":""""}]","-","1","Pasuje do kija teleskopowego WOCA #599651.","/admin/public/getimage.ashx?crop=0&image=/Files/Images/PIM/215970840.jpg&Width=460","null","null"
"1592289299-8","http://www.woca.pl/produkty-na-zewnatrz","Hand Scrubber Flex, 5 Red Pads
    
      
Zobacz więcej","http://www.woca.pl/shop/produkt/hand-scrubber-flex--5-red-pads","Akcesoria","599750A","Hand Scrubber Flex, 5 Red Pads","[{""Krótki opis produktu [PL]"":""Do czyszczenia i polerowania powierzchni drewnianych""},{""Krótki opis produktu [PL]"":""Łatwa aplikacja""}]","Red","0","Zapewnia szybkie i skuteczne polerowanie oraz czyszczenie. Nadaje się do wszystkich powierzchni drewnianych i kamiennych użytkowanych we wnętrzach oraz na zewnątrz. WOCA Hand Scrubber Flex stosuje się z wymienialnymi wkładkami  (o drobnej i grubszej ziarnistości), które są łatwe i szybkie w montażu/wymianie.","/Files/Images/ecom/products/_dummy-product.png","null","null"
"1592289282-4","http://www.woca.pl/produkty-na-zewnatrz","Wymienny  Pad 9’’
    
      
Zobacz więcej","http://www.woca.pl/shop/produkt/wymienny-pad-9%E2%80%99%E2%80%99","Akcesoria","880153","Wymienny  Pad 9’’","[{""Krótki opis produktu [PL]"":""""},{""Krótki opis produktu [PL]"":""""}]","-","0","Do aplikatora WOCA #880151.","/admin/public/getimage.ashx?crop=0&image=/Files/Images/PIM/183152595.jpg&Width=460","null","null"
"1592289286-5","http://www.woca.pl/produkty-na-zewnatrz","Aplikator 9” wraz z padem
    
      
Zobacz więcej","http://www.woca.pl/shop/produkt/aplikator-9%E2%80%9D-wraz-z-padem","Akcesoria","880151","Aplikator 9” wraz z padem","[{""Krótki opis produktu [PL]"":""""},{""Krótki opis produktu [PL]"":""""}]","-","0","Pad do aplikacji oleju i ługu.","/admin/public/getimage.ashx?crop=0&image=/Files/Images/PIM/215972691.jpg&Width=460","null","null"
"1592289270-1","http://www.woca.pl/produkty-na-zewnatrz","Szczotka krzemowo-węglikowa 16”
    
      
Zobacz więcej","http://www.woca.pl/shop/produkt/szczotka-krzemowo-weglikowa-16%E2%80%9D","Akcesoria","88050-U","Szczotka krzemowo-węglikowa 16”","[{""Krótki opis produktu [PL]"":""""},{""Krótki opis produktu [PL]"":""""}]","-","0","Twarda i penetrująca drewno bez szlifowania.","/admin/public/getimage.ashx?crop=0&image=/Files/Images/PIM/217030045.jpg&Width=460","null","null"
"1592289278-3","http://www.woca.pl/produkty-na-zewnatrz","Kij metalowy
    
      
Zobacz więcej","http://www.woca.pl/shop/produkt/kij-metalowy","Akcesoria","880154","Kij metalowy","[{""Krótki opis produktu [PL]"":""""},{""Krótki opis produktu [PL]"":""""}]","-","0","Pasuje do aplikatora WOCA #880151.","/admin/public/getimage.ashx?crop=0&image=/Files/Images/PIM/180154475.jpg&Width=460","null","null"
"1592289295-7","http://www.woca.pl/produkty-na-zewnatrz","Szczotka krzemowo-węglikowa
    
      
Zobacz więcej","http://www.woca.pl/shop/produkt/szczotka-krzemowo-weglikowa","Akcesoria","88055","Szczotka krzemowo-węglikowa","[{""Krótki opis produktu [PL]"":""""},{""Krótki opis produktu [PL]"":""""}]","-","0","Pasuje do kija teleskopowego WOCA #599651.","/admin/public/getimage.ashx?crop=0&image=/Files/Images/PIM/215505144.jpg&Width=460","null","null"
"1592289274-2","http://www.woca.pl/produkty-na-zewnatrz","Kuweta
    
      
Zobacz więcej","http://www.woca.pl/shop/produkt/kuweta","Akcesoria","88008","Kuweta","[{""Krótki opis produktu [PL]"":""Do wałków 250 mm""},{""Krótki opis produktu [PL]"":""""}]","-","0","Do łatwego namaczania wałków do 250mm.","/admin/public/getimage.ashx?crop=0&image=/Files/Images/PIM/180144502.jpg&Width=460","null","null"
