{
    "_id": "lamix-reczniki-roli-de",
    "startUrl": [
        "https://www.lamix.pl/de/produkty/2/reczniki-w-roli.html"
    ],
    "selectors": [
        {
            "id": "product",
            "type": "SelectorLink",
            "parentSelectors": [
                "_root"
            ],
            "selector": "div:nth-of-type(n+3) .columns a",
            "multiple": true,
            "delay": 0
        },
        {
            "id": "Numer artykułu",
            "type": "SelectorText",
            "parentSelectors": [
                "product"
            ],
            "selector": ".pictogram-item.kod-produktu",
            "multiple": false,
            "regex": "(?<=(\\w+\\s){1})(.+)",
            "delay": 0
        },
        {
            "id": "Nazwa produktu [DE]",
            "type": "SelectorText",
            "parentSelectors": [
                "product"
            ],
            "selector": "h1",
            "multiple": false,
            "regex": "",
            "delay": 0
        },
        {
            "id": "Krótki opis produktu [DE]",
            "type": "SelectorText",
            "parentSelectors": [
                "product"
            ],
            "selector": "div#panel1",
            "multiple": false,
            "regex": "",
            "delay": 0
        },
        {
            "id": "Rozszerzenie opisu produktu [DE]",
            "type": "SelectorText",
            "parentSelectors": [
                "product"
            ],
            "selector": "div#panel2",
            "multiple": false,
            "regex": "",
            "delay": 0
        },
        {
            "id": "Karta produktu DE [nazwa pliku z rozszerzeniem]",
            "type": "SelectorElementAttribute",
            "parentSelectors": [
                "product"
            ],
            "selector": "a[href*=\"karta_towaru\"]",
            "multiple": false,
            "extractAttribute": "href",
            "delay": 0
        }
    ]
}