﻿web-scraper-order,web-scraper-start-url,product,product-href,Numer artykułu,Nazwa produktu [DE],Krótki opis produktu [DE],Rozszerzenie opisu produktu [DE],Karta produktu DE [nazwa pliku z rozszerzeniem]
"1587861947-38","https://www.lamix.pl/de/produkty/2/reczniki-w-roli.html","R ELLIS ECOLINE 140/2FARBE: Extra weißWARENCODE: REE140/2","https://www.lamix.pl/de/produkt/100/ellis-ecoline-handtuchrollen-r-ellis-ecoline-140-2.html","REE140/2","r ellis ecoline 140/2","Haltbar und reißfest, Zweilagig, Zellulose, sehr Saugfähig.","Nimmt alle Flüssigkeiten auf und eignet sich ideal zum Abwischen und Putzen unterschiedlichster Flächen (auch zum Abtrocknen der Hände geeignet).","https://www.lamix.pl/cms/products/00100/karta_towaru.pdf"
"1587861945-37","https://www.lamix.pl/de/produkty/2/reczniki-w-roli.html","R ELLIS ECOLINE 100/2FARBE: BlauWARENCODE: RPR100/2-10076","https://www.lamix.pl/de/produkt/101/ellis-ecoline-handtuchrollen-r-ellis-ecoline-100-2.html","RPR100/2-10076","r ellis ecoline 100/2","Haltbar und reißfest, Zweilagig, Zellulose, sehr Saugfähig.","Nimmt alle Flüssigkeiten auf und eignet sich ideal zum Abwischen und Putzen unterschiedlichster Flächen (auch zum Abtrocknen der Hände geeignet).","https://www.lamix.pl/cms/products/00101/karta_towaru.pdf"
"1587861941-35","https://www.lamix.pl/de/produkty/2/reczniki-w-roli.html","R ELLIS ECOLINE 140/2FARBE: GrünWARENCODE: RPR50/2-10075","https://www.lamix.pl/de/produkt/103/ellis-ecoline-handtuchrollen-r-ellis-ecoline-140-2.html","RPR50/2-10075","r ellis ecoline 140/2","Haltbar und reißfest, Zweilagig, Zellulose, sehr Saugfähig.","Nimmt alle Flüssigkeiten auf und eignet sich ideal zum Abwischen und Putzen unterschiedlichster Flächen (auch zum Abtrocknen der Hände geeignet).","https://www.lamix.pl/cms/products/00103/karta_towaru.pdf"
"1587861939-34","https://www.lamix.pl/de/produkty/2/reczniki-w-roli.html","R CLIVER 130/1FARBE: Extra weißWARENCODE: RSTB130/1","https://www.lamix.pl/de/produkt/4/cliver-handtuchrollen-r-cliver-130-1.html","RSTB130/1","r cliver 130/1","Haltbar und reißfest, höchste Recyclingqualität, sehr Saugfähig.","Nimmt alle Flüssigkeiten auf, ebenso Öle und Fette.","https://www.lamix.pl/cms/products/00004/karta_towaru.pdf"
"1587861943-36","https://www.lamix.pl/de/produkty/2/reczniki-w-roli.html","R ELLIS ECOLINE 100/2 SINGLE PACKFARBE: BlauWARENCODE: REE100/2","https://www.lamix.pl/de/produkt/102/ellis-ecoline-handtuchrollen-r-ellis-ecoline-100-2-single-pack.html","REE100/2","r ellis ecoline 100/2 single pack","Haltbar und reißfest, Zweilagig, Zellulose, sehr Saugfähig.","Nimmt alle Flüssigkeiten auf und eignet sich ideal zum Abwischen und Putzen unterschiedlichster Flächen (auch zum Abtrocknen der Hände geeignet).","https://www.lamix.pl/cms/products/00102/karta_towaru.pdf"
"1587861949-39","https://www.lamix.pl/de/produkty/2/reczniki-w-roli.html","R ELLIS PROFESSIONAL 130/2 AUTOMATICFARBE: WeißWARENCODE: REL130/2","https://www.lamix.pl/de/produkt/48/ellis-professional-handtuchrollen-r-ellis-professional-130-2-automatic.html","REL130/2","r ellis professional 130/2 automatic","Haltbar und reißfest, Zweilagig, Zellulose, sehr Saugfähig.","Nimmt alle Flüssigkeiten auf und eignet sich ideal zum Abwischen und Putzen unterschiedlichster Flächen (auch zum Abtrocknen der Hände geeignet).","https://www.lamix.pl/cms/products/00048/karta_towaru.pdf"
"1587861951-40","https://www.lamix.pl/de/produkty/2/reczniki-w-roli.html","R ELLIS PROFESSIONAL 120/2FARBE: WeißWARENCODE: REL120/2","https://www.lamix.pl/de/produkt/46/ellis-professional-handtuchrollen-r-ellis-professional-120-2.html","REL120/2","r ellis professional 120/2","Haltbar und reißfest, Zweilagig, Zellulose, sehr Saugfähig.","Nimmt alle Flüssigkeiten auf und eignet sich ideal zum Abwischen und Putzen unterschiedlichster Flächen (auch zum Abtrocknen der Hände geeignet).","https://www.lamix.pl/cms/products/00046/karta_towaru.pdf"
"1587861937-33","https://www.lamix.pl/de/produkty/2/reczniki-w-roli.html","R CLIVER 130/1FARBE: GrünWARENCODE: RSTZ130/1","https://www.lamix.pl/de/produkt/7/cliver-handtuchrollen-r-cliver-130-1.html","RSTZ130/1","r cliver 130/1","Haltbar und reißfest , höchste Recyclingqualität, sehr Saugfähig.","Nimmt alle Flüssigkeiten auf, ebenso Öle und Fette.","https://www.lamix.pl/cms/products/00007/karta_towaru.pdf"
