﻿web-scraper-order,web-scraper-start-url,Podkategoria produktu,Podkategoria produktu-href,pagination,pagination-href,product,product-href,Numer artykułu,Nazwa produktu [PL],Atesty,Kolor,Zdjęcie główne produktu,Surowiec,Ilość warstw,Tłoczenie,Szerokość rolki,Średnica rolki,Długość odcinka,Ilość opakowań pojedynczych w opakowaniu tranportowym [szt],Ilość opakowań zbiorczych na 1 palecie [szt]
"1592814655-124","https://www.starpap.pl/pl/produkty_konsumenckie/","Chusteczki","https://www.starpap.pl/pl/chusteczki/","","","UNIWERSALNE","https://www.starpap.pl/pl/192/12/12/UNIWERSALNE/","1330601","UNIWERSALNE","H-HŻ-6071-0011/16/C","Biały","https://www.starpap.pl/library/2017/05/16/149493554778_medium.jpg","Celuloza","3","null","200","230","X - brak","100listków","36op"
"1592814682-135","https://www.starpap.pl/pl/produkty_konsumenckie/","Papier toaletowy","https://www.starpap.pl/pl/papier_toaletowy/","","","PT 20C","https://www.starpap.pl/pl/191/10/10/PT_20C/","1130061","PT 20C","H-HŻ-6071-0011/16/C","Biały","https://www.starpap.pl/library/2017/05/16/149493555567_medium.jpg","Celuloza","2","Tak","90","105","10cm","8x8szt","36op"
"1592814663-126","https://www.starpap.pl/pl/produkty_konsumenckie/","Papier toaletowy","https://www.starpap.pl/pl/papier_toaletowy/","","","Super 8","https://www.starpap.pl/pl/26/10/10/Super_8/","1110271","Super 8","H-HŻ-6071-0011/16/C","Szary","https://www.starpap.pl/library/2014/09/18/141103292966_medium.jpg","Makulatura","1","Tak","90","120","10cm","8x8szt","36op"
"1592814659-125","https://www.starpap.pl/pl/produkty_konsumenckie/","Ręczniki kuchenne","https://www.starpap.pl/pl/reczniki_kuchenne/","","","Papi","https://www.starpap.pl/pl/27/11/11/Papi/","920","Papi","H-HŻ-6071-0011/16/C","Biały","https://www.starpap.pl/library/2015/05/11/143134214903_medium.jpg","Celuloza","2","Tak","225","115","20cm","2szt","20worków"
"1592814665-127","https://www.starpap.pl/pl/produkty_konsumenckie/","Papier toaletowy","https://www.starpap.pl/pl/papier_toaletowy/","","","Super 6 szary","https://www.starpap.pl/pl/101/10/10/Super_6_szary/","1110241","Super 6 szary","H-HŻ-6071-0011/16/C","Szary","null","Makulatura","1","Tak","90","120","10cm","6x6szt","48op"
"1592814667-128","https://www.starpap.pl/pl/produkty_konsumenckie/","Papier toaletowy","https://www.starpap.pl/pl/papier_toaletowy/","","","MOMI B/N","https://www.starpap.pl/pl/160/10/10/MOMI_BN/","1110081","MOMI B/N","H-HŻ-6071-0011/16/C","Szary","https://www.starpap.pl/library/2014/11/25/141690683855_medium.jpg","Makulatura","1","Tak","90","105","10cm","8x8szt","36op"
"1592814653-123","https://www.starpap.pl/pl/produkty_konsumenckie/","Chusteczki","https://www.starpap.pl/pl/chusteczki/","","","Chusteczki Papi","https://www.starpap.pl/pl/28/12/12/Chusteczki_Papi/","1335171","Chusteczki Papi","H-HŻ-6071-0011/16/C","Biały","https://www.starpap.pl/library/2014/09/18/141103500949_medium.jpg","Celuloza","3","null","200","230","null","100listków","null"
"1592814673-131","https://www.starpap.pl/pl/produkty_konsumenckie/","Papier toaletowy","https://www.starpap.pl/pl/papier_toaletowy/","","","Star 80%","https://www.starpap.pl/pl/179/10/10/Star_80/","1121681B","Star 80%","H-HŻ-6071-0011/16/C","Biały 80%","https://www.starpap.pl/library/2016/04/26/146166868110_medium.jpg","Cel-Mak","2","Tak","90","135","20cm","null","null"
"1592814680-134","https://www.starpap.pl/pl/produkty_konsumenckie/","Papier toaletowy","https://www.starpap.pl/pl/papier_toaletowy/","","","PUCH 65","https://www.starpap.pl/pl/190/10/10/PUCH_65/","1125581","PUCH 65","H-HŻ-6071-0011/16/C","Biały 65%","https://www.starpap.pl/library/2017/05/16/149493556547_medium.jpg","Cel-Mak","2","Tak","90","105","10cm","8x8szt","36op"
"1592814669-129","https://www.starpap.pl/pl/produkty_konsumenckie/","Papier toaletowy","https://www.starpap.pl/pl/papier_toaletowy/","","","STARPAP","https://www.starpap.pl/pl/161/10/10/STARPAP/","1110011","STARPAP","H-HŻ-6071-0011/16/C","Szary","https://www.starpap.pl/library/2014/11/25/141690683855_medium.jpg","Makulatura","1","Tak","90","120","10cm","8x8szt","36op"
"1592814675-132","https://www.starpap.pl/pl/produkty_konsumenckie/","Papier toaletowy","https://www.starpap.pl/pl/papier_toaletowy/","","","PUCH 80","https://www.starpap.pl/pl/188/10/10/PUCH_80/","1120221","PUCH 80","H-HŻ-6071-0011/16/C","Biały 80%","https://www.starpap.pl/library/2014/09/22/141138804172_medium.jpg","Cel-Mak","1","Tak","90","105","10cm","8x8szt","36op"
"1592814678-133","https://www.starpap.pl/pl/produkty_konsumenckie/","Papier toaletowy","https://www.starpap.pl/pl/papier_toaletowy/","","","SUPER PUCH","https://www.starpap.pl/pl/189/10/10/SUPER_PUCH/","1120361","SUPER PUCH","H-HŻ-6071-0011/16/C","Biały 80%","https://www.starpap.pl/library/2017/05/16/149493553855_medium.jpg","Cel-Mak","2","Tak","90","120","10cm","8x8szt","36op"
"1592814671-130","https://www.starpap.pl/pl/produkty_konsumenckie/","Papier toaletowy","https://www.starpap.pl/pl/papier_toaletowy/","","","Sun","https://www.starpap.pl/pl/162/10/10/Sun/","1110221","Sun","H-HŻ-6071-0011/16/C","Szary","https://www.starpap.pl/library/2014/11/25/141690683855_medium.jpg","Makulatura","1","Tak","90","100","10cm","8x8szt","36op"
