{
    "_id": "garchem-plyny-do-kapieli-pl",
    "startUrl": [
        "http://www.garchem.pl/kategoria/11/produkty"
    ],
    "selectors": [
        {
            "id": "products",
            "type": "SelectorElement",
            "parentSelectors": [
                "_root"
            ],
            "selector": "div.small-tile",
            "multiple": true,
            "delay": 0
        },
        {
            "id": "Nazwa produktu [PL]",
            "type": "SelectorText",
            "parentSelectors": [
                "products"
            ],
            "selector": "div.label-product",
            "multiple": false,
            "regex": "",
            "delay": 0
        },
        {
            "id": "Krótki opis produktu [PL]",
            "type": "SelectorText",
            "parentSelectors": [
                "products"
            ],
            "selector": "div.label-product",
            "multiple": false,
            "regex": "",
            "delay": 0
        },
        {
            "id": "Zdjęcie główne produktu",
            "type": "SelectorImage",
            "parentSelectors": [
                "products"
            ],
            "selector": "img",
            "multiple": false,
            "delay": 0
        },
        {
            "id": "Karta charakterystyki PL [nazwa pliku z rozszerzeniem]",
            "type": "SelectorElementAttribute",
            "parentSelectors": [
                "products"
            ],
            "selector": "div:nth-of-type(3) a",
            "multiple": false,
            "extractAttribute": "href",
            "delay": 0
        }
    ]
}