﻿web-scraper-order,web-scraper-start-url,product-links,product-links-href,Numer artykułu,Nazwa produktu [PL],Krótki opis produktu [PL],Rozszerzenie opisu produktu [PL],Kolor,Szerokość,Długość,Wysokość,Cechy,Dodatkowa ochrona,Materiał dozownika,Spełnione normy,Ochrona,Rozmiar,Podkategoria produktu,Typ produktu,Zdjęcie główne produktu,Dostępne warianty,id_3m,Karta charakterystyki PL [nazwa pliku z rozszerzeniem],Pojemność [L],Maksymalna prędkość urządzenia,Napęd/trakcja
"1598108364-894","https://www.3mpolska.pl/3M/pl_PL/firma-pl/all-3m-products/~/Wszystkie-produkty-3M/Kosmetyki-samochodowe/?N=5002385+8710649+8711017&rt=r3","3M™ Arkusze ścierne z warstwą antypoślizgową","https://www.3mpolska.pl/3M/pl_PL/firma-pl/all-3m-products/~/3M-Arkusze-%C5%9Bcierne-z-warstw%C4%85-antypo%C5%9Blizgow%C4%85/?N=5002385+8710649+3289530794&rt=rud","null","3M™ Arkusze ścierne z warstwą antypoślizgową","Doskonała wydajność ścierna w szlifowaniu zarówno na mokro, jak i na sucho.
Specjalny materiał ułatwia pewny chwyt i eliminuje konieczność używania dodatkowych akcesoriów.
Nowy i wyjątkowy w dotyku.
Bardzo skuteczny produkt do ręcznego szlifowania w przystępnej cenie.","3M™ Arkusze ścierne z warstwą antypoślizgową są przeznaczone do ręcznego szlifowania w procesach przygotowania i wykańczania lakieru.
3M™ Arkusze ścierne z warstwą antypoślizgową zapewniają doskonałą wydajność cięcia i wykańczania, a przy tym są elastyczne, dobrze dopasowują się do podłoża i nie ślizgają się nawet w mokrej dłoni, w zapylonym środowisku czy na tłustych powierzchniach.  Produkt ten jest wyjątkowy i miękki w dotyku.  Doskonale nadaje się do szlifowania brzegów paneli i części z miejscami, które są trudno dostępne.


Doskonała wydajność ścierna w szlifowaniu zarówno na mokro, jak i na sucho.
Specjalny materiał ułatwia pewny chwyt i eliminuje konieczność używania dodatkowych akcesoriów.
Nowy i wyjątkowy w dotyku.
Bardzo skuteczny produkt do ręcznego szlifowania w przystępnej cenie.
Zapewnia wyższą wydajność w wielu zastosowaniach szlifowania ręcznego","null","139,7 Milimetr","114 Milimetr","null","null","null","Tlenek aluminium","null","null","null","null","null","https://multimedia.3m.com/mws/media/1430263P/grippy-sanding-cloth-170803-0076.jpg","[{""Dostępne warianty"":""3M ID 7100142936""},{""Dostępne warianty"":""3M ID 7100142883""},{""Dostępne warianty"":""3M ID 7100142957""}]","null","https://multimedia.3m.com/mws/media/1838721O/3m-automotive-aftermarket-product-catalogue-2020.pdf&fn=J468288 AAD NER Product Catalogue 2020 ForOfficeUse.pdf","null","null","null"
"1598108370-895","https://www.3mpolska.pl/3M/pl_PL/firma-pl/all-3m-products/~/Wszystkie-produkty-3M/Kosmetyki-samochodowe/?N=5002385+8710649+8711017&rt=r3","3M™ Perfect-it™ Ściereczka do polerowania","https://www.3mpolska.pl/3M/pl_PL/firma-pl/all-3m-products/~/3M-Perfect-it-%C5%9Aciereczka-do-polerowania/?N=5002385+8710649+3292958626&rt=rud","Numer części 34568","3M™ Perfect-it™ Ściereczka do polerowania","Ochrona antystatyczna ze ściereczką niskopylącą.
Wycieraj pozostałości po środkach polerskich i mleczkach z paneli
Odporna na rozdarcia, nawet gdy jest wilgotna
Zaprojektowana do użytku z 3M™ Profesjonalnymi mleczkami i środkami polerskimi przeznaczonymi dla warsztatu blacharskiego","Ochrona antystatyczna ze ściereczką niskopylącą.
Wycieraj pozostałości po środkach polerskich i mleczkach z paneli
Odporna na rozdarcia, nawet gdy jest wilgotna
Zaprojektowana do użytku z 3M™ Profesjonalnymi mleczkami i środkami polerskimi przeznaczonymi dla warsztatu blacharskiego

Użyj 3M™ Perfect-It™ ściereczki do polerowania z 3M™ Perfect-It™ środkami polerskimi w celu wytarcia pozostałości środków polerskich i pasty polerskiej z paneli. Nasza ściereczka do polerowania jest miękka, elastyczna i bardzo chłonna. Niskopylący materiał zapewnia jednoczesne czyszczenie i ochronę antystatyczną.
Do wycierania pozostałości po środkach polerskich i mleczkach z paneli użyj 3M™ Perfect-It™ ściereczki do polerowania. 

Zaprojektowana do użytku z 3M™ Perfect-It™ środkami polerskimi nasza ściereczka do polerowania jest miękka, elastyczna i bardzo chłonna. Ściereczka niskopyląca zapewnia ochronę antystatyczną.

Nasze ściereczki są odporne na rozdarcie, nawet gdy są wilgotne. Używaj w celu uzyskania ulepszonego wykończenia.","null","400 Milimetr","320 Milimetr","null","null","null","null","null","null","null","null","null","https://multimedia.3m.com/mws/media/1737063P/3m-perfect-it-iii-polishing-wipe-320mmx400mm-pn34569.jpg","[]","3M ID 7100198422","https://multimedia.3m.com/mws/media/1871447O/3m-professional-polishing-wipe-34568.pdf&fn=3m-professional-polishing-wipe-34568-technical-datasheet-ceemea.pdf","null","null","null"
"1598108338-889","https://www.3mpolska.pl/3M/pl_PL/firma-pl/all-3m-products/~/Wszystkie-produkty-3M/Kosmetyki-samochodowe/?N=5002385+8710649+8711017&rt=r3","3M™ Gąbka ścierna","https://www.3mpolska.pl/3M/pl_PL/firma-pl/all-3m-products/~/3M-G%C4%85bka-%C5%9Bcierna/?N=5002385+8710649+3293242377&rt=rud","null","3M™ Gąbka ścierna","Elastyczne arkusze piankowe, pokryte ścierniwem
Umożliwiają szlifowanie trudno dostępnych miejsc
Pozwalają uniknąc powstania śladów palców przy mocniejszym nacisku","Do pracy w trudno dostępnych miejscach, do szlifowania krawędzi profilowanych i nieregularnych powierzchni.

Elastyczne arkusze piankowe, pokryte ścierniwem
Umożliwiają szlifowanie trudno dostępnych miejsc
Pozwalają uniknąc powstania śladów palców przy mocniejszym nacisku","null","115 Milimetr","140 Milimetr","null","null","null","Tlenek aluminium","null","null","null","null","null","https://multimedia.3m.com/mws/media/1421340P/3m-softback-sanding-sponge.jpg","[{""Dostępne warianty"":""3M ID 7000043359""},{""Dostępne warianty"":""3M ID 7000043357""},{""Dostępne warianty"":""3M ID 7000043358""},{""Dostępne warianty"":""3M ID 7000033200""},{""Dostępne warianty"":""3M ID 7000033201""}]","null","https://multimedia.3m.com/mws/media/1819418O/3m-softback-sanding-sponges.pdf&fn=3m-softback-sanding-sponges-technical-datasheet-english_V2-ceemea.pdf","null","null","null"
"1598108331-888","https://www.3mpolska.pl/3M/pl_PL/firma-pl/all-3m-products/~/Wszystkie-produkty-3M/Kosmetyki-samochodowe/?N=5002385+8710649+8711017&rt=r3","3M™ Hookit™ Elastyczny dysk ścierny 270J","https://www.3mpolska.pl/3M/pl_PL/firma-pl/all-3m-products/~/3M-Hookit-Elastyczny-dysk-%C5%9Bcierny-270J/?N=5002385+8710649+3292960708&rt=rud","null","3M™ Hookit™ Elastyczny dysk ścierny 270J","Doskonała elastyczność
Redukuje ryzyko przypaleń lakieru
Pozwala dotrzeć do trudno dostępnych miejsc
Dostępna duża rozpiętość gradacji","Do szlifowania na sucho, produkt ten zapewnia doskonałe wykończenie powierzchni dzięki elastycznej konstrukcji, która dostosowuje się do każdej powierzchni. Produkt idealny do zastosowania przy szlifowaniu podkładu, przygotowania powierzchni, czy jej wykończenia.

Doskonała elastyczność
Redukuje ryzyko przypaleń lakieru
Pozwala dotrzeć do trudno dostępnych miejsc
Dostępna duża rozpiętość gradacji
Perfekcyjne rezultaty","null","null","null","null","null","null","Tlenek aluminium","null","null","null","null","Haczyk-pętelka","https://multimedia.3m.com/mws/media/1421331P/3m-hookit-flexible-abrasive-disc-270j.jpg","[{""Dostępne warianty"":""3M ID 7100018799""},{""Dostępne warianty"":""3M ID 7100104515""},{""Dostępne warianty"":""3M ID 7100018796""},{""Dostępne warianty"":""3M ID 7100018810""},{""Dostępne warianty"":""3M ID 7100104330""},{""Dostępne warianty"":""3M ID 7100018798""},{""Dostępne warianty"":""3M ID 7100018327""},{""Dostępne warianty"":""3M ID 7100104332""},{""Dostępne warianty"":""3M ID 7100104331""},{""Dostępne warianty"":""3M ID 7100018328""},{""Dostępne warianty"":""3M ID 7100104547""}]","null","https://multimedia.3m.com/mws/media/1704360O/commercial-vehicle-sop.pdf&fn=Commercial Vehicles SOPs TRIFECTA_Europe_HiRes.pdf","null","null","null"
"1598108343-890","https://www.3mpolska.pl/3M/pl_PL/firma-pl/all-3m-products/~/Wszystkie-produkty-3M/Kosmetyki-samochodowe/?N=5002385+8710649+8711017&rt=r3","3M™ Perfect-It™ Gąbka polerska","https://www.3mpolska.pl/3M/pl_PL/firma-pl/all-3m-products/~/3M-Perfect-It-G%C4%85bka-polerska/?N=5002385+8710649+3293241056&rt=rud","null","3M™ Perfect-It™ Gąbka polerska","Przeznaczony do zapewniania wysokiego połysku na ciemnych lakierach
Usuwa koliste zarysowania i pozostawia wysoki połysk
Wytrzymała.
Zapewnia najlepsze wykończenie.","Gąbka polerska usuwająca refleksy z powierzchni lakierowanych nawet w przypadku samochodów o ciemnym kolorze.
Gąbka polerska niebieska Perfect-It™.  Gąbka umożliwiający równomierne polerowanie.  Umożliwia wykończenie wszystkich powierzchni lakierowanych bez pozostawiania hologramów.


Przeznaczony do zapewniania wysokiego połysku na ciemnych lakierach
Usuwa koliste zarysowania i pozostawia wysoki połysk
Wytrzymała.
Zapewnia najlepsze wykończenie.
Kodowanie kolorem","null","null","null","null","null","null","pianka","null","null","null","null","Polerowanie","https://multimedia.3m.com/mws/media/1421343P/3m-perfect-it-ultrafine-polishing-pad.jpg","[{""Dostępne warianty"":""3M ID 7000032123""},{""Dostępne warianty"":""3M ID 7100094459""},{""Dostępne warianty"":""3M ID 7100094550""},{""Dostępne warianty"":""3M ID 7000060159""}]","null","https://multimedia.3m.com/mws/media/1302717O/31583-vam-solution-brochure-v9-31583-vam-solution-brochure.pdf&fn=31583 VAM Solution Brochure V9_31583 VAM Solution Brochure V9_SinglePages_LR.pdf","null","null","null"
"1598108325-887","https://www.3mpolska.pl/3M/pl_PL/firma-pl/all-3m-products/~/Wszystkie-produkty-3M/Kosmetyki-samochodowe/?N=5002385+8710649+8711017&rt=r3","3M™ Perfect-It™ Gąbka polerska","https://www.3mpolska.pl/3M/pl_PL/firma-pl/all-3m-products/~/3M-Perfect-It-G%C4%85bka-polerska/?N=5002385+8710649+3293211307&rt=rud","3M ID 7000032135","3M™ Perfect-It™ Gąbka polerska","Wykończenie bez hologramów
Wytrzymała.
Wykończenie bez zarysowań
Maksymalna skuteczność polerowania","Miękka gąbka polerska, pozwalająca uzyskać maksymalny połysk. Przeznaczona do usuwania hologramów i refleksów.
Firma 3M oferuje szeroką gamę produktów przeznaczonych do polerowania, dzięki którym można uzyskać idealne wykończenie powierzchni polerowanej.  Środki polerskie wraz z gąbkami zapewniają doskonałe wykończenie.


Wykończenie bez hologramów
Wytrzymała.
Wykończenie bez zarysowań
Maksymalna skuteczność polerowania","null","null","null","null","null","null","pianka","null","null","null","null","Polerowanie","https://multimedia.3m.com/mws/media/916558P/3m-perfect-it-iii-high-gloss-polishing-pad.jpg","[]","null","https://multimedia.3m.com/mws/media/1302717O/31583-vam-solution-brochure-v9-31583-vam-solution-brochure.pdf&fn=31583 VAM Solution Brochure V9_31583 VAM Solution Brochure V9_SinglePages_LR.pdf","null","null","null"
"1598108375-896","https://www.3mpolska.pl/3M/pl_PL/firma-pl/all-3m-products/~/Wszystkie-produkty-3M/Kosmetyki-samochodowe/?N=5002385+8710649+8711017&rt=r3","3M™ Trizact™ Hookit™ Uchwyt ręczny do krążków","https://www.3mpolska.pl/3M/pl_PL/firma-pl/all-3m-products/~/3M-Trizact-Hookit-Uchwyt-r%C4%99czny-do-kr%C4%85%C5%BCk%C3%B3w/?N=5002385+8710649+3293193970&rt=rud","null","3M™ Trizact™ Hookit™ Uchwyt ręczny do krążków","Zoptymalizowany odsys pyłu
Czyste środowisko pracy","Wielootworowy wzór ułatwia odsys pyłu dzięki czemu środowisko pracy jest bezpieczniejsze. Specjalna konstrukcja poprawia jakość i komfort pracy.

Zoptymalizowany odsys pyłu
Czyste środowisko pracy","null","null","127 Milimetr, 150 Milimetr","null","null","null","null","null","null","null","null","Haczyk-pętelka","https://multimedia.3m.com/mws/media/1421332P/3m-trizact-abrasive-hand-pad.jpg","[{""Dostępne warianty"":""3M ID 7000084116""},{""Dostępne warianty"":""3M ID 7000034317""}]","null","https://multimedia.3m.com/mws/media/1838721O/3m-automotive-aftermarket-product-catalogue-2020.pdf&fn=J468288 AAD NER Product Catalogue 2020 ForOfficeUse.pdf","null","null","null"
"1598108408-901","https://www.3mpolska.pl/3M/pl_PL/firma-pl/all-3m-products/~/Wszystkie-produkty-3M/Kosmetyki-samochodowe/?N=5002385+8710649+8711017&rt=r3","3M™ Trizact™ Hookit™ Krążek ścierny 443SA","https://www.3mpolska.pl/3M/pl_PL/firma-pl/all-3m-products/~/3M-Trizact-Hookit-Kr%C4%85%C5%BCek-%C5%9Bcierny-443SA/?N=5002385+8710649+3293223566&rt=rud","null","3M™ Trizact™ Hookit™ Krążek ścierny 443SA","Usuwa zarysowania powierzchni
Do zastosowania przed użyciem systemu polerskiego
Eliminuje ryzyko wykonania koniecznych poprawek
Zawsze używać na mokro","Krążek piankowy, używany w ramach systemu do napraw miejscowych, przeznaczony do usuwania rys od piasku przez zastosowaniem systemu do poprawek na panelach 3M™ Perfect-It™ 3000.

Usuwa zarysowania powierzchni
Do zastosowania przed użyciem systemu polerskiego
Eliminuje ryzyko wykonania koniecznych poprawek
Zawsze używać na mokro","null","null","null","null","null","null","Węglik Krzemu","null","null","null","null","Haczyk-pętelka","https://multimedia.3m.com/mws/media/1058306P/3m-trizact-hookit-abrasive-disc-443sa.jpg","[{""Dostępne warianty"":""3M ID 7000034391""},{""Dostępne warianty"":""3M ID 7100193783""},{""Dostępne warianty"":""3M ID 7000034390""},{""Dostępne warianty"":""3M ID 7000043154""},{""Dostępne warianty"":""3M ID 7100193763""},{""Dostępne warianty"":""3M ID 7000034489""},{""Dostępne warianty"":""3M ID 7100193764""}]","null","https://multimedia.3m.com/mws/media/1809092O/3m-443sa-trizact-blending-discs.pdf&fn=3m-443sa-trizact-fine-finishing-discs-technical-datasheet-english_V2-ceemea.pdf","null","null","null"
"1598108349-891","https://www.3mpolska.pl/3M/pl_PL/firma-pl/all-3m-products/~/Wszystkie-produkty-3M/Kosmetyki-samochodowe/?N=5002385+8710649+8711017&rt=r3","3M™ Wetordry™ Wodoodporny papier ...","https://www.3mpolska.pl/3M/pl_PL/firma-pl/all-3m-products/~/3M-Wetordry-Wodoodporny-papier-%C5%9Bcierny-401Q/?N=5002385+8710649+3293242385&rt=rud","null","3M™ Wetordry™ Wodoodporny papier ścierny 401Q","Może być używany na sucho lub na mokro na lakierze, podkładzie, żelkocie lub metalu
Wodoodporny podkład umożliwia pracę z użyciem wody
Szlifuje każdą powierzchnię
Występuje w gradacji od P1500 do P2500","Ten wyjątkowy, wodoodporny materiał ścierny został stworzony do szlifowania ręcznego. Użycie wody eliminuje zapychanie się materiału ściernego co przedłuża jego żywotność. Używać na mokro.
Alternatywa dla szlifowania ręcznego, stosowana na etapie pierwszym, w ramach systemu 3M™ Trizact™ do poprawek miejscowych i na małych panelach.


Może być używany na sucho lub na mokro na lakierze, podkładzie, żelkocie lub metalu
Wodoodporny podkład umożliwia pracę z użyciem wody
Szlifuje każdą powierzchnię
Występuje w gradacji od P1500 do P2500
Perfekcyjne rezultaty","null","138 Milimetr, 139,7 Milimetr","230 Milimetr","null","null","null","Węglik Krzemu","null","null","null","null","Brak","https://multimedia.3m.com/mws/media/1068692P/3m-wetordry-abrasive-sheet-401q.jpg","[{""Dostępne warianty"":""3M ID 7000028117""},{""Dostępne warianty"":""3M ID 7100050365""},{""Dostępne warianty"":""3M ID 7100050366""}]","null","https://multimedia.3m.com/mws/media/1809088O/3m-401q-wetordry-paper.pdf&fn=3m-401q-wetordry-paper-technical-datasheet-english_V2-ceemea.pdf","null","null","null"
"1598108413-902","https://www.3mpolska.pl/3M/pl_PL/firma-pl/all-3m-products/~/Wszystkie-produkty-3M/Kosmetyki-samochodowe/?N=5002385+8710649+8711017&rt=r3","3M™ Perfect-It™ Środek polerski do usuwania ...","https://www.3mpolska.pl/3M/pl_PL/firma-pl/all-3m-products/~/3M-Perfect-It-%C5%9Arodek-polerski-do-usuwania-wtr%C4%85ce%C5%84/?N=5002385+8710649+3293193863&rt=rud","null","3M™ Perfect-It™ Środek polerski do usuwania wtrąceń","Ten środek polerski jest przeznaczony do usuwania rys szlifierskich o gradacji 1500 powstałych podczas procesu usuwania wtrąceń 3M™ Perfect-It™
Do stosowania w procesie usuwania wtrąceń 3M™ Perfect-It™
Unikalna receptura
Środek z 3M™ gamy produktów do usuwania wtrąceń","Użyj 3M™ Perfect-It™ Środka polerskiego do usuwania wtrąceń jako wysokowydajnego środka polerskiego do usuwania rys szlifierskich o gradacji 1500 podczas procesu usuwania wtrąceń 3M™ Perfect-It™.
Wysokowydajny środek polerski do usuwania wtrąceń. 3M™ Perfect-It™ Środek polerski do usuwania wtrąceń posiada wyjątkową recepturę, która umożliwia usuwanie rys szlifierskich o gradacji 1500 podczas procesu usuwania wtrąceń 3M™ Perfect-It™.


Ten środek polerski jest przeznaczony do usuwania rys szlifierskich o gradacji 1500 powstałych podczas procesu usuwania wtrąceń 3M™ Perfect-It™
Do stosowania w procesie usuwania wtrąceń 3M™ Perfect-It™
Unikalna receptura
Środek z 3M™ gamy produktów do usuwania wtrąceń","null","null","null","null","null","null","null","null","null","16,9 Uncja","null","null","https://multimedia.3m.com/mws/media/1134303P/3m-perfect-it-denibbing-polish-lg1-pn50665-cfop.jpg","[{""Dostępne warianty"":""3M ID 7100095707""},{""Dostępne warianty"":""3M ID 7100095764""}]","null","https://multimedia.3m.com/mws/mediawebserver?mwsId=SSSSSuUn_zu8l9UlMYt14x2xNvVsj17zHvu9lx_D7SSSSSS--","null","null","null"
"1598108436-906","https://www.3mpolska.pl/3M/pl_PL/firma-pl/all-3m-products/~/Wszystkie-produkty-3M/Kosmetyki-samochodowe/?N=5002385+8710649+8711017&rt=r3","3M™ Trizact™ Hookit™ Krążek ścierny 75 mm ...","https://www.3mpolska.pl/3M/pl_PL/firma-pl/all-3m-products/~/3M-Trizact-Hookit-Kr%C4%85%C5%BCek-%C5%9Bcierny-75-mm-P1500/?N=5002385+8710649+3293194160&rt=rud","null","3M™ Trizact™ Hookit™ Krążek ścierny 75 mm P1500","Wysokiej jakości dysk z systemem mocowania Hookit™
Usuwanie grudek pyłu i skórki pomarańczowej, niepasującej do tekstury
Może być użyty na szlifierkach obrotowych","Krążki ścierne 3M™ Trizact™ przeznaczone do usuwania wad lakierniczych powstałych przy lakierowaniu. Wykonane z materiału o strukturze małych piramid, które zawierają wiele warstw materiału ściernego. Używać na mokro.

Wysokiej jakości dysk z systemem mocowania Hookit™
Usuwanie grudek pyłu i skórki pomarańczowej, niepasującej do tekstury
Może być użyty na szlifierkach obrotowych","null","null","null","null","null","null","Węglik Krzemu","null","null","null","null","Haczyk-pętelka","https://multimedia.3m.com/mws/media/1421344P/3m-trizact-hookit-clear-coat-sanding-abrasive-disc-471la.jpg","[{""Dostępne warianty"":""3M ID 7100041081""},{""Dostępne warianty"":""3M ID 7100041423""}]","null","https://multimedia.3m.com/mws/media/1809095O/3m-471la-hookit-trizact-clearcoat-sanding-disc-p1500.pdf&fn=3m-471la-hookit-trizact-clear-coat-sanding-disc-p1500-technical-datasheet-english_V2-ceemea.pdf","null","null","null"
"1598108353-892","https://www.3mpolska.pl/3M/pl_PL/firma-pl/all-3m-products/~/Wszystkie-produkty-3M/Kosmetyki-samochodowe/?N=5002385+8710649+8711017&rt=r3","3M™ Perfect-It™ Glinka czyszcząca do lakieru","https://www.3mpolska.pl/3M/pl_PL/firma-pl/all-3m-products/~/3M-Perfect-It-Glinka-czyszcz%C4%85ca-do-lakieru/?N=5002385+8710649+3293194124&rt=rud","3M ID 7000034232","3M™ Perfect-It™ Glinka czyszcząca do lakieru","Bezpieczne usuwanie zanieczyszczeń pojawiających się na lakierze
Stosowanie po namoczeniu w wodzie.
Skuteczne działanie w przypadku powierzchni lakierowanych, szklanych i chromowanych
Produkt zapakowany w tubkę umożliwiającą jego wygodne składowanie","Cleaner Clay specjalna masa plastyczna do oczyszczania powierchni lakieru z przypylenia(over spray), oraz innych trudnych do usunięcia zanieczyszczeń. Produkt ten można skutecznie stosować na powierzchniach lakierowanych, szklanych i chromowanych.
Zalecane zastosowanie obejmuje usuwanie z zewnętrznych powierzchni lakierowanych, szklanych i metalowych takich zanieczyszczeń jak plamy z żywicy, plamy ze smoły, resztki z rozpylanych preparatów, kurz przemysłowy, naloty rdzy, resztki owadów, inne trudne do usunięcia zabrudzenia.


Bezpieczne usuwanie zanieczyszczeń pojawiających się na lakierze
Stosowanie po namoczeniu w wodzie.
Skuteczne działanie w przypadku powierzchni lakierowanych, szklanych i chromowanych
Produkt zapakowany w tubkę umożliwiającą jego wygodne składowanie
Zalecane zastosowanie obejmuje usuwanie z zewnętrznych powierzchni lakierowanych, szklanych i metalowych takich zanieczyszczeń jak plamy z żywicy, plamy ze smoły, resztki z rozpylanych preparatów, kurz przemysłowy, naloty rdzy, resztki owadów, inne trudne do usunięcia zabrudzenia.","null","null","null","null","null","null","null","null","null","7 Uncja","null","Polerowanie","https://multimedia.3m.com/mws/media/371851P/3mtm-perfect-ittm-iii-cleaner-clay-38070-200-g.jpg","[]","null","https://multimedia.3m.com/mws/mediawebserver?mwsId=SSSSSuUn_zu8l9UllYt9Nxt1nvVsj17zHvu9lx_D7SSSSSS--","null","null","null"
"1598108424-904","https://www.3mpolska.pl/3M/pl_PL/firma-pl/all-3m-products/~/Wszystkie-produkty-3M/Kosmetyki-samochodowe/?N=5002385+8710649+8711017&rt=r3","3M™ Perfect-It™ Gąbka polerska","https://www.3mpolska.pl/3M/pl_PL/firma-pl/all-3m-products/~/3M-Perfect-It-G%C4%85bka-polerska/?N=5002385+8710649+3293241537&rt=rud","null","3M™ Perfect-It™ Gąbka polerska","Zaprojektowany do usuwania sprężynek po środku polerskim i innych drobnych wad powierzchniowych
Uzyskaj wykończenie o wysokim połysku, używając delikatnej, miękkiej gąbki polerskiej
Do użytku z 3M™ środkami polerskimi
Główny element 3M procesu polerowania z kodowaniem kolorami","Gąbka polerska 3M™ Perfect-It™ jest miękką, porowatą gąbką. Gąbka wykonana z pianki szybko usuwa zawirowania powstałe po polerowaniu oraz drobne defekty zarówno na powierzchniach lakierowanych po naprawie, jak i oryginalnych lakierach OEM.
Gąbka polerska 3M™ Perfect-It™ jest miękką, porowatą gąbką. Gąbka wykonana z pianki szybko usuwa zawirowania powstałe po polerowaniu oraz drobne defekty zarówno na powierzchniach lakierowanych po naprawie, jak i oryginalnych lakierach OEM.


Zaprojektowany do usuwania sprężynek po środku polerskim i innych drobnych wad powierzchniowych
Uzyskaj wykończenie o wysokim połysku, używając delikatnej, miękkiej gąbki polerskiej
Do użytku z 3M™ środkami polerskimi
Główny element 3M procesu polerowania z kodowaniem kolorami","null","null","null","null","null","null","pianka","null","null","null","null","null","https://multimedia.3m.com/mws/media/1229882P/ibgbkbv00552-perfect-it-foam-polishing-pad-grpa.jpg","[{""Dostępne warianty"":""3M ID 7100094457""},{""Dostępne warianty"":""3M ID 7100094456""}]","null","https://multimedia.3m.com/mws/media/1302717O/31583-vam-solution-brochure-v9-31583-vam-solution-brochure.pdf&fn=31583 VAM Solution Brochure V9_31583 VAM Solution Brochure V9_SinglePages_LR.pdf","null","null","null"
"1598108418-903","https://www.3mpolska.pl/3M/pl_PL/firma-pl/all-3m-products/~/Wszystkie-produkty-3M/Kosmetyki-samochodowe/?N=5002385+8710649+8711017&rt=r3","Gąbka polerska Finesse-It™","https://www.3mpolska.pl/3M/pl_PL/firma-pl/all-3m-products/~/G%C4%85bka-polerska-Finesse-It-/?N=5002385+8710649+3293223471&rt=rud","null","Gąbka polerska Finesse-It™","Nadaje wysoki połysk
Wygładza powierzchnię lakieru
Eliminuje drobne rysy","Filc polerski 3M w połączeniu z naszymi mleczkami polerskimi 3M™ Perfect-It™ redukuje zarysowania i sprężynki. Po użyciu uzyskujemy idealną płaszczyznę z wysokim połyskiem.

Nadaje wysoki połysk
Wygładza powierzchnię lakieru
Eliminuje drobne rysy","null","null","null","null","null","null","pianka","null","null","null","null","Polerowanie","https://multimedia.3m.com/mws/media/1229599P/foam-polishing-pad-grpa.jpg","[{""Dostępne warianty"":""3M ID 7000110579""},{""Dostępne warianty"":""3M ID 7000110580""}]","null","https://multimedia.3m.com/mws/media/1838721O/3m-automotive-aftermarket-product-catalogue-2020.pdf&fn=J468288 AAD NER Product Catalogue 2020 ForOfficeUse.pdf","null","null","null"
"1598108431-905","https://www.3mpolska.pl/3M/pl_PL/firma-pl/all-3m-products/~/Wszystkie-produkty-3M/Kosmetyki-samochodowe/?N=5002385+8710649+8711017&rt=r3","3M™ Perfect-It™ Gąbka polerska","https://www.3mpolska.pl/3M/pl_PL/firma-pl/all-3m-products/~/3M-Perfect-It-G%C4%85bka-polerska/?N=5002385+8710649+3293241115&rt=rud","null","3M™ Perfect-It™ Gąbka polerska","Przeznaczony do polerowania zarysowań pozostałych po szlifowaniu powłok lakierniczych.
Pozwala usunąć rysy powstałe podczas szlifowania, a także inne wady na powierzchni lakieru.
Gąbkę można łatwo wyczyścić piorąc ją.
Gąbka zapewniający szybkie i dokładne wykończenie.","Gąbka polerska przeznaczona do stosowania głównie z mleczkiem polerskim Extra Fine. Gąbka ta zapewnia przejście, umożliwiając usunięcie zarysowań i wad z odnowionej lub oryginalnej powłoki lakierniczej.
Gąbka polerska zapewnia agresywne przejście pozwalające usunąć głębsze zarysowania, refleksy oraz hologramy dzięki użyciu z mleczkami polerskimi 3M.  Gąbka polerska o dużej wytrzymałości.


Przeznaczony do polerowania zarysowań pozostałych po szlifowaniu powłok lakierniczych.
Pozwala usunąć rysy powstałe podczas szlifowania, a także inne wady na powierzchni lakieru.
Gąbkę można łatwo wyczyścić piorąc ją.
Gąbka zapewniający szybkie i dokładne wykończenie.
Gąbka polerska przeznaczona do stosowania głównie z mleczkiem polerskim 50417 Fast Cut Plus i 51052 Fast Cut XL.","null","null","null","null","null","null","pianka","null","null","null","null","Polerowanie","https://multimedia.3m.com/mws/media/1229881P/ibgbkbv00551-perfect-it-foam-compounding-pad-grpa.jpg","[{""Dostępne warianty"":""3M ID 7000032137""},{""Dostępne warianty"":""3M ID 7100094458""},{""Dostępne warianty"":""3M ID 7000032308""},{""Dostępne warianty"":""3M ID 7000032139""},{""Dostępne warianty"":""3M ID 7100094455""},{""Dostępne warianty"":""3M ID 7100094551""}]","null","https://multimedia.3m.com/mws/media/1703172O/3m-1-step-a4-brochure-and-poster.pdf&fn=3M Perfect It 1-Step A4 Brochure and Fold Out Poster.pdf","null","null","null"
"1598108358-893","https://www.3mpolska.pl/3M/pl_PL/firma-pl/all-3m-products/~/Wszystkie-produkty-3M/Kosmetyki-samochodowe/?N=5002385+8710649+8711017&rt=r3","3M™ Perfect-It™ Gąbka nabłyszczająca","https://www.3mpolska.pl/3M/pl_PL/firma-pl/all-3m-products/~/3M-Perfect-It-G%C4%85bka-nab%C5%82yszczaj%C4%85ca/?N=5002385+8710649+3293194123&rt=rud","3M ID B40067388","3M™ Perfect-It™ Gąbka nabłyszczająca","null","null","null","null","null","null","null","null","null","null","null","null","null","null","https://multimedia.3m.com/mws/media/1149960P/3m-perfect-it-da-glazing-pad-pn05729-cfop.jpg","[]","null","https://multimedia.3m.com/mws/media/1838721O/3m-automotive-aftermarket-product-catalogue-2020.pdf&fn=J468288 AAD NER Product Catalogue 2020 ForOfficeUse.pdf","null","null","null"
"1598108402-900","https://www.3mpolska.pl/3M/pl_PL/firma-pl/all-3m-products/~/Wszystkie-produkty-3M/Kosmetyki-samochodowe/?N=5002385+8710649+8711017&rt=r3","3M™ Środek do polerowania lamp","https://www.3mpolska.pl/3M/pl_PL/firma-pl/all-3m-products/~/3M-%C5%9Arodek-do-polerowania-lamp/?N=5002385+8710649+3292958503&rt=rud","3M ID 7100095689","3M™ Środek do polerowania lamp","Usuwa zarysowania, zmatowienia z zewnetrznych reflektorów
Usuwa zażółcenia z reflektorów
Stare reflektory wyglądają jak nowe","Usuwa zarysowania, zmatowienia z zewnetrznych reflektorów
Usuwa zażółcenia z reflektorów
Stare reflektory wyglądają jak nowe

Do użycia w ostatnim etapie systemu do polerowania reflektorów.
Można użyć do usuwania delikatnych zarysowań na platikowych elementach aby przywrócić im przejrzystość.","null","null","null","null","null","null","null","null","null","null","null","null","https://multimedia.3m.com/mws/media/1150176P/3m-plastic-restorer-pn59015-cfop.jpg","[]","null","https://multimedia.3m.com/mws/media/1809229O/3m-plastic-restorer-59015.pdf&fn=3m-plastic-restorer-59015-technical-datasheet-english_V2-ceemea.pdf","null","null","null"
"1598108390-898","https://www.3mpolska.pl/3M/pl_PL/firma-pl/all-3m-products/~/Wszystkie-produkty-3M/Kosmetyki-samochodowe/?N=5002385+8710649+8711017&rt=r3","3M™ Hookit™ Elastyczny dysk ścierny na gąbce","https://www.3mpolska.pl/3M/pl_PL/firma-pl/all-3m-products/~/3M-Hookit-Elastyczny-dysk-%C5%9Bcierny-na-g%C4%85bce/?N=5002385+8710649+3291077224&rt=rud","null","3M™ Hookit™ Elastyczny dysk ścierny na gąbce","Bardzo uniwersalny
Do użycia na sucho lub na mokro
Może być wykorzystany do szlifowania ręczne oraz maszynowego","Bardzo uniwersalny
Do użycia na sucho lub na mokro
Może być wykorzystany do szlifowania ręczne oraz maszynowego

Elastyczne dyski ścierne na gąbce Hookit™ zawierają miękką podkładkę, która pozwala na efektywne i bardzo szybkie matowanie powierzchni. Można ich używać zarówno na sucho, jak i na mokro.","null","null","null","null","null","null","Tlenek aluminium","null","null","null","null","Haczyk-pętelka","https://multimedia.3m.com/mws/media/1567091P/3m-hookit-flexible-abrasive-foam-disc.jpg","[{""Dostępne warianty"":""3M ID 7100100154""},{""Dostępne warianty"":""3M ID 7100100157""},{""Dostępne warianty"":""3M ID 7100100156""},{""Dostępne warianty"":""3M ID 7100100152""},{""Dostępne warianty"":""3M ID 7100100153""},{""Dostępne warianty"":""3M ID 7100100150""},{""Dostępne warianty"":""3M ID 7100100151""},{""Dostępne warianty"":""3M ID 7100100148""},{""Dostępne warianty"":""3M ID 7100100147""},{""Dostępne warianty"":""3M ID 7100100155""},{""Dostępne warianty"":""3M ID 7100100159""},{""Dostępne warianty"":""3M ID 7100100036""},{""Dostępne warianty"":""3M ID 7100100160""},{""Dostępne warianty"":""3M ID 7100100149""},{""Dostępne warianty"":""3M ID 7100100158""}]","null","https://multimedia.3m.com/mws/media/1438816O/3m-hookit-flexible-foam-abrasive-disc.pdf&fn=3M flexible foam abrasive discs.pdf","null","null","null"
"1598108317-886","https://www.3mpolska.pl/3M/pl_PL/firma-pl/all-3m-products/~/Wszystkie-produkty-3M/Kosmetyki-samochodowe/?N=5002385+8710649+8711017&rt=r3","3M™ Środek polerski do tworzyw sztucznych","https://www.3mpolska.pl/3M/pl_PL/firma-pl/all-3m-products/~/3M-%C5%9Arodek-polerski-do-tworzyw-sztucznych/?N=5002385+8710649+3292944648&rt=rud","3M ID 7100095762","3M™ Środek polerski do tworzyw sztucznych","Nadaje nowy wygląd wyblakłym i odbarwionym soczewkom reflektorów
Usuwa rysy po szlifowaniu przy użyciu Trizact™ o gradacji 3000
Jeden z elementów 3M™ systemu renowacji reflektorów
Poręczna butelka z podajnikiem typu flip-top","Nadaje nowy wygląd wyblakłym i odbarwionym soczewkom reflektorów
Usuwa rysy po szlifowaniu przy użyciu Trizact™ o gradacji 3000
Jeden z elementów 3M™ systemu renowacji reflektorów
Poręczna butelka z podajnikiem typu flip-top

3M™ Środek polerski do tworzyw sztucznych jest przeznaczony do polerowania rys powstałych po szlifowaniu przy użyciu Trizact™ o gradacji 3000. Nasz środek polerski nadaje nowy wygląd wyblakłym i odbarwionym soczewkom reflektorów.
Środek polerski do tworzyw sztucznych 3M™ nadaje nowy wygląd wyblakłym i odbarwionym soczewkom reflektorów. Nasz środek polerski jest przeznaczony do usuwania rys po szlifowaniu przy użyciu Trizact™ o gradacji 3000.

Ten środek polerski do tworzyw sztucznych jest jednym z elementów 3M systemu renowacji reflektorów.","null","null","null","null","null","null","null","null","null","null","null","null","https://multimedia.3m.com/mws/media/1150177P/3m-plastic-polish-pn59016-cfop.jpg","[]","null","https://multimedia.3m.com/mws/media/1809227O/3m-plastic-polish-59016.pdf&fn=3m-plastic-polish-59016-technical-datasheet-english_V3-ceemea_R1.pdf","null","null","null"
"1598108381-897","https://www.3mpolska.pl/3M/pl_PL/firma-pl/all-3m-products/~/Wszystkie-produkty-3M/Kosmetyki-samochodowe/?N=5002385+8710649+8711017&rt=r3","3M™ Perfect-It™ Ściereczka polerska","https://www.3mpolska.pl/3M/pl_PL/firma-pl/all-3m-products/~/3M-Perfect-It-%C5%9Aciereczka-polerska/?N=5002385+8710649+3292960021&rt=rud","null","3M™ Perfect-It™ Ściereczka polerska","Pozwala szybko i łatwo zetrzeć pozostały brud, kurz i odciski palców
Niepowodująca zadrapań tkanina o niskiej pylności
Odporna na chemikalia
Nadaje się do szerokiej gamy powierzchni","Wysokowydajna ultramiękka ściereczka polerska 3M™ Perfect-It™ do ścierania pozostałości kurzu, brudu i odcisków palców, nie pozostawiaj rys. Ściereczka może być używana na szerokiej gamie powierzchni, w tym szkle, metalu, chromie, winylu i skórze.

Pozwala szybko i łatwo zetrzeć pozostały brud, kurz i odciski palców
Niepowodująca zadrapań tkanina o niskiej pylności
Odporna na chemikalia
Nadaje się do szerokiej gamy powierzchni","Niebieski, Żółty","320 Milimetr","360 Milimetr","null","null","null","null","null","null","null","null","Polerowanie","https://multimedia.3m.com/mws/media/884727P/3m-perfect-it-iii-hochleistungs-poliertuch.jpg","[{""Dostępne warianty"":""3M ID 7000032156""},{""Dostępne warianty"":""3M ID 7000032157""}]","null","https://multimedia.3m.com/mws/media/1302717O/31583-vam-solution-brochure-v9-31583-vam-solution-brochure.pdf&fn=31583 VAM Solution Brochure V9_31583 VAM Solution Brochure V9_SinglePages_LR.pdf","null","null","null"
"1598108396-899","https://www.3mpolska.pl/3M/pl_PL/firma-pl/all-3m-products/~/Wszystkie-produkty-3M/Kosmetyki-samochodowe/?N=5002385+8710649+8711017&rt=r3","3M™ Perfect-It™ Gąbka do wykańczania ...","https://www.3mpolska.pl/3M/pl_PL/firma-pl/all-3m-products/~/3M-Perfect-It-G%C4%85bka-do-wyka%C5%84czania-1-etapowego/?N=5002385+8710649+3289876531&rt=rud","null","3M™ Perfect-It™ Gąbka do wykańczania 1-etapowego","Idealnie nadaje się do stosowania ze środkami 3M™ Perfect-It™ Famous Finish lub 3M™ Perfect-It™ 1-Step Finish
Aby uzyskać optymalną wydajność, użyj prędkości od 800 do 1400 obr./min
Karbowana powierzchnia redukuje wytwarzanie ciepła
                     More...
Zapobiega rozpryskom, co pozwala uzyskać szybsze i czystsze efekty końcowe dzięki piankowej konstrukcji, która zatrzymuje w sobie środek polerski","3M™ Perfect-It™ Gąbki do wykańczania 1-etapowego to najskuteczniejsze, fioletowe gąbki do wykańczania, które idealnie nadają się do polerowania rys po szlifowaniu przy użyciu materiału ściernego 3M™ Trizact™ Abrasive 8000 w jednym etapie. Stosuj w połączeniu ze środkami 3M™ Perfect-It™ Famous Finish lub 3M™ Perfect-It™ 1-Step Finish, aby uzyskać najlepsze rezultaty.
Uzyskaj skuteczny proces polerowania i szybkie rezultaty dzięki zastosowaniu gąbek do wykańczania 1-etapowego w połączeniu ze środkami 3M™ Perfect-It™ Famous Finish lub 3M™ Perfect-It™ 1-Step Finish. Po szybkim usunięciu wszelkich niedoskonałości lakieru za pośrednictwem 3M™ Trizact™ 8000, wypoleruj obszar zalecanym środkiem polerskim z fioletową zakrętką nałożonym na gąbkę, aby uzyskać trwałe wykończenie z wysokim połyskiem w jednym etapie w przypadku większości kolorów. Aby uzyskać optymalną wydajność, użyj prędkości od 800 do 1400 obr./min. Ten proces jest idealny w przypadku każdej świeżo nałożonej naprawczej powłoki lakierowej i pozwala szybko uzyskać doskonałe wyniki.


Idealnie nadaje się do stosowania ze środkami 3M™ Perfect-It™ Famous Finish lub 3M™ Perfect-It™ 1-Step Finish
Aby uzyskać optymalną wydajność, użyj prędkości od 800 do 1400 obr./min
Karbowana powierzchnia redukuje wytwarzanie ciepła
Zapobiega rozpryskom, co pozwala uzyskać szybsze i czystsze efekty końcowe dzięki piankowej konstrukcji, która zatrzymuje w sobie środek polerski
Dostępne z dyskami Hookit™ o średnicy 80 mm i 150 mm","null","null","null","null","null","null","pianka","null","null","null","null","null","https://multimedia.3m.com/mws/media/1712251P/3m-perfect-it-1-step-foam-finishing-pad.jpg","[{""Dostępne warianty"":""3M ID 7100205187""},{""Dostępne warianty"":""3M ID 7100203934""}]","null","https://multimedia.3m.com/mws/media/1703172O/3m-1-step-a4-brochure-and-poster.pdf&fn=3M Perfect It 1-Step A4 Brochure and Fold Out Poster.pdf","null","null","null"
