﻿web-scraper-order,web-scraper-start-url,product,product-href,Numer artykułu,Nazwa produktu [DE],Krótki opis produktu [DE],Rozszerzenie opisu produktu [DE],Karta produktu DE [nazwa pliku z rozszerzeniem]
"1586365051-20","https://www.lamix.pl/de/produkty/1/czysciwa.html","C ELLIS PROFESSIONAL 300/2FARBE: WeißWARENCODE: CELB300/2","https://www.lamix.pl/de/produkt/42/ellis-professional-putzrollen-c-ellis-professional-300-2.html","CELB300/2","c ellis professional 300/2","Haltbar und reißfest, Zweilagig, Zellulose, sehr Saugfähig.","Nimmt alle Flüssigkeiten auf, ebenso Öle und Fette; da die Lagen ganzflächig verklebt sind, bleiben die Putztücher stabil.","https://www.lamix.pl/cms/products/00042/karta_towaru.pdf"
"1586365043-16","https://www.lamix.pl/de/produkty/1/czysciwa.html","C ELLIS PROFESSIONAL TAD170/2FARBE: WeißWARENCODE: CELB170/2","https://www.lamix.pl/de/produkt/117/ellis-professional-putzrollen-c-ellis-professional-tad170-2.html","CELB170/2","c ellis professional tad170/2","Haltbar und reißfest, Zweilagig, Zellulose, sehr Saugfähig","nimmt alle Flüssigkeiten auf, ebenso Öle und Fette; da die Lagen ganzflächig verklebt sind, bleiben die Putztücher stabil","https://www.lamix.pl/cms/products/00117/karta_towaru.pdf"
"1586365047-18","https://www.lamix.pl/de/produkty/1/czysciwa.html","R ELLIS PROFESSIONAL 260/1FARBE: WeißWARENCODE: RCO260/1","https://www.lamix.pl/de/produkt/94/ellis-professional-putzrollen-r-ellis-professional-260-1.html","RCO260/1","r ellis professional 260/1","Haltbar und reißfest, Zweilagig, Zellulose, sehr Saugfähig.","Nimmt alle Flüssigkeiten auf und eignet sich ideal zum Abwischen und Putzen unterschiedlichster Flächen (auch zum Abtrocknen der Hände geeignet).","https://www.lamix.pl/cms/products/00094/karta_towaru.pdf"
"1586365041-15","https://www.lamix.pl/de/produkty/1/czysciwa.html","C ELLIS ECOLINE 250/2FARBE: Extra weißWARENCODE: CEEB250/2","https://www.lamix.pl/de/produkt/61/ellis-ecoline-putzrollen-c-ellis-ecoline-250-2.html","CEEB250/2","c ellis ecoline 250/2","Haltbar und reißfest, Zweilagig, Zellulose, sehr Saugfähig.","Nimmt alle Flüssigkeiten auf, ebenso Öle und Fette; da die Lagen ganzflächig verklebt sind, bleiben die Putztücher stabil.","https://www.lamix.pl/cms/products/00061/karta_towaru.pdf"
"1586365035-12","https://www.lamix.pl/de/produkty/1/czysciwa.html","C CLIVER 300/1FARBE: GrünWARENCODE: CSTZ300/1","https://www.lamix.pl/de/produkt/2/cliver-putzrollen-c-cliver-300-1.html","CSTZ300/1","c cliver 300/1","Haltbar und reißfest, höchste Recyclingqualität, sehr Saugfähig.","Nimmt alle Flüssigkeiten auf, ebenso Öle und Fette.","https://www.lamix.pl/cms/products/00002/karta_towaru.pdf"
"1586365045-17","https://www.lamix.pl/de/produkty/1/czysciwa.html","R ELLIS PROFESSIONAL 140/2 SUPERMATICFARBE: WeißWARENCODE: REL140/2","https://www.lamix.pl/de/produkt/95/ellis-professional-putzrollen-r-ellis-professional-140-2-supermatic.html","REL140/2","r ellis professional 140/2 supermatic","Haltbar und reißfest, Zweilagig, Zellulose, sehr Saugfähig.","Nimmt alle Flüssigkeiten auf und eignet sich ideal zum Abwischen und Putzen unterschiedlichster Flächen (auch zum Abtrocknen der Hände geeignet).","https://www.lamix.pl/cms/products/00095/karta_towaru.pdf"
"1586365055-22","https://www.lamix.pl/de/produkty/1/czysciwa.html","C ELLIS PROFESSIONAL 200/2FARBE: WeißWARENCODE: CELB200/2","https://www.lamix.pl/de/produkt/40/ellis-professional-putzrollen-c-ellis-professional-200-2.html","CELB200/2","c ellis professional 200/2","Haltbar und reißfest, Zweilagig, Zellulose, sehr Saugfähig.","Nimmt alle Flüssigkeiten auf, ebenso Öle und Fette; da die Lagen ganzflächig verklebt sind, bleiben die Putztücher stabil.","https://www.lamix.pl/cms/products/00040/karta_towaru.pdf"
"1586365037-13","https://www.lamix.pl/de/produkty/1/czysciwa.html","C ELLIS ECOLINE 180/3FARBE: BlauWARENCODE: CEE180/3","https://www.lamix.pl/de/produkt/99/ellis-ecoline-putzrollen-c-ellis-ecoline-180-3.html","CEE180/3","c ellis ecoline 180/3","Haltbar und reißfest, Zweilagig, Zellulose, sehr Saugfähig.","Nimmt alle Flüssigkeiten auf, ebenso Öle und Fette; da die Lagen ganzflächig verklebt sind, bleiben die Putztücher stabil.","https://www.lamix.pl/cms/products/00099/karta_towaru.pdf"
"1586365049-19","https://www.lamix.pl/de/produkty/1/czysciwa.html","R ELLIS PROFESSIONAL 110/1FARBE: WeißWARENCODE: RCO110/1","https://www.lamix.pl/de/produkt/93/ellis-professional-putzrollen-r-ellis-professional-110-1.html","RCO110/1","r ellis professional 110/1","Haltbar und reißfest, Zweilagig, Zellulose, sehr Saugfähig.","Nimmt alle Flüssigkeiten auf und eignet sich ideal zum Abwischen und Putzen unterschiedlichster Flächen (auch zum Abtrocknen der Hände geeignet).","https://www.lamix.pl/cms/products/00093/karta_towaru.pdf"
"1586365039-14","https://www.lamix.pl/de/produkty/1/czysciwa.html","C ELLIS ECOLINE 360/2FARBE: BlauWARENCODE: CEENB360/2","https://www.lamix.pl/de/produkt/98/ellis-ecoline-putzrollen-c-ellis-ecoline-360-2.html","CEENB360/2","c ellis ecoline 360/2","Haltbar und reißfest, Zweilagig, Zellulose, sehr Saugfähig.","Nimmt alle Flüssigkeiten auf, ebenso Öle und Fette; da die Lagen ganzflächig verklebt sind, bleiben die Putztücher stabil.","https://www.lamix.pl/cms/products/00098/karta_towaru.pdf"
"1586365053-21","https://www.lamix.pl/de/produkty/1/czysciwa.html","C ELLIS PROFESSIONAL 250/2FARBE: WeißWARENCODE: CELB250/2","https://www.lamix.pl/de/produkt/41/ellis-professional-putzrollen-c-ellis-professional-250-2.html","CELB250/2","c ellis professional 250/2","Haltbar und reißfest, Zweilagig, Zellulose, sehr Saugfähig.","Nimmt alle Flüssigkeiten auf, ebenso Öle und Fette; da die Lagen ganzflächig verklebt sind, bleiben die Putztücher stabil.","https://www.lamix.pl/cms/products/00041/karta_towaru.pdf"
