﻿web-scraper-order,web-scraper-start-url,product-link,product-link-href,Nazwa produktu [PL]  Krótki opis produktu [PL],Długość produktu,Szerokość produktu,Kolor,Ilość opakowań pojedynczych w opakowaniu tranportowym [szt],Numer artykułu,Rozszerzenie opisu produktu [PL],Zdjęcie główne produktu,Zdjęcie główne produktu-src
"1587416168-590","https://www.vileda-professional.pl/Materia%C5%82y-%C5%9Bcierne/c/scouring?q=%3AcategorySequenceNumber-asc&resultsPerPage=32","PurActive
				
			
			
				
					Specjalna powłoka PUR Active z łatwością unosi oporne zabrudzenia zachowując przy tym delikatność wobec wszystkich czyszczonych
powierzchni.","https://www.vileda-professional.pl/Materia%C5%82y-%C5%9Bcierne/PurActive/p/PurActive","PurActive, zielony","15 x 7","15 x 7","zielony","10","123115","PurActive
    Soft touch, hard working on several surfaces
    Delikatny w dotyku, skutecznie usuwa zabrudzenia z różnych powierzchni.

Część piankowa jest miękka, dobrze leży w dłoni i oferuje dobrą ergonomię. Nie daj się jednak zwieść jej miękkości – to wytrzymały partner, który oczyszcza różne powierzchnie, nadając im lśniący połysk. Specjalna powłoka PUR Active z łatwością unosi oporne zabrudzenia zachowując przy tym delikatność wobec wszystkich czyszczonych powierzchni. Jest trzykrotnie bardziej efektywna niż tradycyjne nierysujące czyściwa i jest bardziej przyjazna dla powierzchni niż stosowane dotąd produkty i materiały czyszczące.

Higiena i bezpieczeństwo 

Dzięki systemowi kodowania kolorystycznego, można wprowadzić proces utrzymania czystości, gwarantujący spełnienie wysokich standardów higieny i zasad HACCP

Zastosowanie 

Do wszystkich twardych powierzchni wymagających czyszczenia bez zarysowań (najlepiej jest wpierw przetestować produkt w niewidocznym miejscu)
 

Zalety produktu


	Łatwo usuwa tłuszcz i inne zanieczyszczenia
	Czyści delikatnie wszystkie trudne powierzchnie
	Komfortowo dopasowuje się do ręki czyszczącego
	Kodowanie kolorami pomaga w zapobieganiu przenoszenia zanieczyszczeń","[{""Zdjęcie główne produktu"":"""",""Zdjęcie główne produktu-src"":""/medias/02-scouring-04-pur-active-01-pur-active-portrait.gif-ClonedDuringMediaCleanUp012345678-carouselThumbnail?context=bWFzdGVyfHJvb3R8NDY5OTF8aW1hZ2UvZ2lmfGhkNy9oMjQvOTE5NDM2NzAyNTE4Mi5naWZ8NzViOWRjZDc0NGZiY2ZmYWYzZDZkNjI0Nzc3MDQxYmZhNTBhZTMyMTViOWM2YWZmNzk5YmE1ZDg0MGMwOTc2NQ""},{""Zdjęcie główne produktu"":"""",""Zdjęcie główne produktu-src"":""/medias/02-scouring-04-pur-active-01-pur-active-pureactive-detail-580x550.gif-ClonedDuringMediaCleanUp012345678-carouselThumbnail?context=bWFzdGVyfHJvb3R8NTczMTZ8aW1hZ2UvZ2lmfGhkZi9oNmMvOTE5NDM2NzE1NjI1NC5naWZ8YjQ2Zjc3NTllZWRlZjA4MTdjOTE3ZTc4M2RiNzdiYWYzMzhmZjQxYTZiMzg1YTlmMDk5NDEyYTZlMTBhODZhNw""},{""Zdjęcie główne produktu"":"""",""Zdjęcie główne produktu-src"":""/medias/02-scouring-04-pur-active-01-pur-active-puractive-inuse-580x550.jpg-ClonedDuringMediaCleanUp012345678-carouselThumbnail?context=bWFzdGVyfHJvb3R8MjUyMTB8aW1hZ2UvanBlZ3xoOTcvaGZlLzkxOTQzNjcyODczMjYuanBnfDI0MjU5ZjhiNzVlZTQxNTRhOTJlZWZjODY5ZTM1YWM1ZDViYmJmMWI5NmQxNGYwMGJjOWUxNDczYzkyYjY3MTA""},{""Zdjęcie główne produktu"":"""",""Zdjęcie główne produktu-src"":""/medias/02-scouring-04-pur-active-01-pur-active-portrait.gif-ClonedDuringMediaCleanUp012345678-carouselImage?context=bWFzdGVyfHJvb3R8NDY5OTF8aW1hZ2UvZ2lmfGhhYS9oNGIvOTE5NDM2NzA5MDcxOC5naWZ8OTQzOTkzMzQ3MDZjYTBlN2RhMGZiYjZhZDNjN2RkMDgyOWI0YzMzZDNjNWRjOTY3YWIxM2E2N2UyZDAzYjNmMg""}]",""
"1587416168-591","https://www.vileda-professional.pl/Materia%C5%82y-%C5%9Bcierne/c/scouring?q=%3AcategorySequenceNumber-asc&resultsPerPage=32","PurActive
				
			
			
				
					Specjalna powłoka PUR Active z łatwością unosi oporne zabrudzenia zachowując przy tym delikatność wobec wszystkich czyszczonych
powierzchni.","https://www.vileda-professional.pl/Materia%C5%82y-%C5%9Bcierne/PurActive/p/PurActive","PurActive, czerwony","15 x 7","15 x 7","czerwony","10","123116","PurActive
    Soft touch, hard working on several surfaces
    Delikatny w dotyku, skutecznie usuwa zabrudzenia z różnych powierzchni.

Część piankowa jest miękka, dobrze leży w dłoni i oferuje dobrą ergonomię. Nie daj się jednak zwieść jej miękkości – to wytrzymały partner, który oczyszcza różne powierzchnie, nadając im lśniący połysk. Specjalna powłoka PUR Active z łatwością unosi oporne zabrudzenia zachowując przy tym delikatność wobec wszystkich czyszczonych powierzchni. Jest trzykrotnie bardziej efektywna niż tradycyjne nierysujące czyściwa i jest bardziej przyjazna dla powierzchni niż stosowane dotąd produkty i materiały czyszczące.

Higiena i bezpieczeństwo 

Dzięki systemowi kodowania kolorystycznego, można wprowadzić proces utrzymania czystości, gwarantujący spełnienie wysokich standardów higieny i zasad HACCP

Zastosowanie 

Do wszystkich twardych powierzchni wymagających czyszczenia bez zarysowań (najlepiej jest wpierw przetestować produkt w niewidocznym miejscu)
 

Zalety produktu


	Łatwo usuwa tłuszcz i inne zanieczyszczenia
	Czyści delikatnie wszystkie trudne powierzchnie
	Komfortowo dopasowuje się do ręki czyszczącego
	Kodowanie kolorami pomaga w zapobieganiu przenoszenia zanieczyszczeń","[{""Zdjęcie główne produktu"":"""",""Zdjęcie główne produktu-src"":""/medias/02-scouring-04-pur-active-01-pur-active-portrait.gif-ClonedDuringMediaCleanUp012345678-carouselThumbnail?context=bWFzdGVyfHJvb3R8NDY5OTF8aW1hZ2UvZ2lmfGhkNy9oMjQvOTE5NDM2NzAyNTE4Mi5naWZ8NzViOWRjZDc0NGZiY2ZmYWYzZDZkNjI0Nzc3MDQxYmZhNTBhZTMyMTViOWM2YWZmNzk5YmE1ZDg0MGMwOTc2NQ""},{""Zdjęcie główne produktu"":"""",""Zdjęcie główne produktu-src"":""/medias/02-scouring-04-pur-active-01-pur-active-pureactive-detail-580x550.gif-ClonedDuringMediaCleanUp012345678-carouselThumbnail?context=bWFzdGVyfHJvb3R8NTczMTZ8aW1hZ2UvZ2lmfGhkZi9oNmMvOTE5NDM2NzE1NjI1NC5naWZ8YjQ2Zjc3NTllZWRlZjA4MTdjOTE3ZTc4M2RiNzdiYWYzMzhmZjQxYTZiMzg1YTlmMDk5NDEyYTZlMTBhODZhNw""},{""Zdjęcie główne produktu"":"""",""Zdjęcie główne produktu-src"":""/medias/02-scouring-04-pur-active-01-pur-active-puractive-inuse-580x550.jpg-ClonedDuringMediaCleanUp012345678-carouselThumbnail?context=bWFzdGVyfHJvb3R8MjUyMTB8aW1hZ2UvanBlZ3xoOTcvaGZlLzkxOTQzNjcyODczMjYuanBnfDI0MjU5ZjhiNzVlZTQxNTRhOTJlZWZjODY5ZTM1YWM1ZDViYmJmMWI5NmQxNGYwMGJjOWUxNDczYzkyYjY3MTA""},{""Zdjęcie główne produktu"":"""",""Zdjęcie główne produktu-src"":""/medias/02-scouring-04-pur-active-01-pur-active-portrait.gif-ClonedDuringMediaCleanUp012345678-carouselImage?context=bWFzdGVyfHJvb3R8NDY5OTF8aW1hZ2UvZ2lmfGhhYS9oNGIvOTE5NDM2NzA5MDcxOC5naWZ8OTQzOTkzMzQ3MDZjYTBlN2RhMGZiYjZhZDNjN2RkMDgyOWI0YzMzZDNjNWRjOTY3YWIxM2E2N2UyZDAzYjNmMg""}]",""
"1587416161-585","https://www.vileda-professional.pl/Materia%C5%82y-%C5%9Bcierne/c/scouring?q=%3AcategorySequenceNumber-asc&resultsPerPage=32","Miraclean
				
			
			
				
					Produkt do usuwania upartych śladów, irytujących plam i zatartego brudu.","https://www.vileda-professional.pl/Materia%C5%82y-%C5%9Bcierne/Miraclean/p/Miraclean","Miraclean","10 x 6","10 x 6","biały","12","102751","Miraclean
    The No 1 marks and stains problem solver
    Najlepszy produkt do usuwania śladów i plam.

Jesteś zmęczony, masz dość widoku popisanych blatów stołowych, pozadzieranych podłóg, zakamienionych umywalek, zabrudzonych białych tablic, tłustych zlewów, odcisków palców na ścianach i w ogóle brudu wokół?

Miraclean jest jedynym rozwiązaniem tych wszystkich problemów. Wystarczy minimum wysiłku i użycia tylko wody, a natychmiast pozbędziesz się problemu. Bez stosowania agresywnych środków chemicznych, bez potu w walce z irytującymi Cię zabrudzeniami, wystarczy tylko zwilżyć Miraclean i zetrzeć plamę.

Idealne rozwiązanie do czyszczenia punktowego. Usuwa trudne do usunięcia ślady, plamy i zatarty brud przy minimalnym wysiłku w sytuacjach, gdy inne metody zawodzą.
 

Zalety produktu


	Wystarczy tylko zamoczyć, nie trzeba stosować środków chemicznych
	Znakomita jakość czyszczenia przy minimum wysiłku
	Certyfikat Öko-Tex Standard 100","[{""Zdjęcie główne produktu"":"""",""Zdjęcie główne produktu-src"":""/medias/02-scouring-06-miraclean-01-miraclean-portrait.gif-ClonedDuringMediaCleanUp012345678910-carouselThumbnail?context=bWFzdGVyfHJvb3R8NjIwNDV8aW1hZ2UvZ2lmfGhiMC9oNWUvOTE5NDM2ODA3Mzc1OC5naWZ8NzkxNGRmNGYyZDllNWZhMjhhZDU0YjhkYjRlZTU3OWUxMTAzNTEwYWQwYWYxYzZhMDM5YzM5YTlmYWQ4MjU2Nw""},{""Zdjęcie główne produktu"":"""",""Zdjęcie główne produktu-src"":""/medias/02-scouring-06-miraclean-01-miraclean-miraclean-detail-580x435.gif-ClonedDuringMediaCleanUp012345678910-carouselThumbnail?context=bWFzdGVyfHJvb3R8NjkyMTV8aW1hZ2UvZ2lmfGg5MS9oODgvOTE5NDM2ODIwNDgzMC5naWZ8YjJjMTUyMWI4NmYyMmRmYmEyMzAzZGNiMjUxNGU2NDAyZTQxYjRmMDEzMTJkOTg2ZGE4Y2E2OTBlM2UyZjliZQ""},{""Zdjęcie główne produktu"":"""",""Zdjęcie główne produktu-src"":""/medias/02-scouring-06-miraclean-01-miraclean-miraclean-inuse-02-580x550.jpg-ClonedDuringMediaCleanUp0123456789-carouselThumbnail?context=bWFzdGVyfHJvb3R8MTc4NTh8aW1hZ2UvanBlZ3xoYjYvaGU1LzkxOTQzNjgzMzU5MDIuanBnfDQ5NjcwMDQxYzdkZDJiZWE5MDk4MWUzMmRjY2Q3M2VjNDkwZTVjNTQ0ZWUyOTFkZGQ3MWY1YjQ4NjMwOTIzYjk""},{""Zdjęcie główne produktu"":"""",""Zdjęcie główne produktu-src"":""/medias/02-scouring-06-miraclean-01-miraclean-miraclean-set-01-580x550.gif-ClonedDuringMediaCleanUp012345678910-carouselThumbnail?context=bWFzdGVyfHJvb3R8NDM4MTF8aW1hZ2UvZ2lmfGhhYS9oOWIvOTE5NDM2ODQ2Njk3NC5naWZ8YTY2ZjQ3OTE3YmUyZjY1ZTc1OTY0ZTE1NzUzN2NlNDE0MmM3M2YyMGI1YTc5YTdhMmVjYjA0MGVhMWRiYmNmMg""},{""Zdjęcie główne produktu"":"""",""Zdjęcie główne produktu-src"":""/medias/02-scouring-06-miraclean-01-miraclean-portrait.gif-ClonedDuringMediaCleanUp012345678910-carouselImage?context=bWFzdGVyfHJvb3R8NjIwNDV8aW1hZ2UvZ2lmfGg3YS9oM2QvOTE5NDM2ODEzOTI5NC5naWZ8ODY0YThhODkyNmVjYTM2YjUzYjI3OWY0MjM3OTkyN2M0NDMwZTFjNGI1MjU2YWI2NmIxOGY1ZWNjMDM2YTc0ZA""}]",""
"1587416170-594","https://www.vileda-professional.pl/Materia%C5%82y-%C5%9Bcierne/c/scouring?q=%3AcategorySequenceNumber-asc&resultsPerPage=32","Gąbka do szorowania
				
			
			
				
					Wysokiej jakości gąbka do szorowania z pofalowaną powierzchnią i zieloną warstwą ścierną","https://www.vileda-professional.pl/Materia%C5%82y-%C5%9Bcierne/G%C4%85bka-do-szorowania/p/Medium_Foam_Scourer_Strong","Gąbka ze zdzierakiem","14 x 9","14 x 9","zielony","5","102559","Gąbka do szorowania
    strong
    Zewnętrznie wiele środków ściernych wygląda podobnie, ale jeśli wybierzesz jeden z proponowanych przez Vileda, to szybko zauważysz różnicę zarówno w odniesieniu do jakości jak końcowego efektu czyszczenia. Produkty niskiej jakości zużywają się szybko poczynając od górnej warstwy włókien czyszczących, wskutek czego czyszczenie wymaga więcej czasu i wysiłków.

W materiałach ściernych Vileda każde włókno pokryte jest substancją ziarnistą i żywicą, co gwarantuje utrzymanie znakomitych efektów czyszczących przez cały okres ich użytkowania. Mocne przyleganie żywicy zapewnia równomierne zużywanie czyściwa i włókien, gwarantując znakomitą jakość czyszczenia.
 

Zalety produktu


	Doskonała gąbka, o wysokiej jakości zielonej warstwie ściernej z wygodnym uchwytem piankowym
	Idealna do ogólnego zmywania i usuwania śladów
	Pianka pokrywająca warstwę czyszczącą chroni palce i utrzymuje warstwę czyszczącą w położeniu zapewniającym jej maksymalny kontakt z czyszczoną powierzchnią","[{""Zdjęcie główne produktu"":"""",""Zdjęcie główne produktu-src"":""/medias/02-scouring-03-high-foam-backed-scourers-05-medium-viscose-scourer-strong-portrait.gif-ClonedDuringMediaCleanUp012345-carouselThumbnail?context=bWFzdGVyfHJvb3R8MTA3ODA2fGltYWdlL2dpZnxoYWYvaGE5LzkxOTQzNjY2MzE5NjYuZ2lmfGM0ZGEwOTYzODRiZDI3ZmFmZDNiNmNjMTllNjcyMzVhM2Y4ZWMwODBkODBjMDBmYTYwZjRlZDBkODczYTQ1ZDg""},{""Zdjęcie główne produktu"":"""",""Zdjęcie główne produktu-src"":""/medias/02-scouring-03-high-foam-backed-scourers-05-medium-viscose-scourer-strong-scourer-viscose2-580x435.gif-ClonedDuringMediaCleanUp012345-carouselThumbnail?context=bWFzdGVyfHJvb3R8NzMyNjl8aW1hZ2UvZ2lmfGhjZC9oOTUvOTE5NDM2Njc2MzAzOC5naWZ8ODJiOWYzYWYwNGQxMTM3YzBmMWQ1MWJjNGY4ZjZhZWMyNjEyYzE1YzE3YTdkYzI4YzVmMGY3ZThiNzdlN2U0ZQ""},{""Zdjęcie główne produktu"":"""",""Zdjęcie główne produktu-src"":""/medias/02-scouring-03-high-foam-backed-scourers-05-medium-viscose-scourer-strong-scourer-viscose-inuse-580x435.jpg-ClonedDuringMediaCleanUp012345-carouselThumbnail?context=bWFzdGVyfHJvb3R8NDEwMzN8aW1hZ2UvanBlZ3xoMmEvaGQ2LzkxOTQzNjY4OTQxMTAuanBnfGJjOTNiMjZiY2NmZjUzZTA2NGVhYzcwNzlkZmVlMmNjZmFjYWIyYTNmYWNhM2UzY2YxMzYyZWNkMTFkOTE3Mzk""},{""Zdjęcie główne produktu"":"""",""Zdjęcie główne produktu-src"":""/medias/02-scouring-03-high-foam-backed-scourers-05-medium-viscose-scourer-strong-portrait.gif-ClonedDuringMediaCleanUp012345-carouselImage?context=bWFzdGVyfHJvb3R8MTA3ODA2fGltYWdlL2dpZnxoMDgvaDk0LzkxOTQzNjY2OTc1MDIuZ2lmfDdlM2JhOWQ1YTg3NzMwNTBkMGUxNGVhNjdjMGMzM2Y2YmRiZDI2MTQwZDY0NzZlOTFhMDNmODc2NGM4ZTM0Njg""}]",""
"1587416168-593","https://www.vileda-professional.pl/Materia%C5%82y-%C5%9Bcierne/c/scouring?q=%3AcategorySequenceNumber-asc&resultsPerPage=32","PurActive
				
			
			
				
					Specjalna powłoka PUR Active z łatwością unosi oporne zabrudzenia zachowując przy tym delikatność wobec wszystkich czyszczonych
powierzchni.","https://www.vileda-professional.pl/Materia%C5%82y-%C5%9Bcierne/PurActive/p/PurActive","PurActive, niebieski","15 x 7","15 x 7","niebieski","10","123118","PurActive
    Soft touch, hard working on several surfaces
    Delikatny w dotyku, skutecznie usuwa zabrudzenia z różnych powierzchni.

Część piankowa jest miękka, dobrze leży w dłoni i oferuje dobrą ergonomię. Nie daj się jednak zwieść jej miękkości – to wytrzymały partner, który oczyszcza różne powierzchnie, nadając im lśniący połysk. Specjalna powłoka PUR Active z łatwością unosi oporne zabrudzenia zachowując przy tym delikatność wobec wszystkich czyszczonych powierzchni. Jest trzykrotnie bardziej efektywna niż tradycyjne nierysujące czyściwa i jest bardziej przyjazna dla powierzchni niż stosowane dotąd produkty i materiały czyszczące.

Higiena i bezpieczeństwo 

Dzięki systemowi kodowania kolorystycznego, można wprowadzić proces utrzymania czystości, gwarantujący spełnienie wysokich standardów higieny i zasad HACCP

Zastosowanie 

Do wszystkich twardych powierzchni wymagających czyszczenia bez zarysowań (najlepiej jest wpierw przetestować produkt w niewidocznym miejscu)
 

Zalety produktu


	Łatwo usuwa tłuszcz i inne zanieczyszczenia
	Czyści delikatnie wszystkie trudne powierzchnie
	Komfortowo dopasowuje się do ręki czyszczącego
	Kodowanie kolorami pomaga w zapobieganiu przenoszenia zanieczyszczeń","[{""Zdjęcie główne produktu"":"""",""Zdjęcie główne produktu-src"":""/medias/02-scouring-04-pur-active-01-pur-active-portrait.gif-ClonedDuringMediaCleanUp012345678-carouselThumbnail?context=bWFzdGVyfHJvb3R8NDY5OTF8aW1hZ2UvZ2lmfGhkNy9oMjQvOTE5NDM2NzAyNTE4Mi5naWZ8NzViOWRjZDc0NGZiY2ZmYWYzZDZkNjI0Nzc3MDQxYmZhNTBhZTMyMTViOWM2YWZmNzk5YmE1ZDg0MGMwOTc2NQ""},{""Zdjęcie główne produktu"":"""",""Zdjęcie główne produktu-src"":""/medias/02-scouring-04-pur-active-01-pur-active-pureactive-detail-580x550.gif-ClonedDuringMediaCleanUp012345678-carouselThumbnail?context=bWFzdGVyfHJvb3R8NTczMTZ8aW1hZ2UvZ2lmfGhkZi9oNmMvOTE5NDM2NzE1NjI1NC5naWZ8YjQ2Zjc3NTllZWRlZjA4MTdjOTE3ZTc4M2RiNzdiYWYzMzhmZjQxYTZiMzg1YTlmMDk5NDEyYTZlMTBhODZhNw""},{""Zdjęcie główne produktu"":"""",""Zdjęcie główne produktu-src"":""/medias/02-scouring-04-pur-active-01-pur-active-puractive-inuse-580x550.jpg-ClonedDuringMediaCleanUp012345678-carouselThumbnail?context=bWFzdGVyfHJvb3R8MjUyMTB8aW1hZ2UvanBlZ3xoOTcvaGZlLzkxOTQzNjcyODczMjYuanBnfDI0MjU5ZjhiNzVlZTQxNTRhOTJlZWZjODY5ZTM1YWM1ZDViYmJmMWI5NmQxNGYwMGJjOWUxNDczYzkyYjY3MTA""},{""Zdjęcie główne produktu"":"""",""Zdjęcie główne produktu-src"":""/medias/02-scouring-04-pur-active-01-pur-active-portrait.gif-ClonedDuringMediaCleanUp012345678-carouselImage?context=bWFzdGVyfHJvb3R8NDY5OTF8aW1hZ2UvZ2lmfGhhYS9oNGIvOTE5NDM2NzA5MDcxOC5naWZ8OTQzOTkzMzQ3MDZjYTBlN2RhMGZiYjZhZDNjN2RkMDgyOWI0YzMzZDNjNWRjOTY3YWIxM2E2N2UyZDAzYjNmMg""}]",""
"1587416166-589","https://www.vileda-professional.pl/Materia%C5%82y-%C5%9Bcierne/c/scouring?q=%3AcategorySequenceNumber-asc&resultsPerPage=32","PurActive z wiskozy
				
			
			
				
					Skrobak z naturalnych włókien o bardzo wysokiej chłonności","https://www.vileda-professional.pl/Materia%C5%82y-%C5%9Bcierne/PurActive-z-wiskozy/p/PurActive_Viscose","PurActive wiskozowy","13.5 x 8.5","13.5 x 8.5","żółty","100","108819","PurActive z wiskozy
    
    Zewnętrznie wiele środków ściernych wygląda podobnie, ale jeśli wybierzesz jeden z proponowanych przez Vileda, to szybko zauważysz różnicę zarówno w odniesieniu do jakości jak końcowego efektu czyszczenia. Produkty niskiej jakości zużywają się szybko poczynając od górnej warstwy włókien czyszczących, wskutek czego czyszczenie wymaga więcej czasu i wysiłków. W materiałach ściernych Vileda każde włókno pokryte jest substancją ziarnistą i żywicą, co gwarantuje utrzymanie znakomitych efektów czyszczących przez cały okres ich użytkowania.

Mocne przyleganie żywicy zapewnia równomierne zużywanie czyściwa i włókien, gwarantując znakomitą jakość czyszczenia. Ponadto środki czyszczące Viledy wytwarzane są z nylonu, który nie rdzewieje, nie zostawia zadr i zanieczyszczeń oraz łatwo się spłukuje.

Specjalna powłoka PUR Active z łatwością unosi oporne zabrudzenia zachowując przy tym delikatność wobec wszystkich czyszczonych powierzchni. Jest trzykrotnie bardziej efektywna niż tradycyjne nierysujące czyściwa i jest bardziej przyjazna dla powierzchni niż stosowane dotąd produkty i materiały czyszczące.

Higiena i bezpieczeństwo 

środek czyszczący z włókien o wysokiej chłonności. Szybko schnie, zapewniając wysokie standardy higieny, łatwy do trzymania w dłoni i przyjemny w użyciu.
 

Zalety produktu


	Specjalna powłoka PurActive
	Wysoko chłonna gąbka
	Szybko schnie dla zapewnienia higieny
	Łatwy uchwyt, wygodne użycie","[{""Zdjęcie główne produktu"":"""",""Zdjęcie główne produktu-src"":""/medias/02-scouring-04-pur-active-02-pur-active-viscose-portrait.gif-ClonedDuringMediaCleanUp012345-carouselThumbnail?context=bWFzdGVyfHJvb3R8NTI0ODZ8aW1hZ2UvZ2lmfGgyMi9oNjQvOTE5NDM2NzQxODM5OC5naWZ8ZjJiOTc3ZDFjODY4Zjg3OTEwZGE5M2ZiYjQyZjEyNjk2Mjg3M2M1ZmZiNjMwMmEyNTg5ZWVkMTFkODlhOTRkNg""},{""Zdjęcie główne produktu"":"""",""Zdjęcie główne produktu-src"":""/medias/02-scouring-04-pur-active-02-pur-active-viscose-PU-viscose-sponge-back-580x435.gif-ClonedDuringMediaCleanUp012345-carouselThumbnail?context=bWFzdGVyfHJvb3R8NzY0NDZ8aW1hZ2UvZ2lmfGhlNS9oMmYvOTE5NDM2NzU0OTQ3MC5naWZ8NDA0YjE4Y2VlZTUyNzhkNWNlYjU1YWI3NjQ4MzZmY2FlN2MyZDQ5ZTUzM2EyY2NkMjE3YWFhMTcyMDhiODdkNg""},{""Zdjęcie główne produktu"":"""",""Zdjęcie główne produktu-src"":""/medias/02-scouring-04-pur-active-02-pur-active-viscose-portrait.gif-ClonedDuringMediaCleanUp012345-carouselImage?context=bWFzdGVyfHJvb3R8NTI0ODZ8aW1hZ2UvZ2lmfGhhZi9oMGUvOTE5NDM2NzQ4MzkzNC5naWZ8YWU2ZmNiYjNkZjEwZmJhZmM5MTI0YWZkZTA4MDZjMjNmNGQ1NWQ4ZDc3ZDIzNTJkNWYxZTBiZGFiMTgzMTIxYQ""}]",""
"1587416148-577","https://www.vileda-professional.pl/Materia%C5%82y-%C5%9Bcierne/c/scouring?q=%3AcategorySequenceNumber-asc&resultsPerPage=32","Pad ścierny do grilla
				
			
			
				
					Pad do czyszczenia o wyjątkowych właściwościach ściernych","https://www.vileda-professional.pl/Materia%C5%82y-%C5%9Bcierne/Pad-%C5%9Bcierny-do-grilla/p/Griddle_Scourer_Screen","Arkusz ścierny","14.5 x 10","14.5 x 10","null","20","123360","Pad ścierny do grilla
    
    Kompletny system do utrzymania czystości we wszystkich kuchniach komercyjnych. System Griddle jest uniwersalny i łatwy w użyciu. Może być stosowany w połączeniu z demontowalnym uchwytem z aluminium, który chroni ręce użytkowników przed sparzeniem się o gorące powierzchnie i zwiększa zasięg. Lekki, ergonomiczny uchwyt z tworzywa sztucznego ułatwia użytkownikom zastosowanie odpowiedniego nacisku w celu wydajnego oczyszczenia całego grilla. Lita struktura o wysokiej jakości z metalową płytką w uchwycie jest wymienna, dzięki czemu pad ma długą żywotność. Dodatkowo wysoko skuteczny pad do grilla spełnia wymagania HACCP. 

Zalety produktu


	Pad o silnych właściwościach ściernych
	Do stosowania pod zdzierakiem i usuwania silnie przypalonego tłuszczu oraz resztek żywności","[{""Zdjęcie główne produktu"":"""",""Zdjęcie główne produktu-src"":""/medias/02-scouring-05-griddle-system-02-griddle-scourer-screen-portrait.gif-ClonedDuringMediaCleanUp01234-carouselThumbnail?context=bWFzdGVyfHJvb3R8NTg3OTZ8aW1hZ2UvZ2lmfGgzNC9oZmUvOTE5NDM3MDAzOTgzOC5naWZ8NzlkNDkxN2M4YTM1YTI3MzA2ODVkOTE4YmNiYzIxZTI5MGRiN2NkYzE0ZmNiNjljZDJlNWI3ZGUxMWQ5ZjlmYg""},{""Zdjęcie główne produktu"":"""",""Zdjęcie główne produktu-src"":""/medias/02-scouring-05-griddle-system-02-griddle-scourer-screen-griddle-scourer-screen-inuse-580x550.jpg-ClonedDuringMediaCleanUp01234-carouselThumbnail?context=bWFzdGVyfHJvb3R8MzY2NDB8aW1hZ2UvanBlZ3xoYzQvaGEwLzkxOTQzNzAxNzA5MTAuanBnfGFkZjJlMzQxMDgzOTk0NzY4Yjg2M2U2M2E5N2M5MmNkYWM5OWMwYjE4YjUzYTRkNTYyZTcwMjVhN2JjZGExZDU""},{""Zdjęcie główne produktu"":"""",""Zdjęcie główne produktu-src"":""/medias/02-scouring-05-griddle-system-02-griddle-scourer-screen-portrait.gif-ClonedDuringMediaCleanUp01234-carouselImage?context=bWFzdGVyfHJvb3R8NTg3OTZ8aW1hZ2UvZ2lmfGhmMi9oMmQvOTE5NDM3MDEwNTM3NC5naWZ8YWMwMWM2ZTc4NmIyOTZmNDBhZDVkNWE2ZDZkZjI1NDcwZGU1MWU1YWVmMTcyYWNjZGRhYzBjMjRiMmY3ZDE4Yg""}]",""
"1587416159-584","https://www.vileda-professional.pl/Materia%C5%82y-%C5%9Bcierne/c/scouring?q=%3AcategorySequenceNumber-asc&resultsPerPage=32","Pad Heavy Duty
				
			
			
				
					Pad ścierny zapewniający dobre właściwości czyszczące. Do usuwania przywartego brudu, wymagającego zastosowania bardziej agresywnego ścierniwa.","https://www.vileda-professional.pl/Materia%C5%82y-%C5%9Bcierne/Pad-Heavy-Duty/p/Handpad_Heavy_Duty","Pad ręczny Heavy Duty","15 x 23","15 x 23","zielony","5","101027","Pad Heavy Duty
    
    Zewnętrznie wiele środków ściernych wygląda podobnie, ale jeśli wybierzesz jeden z proponowanych przez Vileda, to szybko zauważysz różnicę zarówno w odniesieniu do jakości jak końcowego efektu czyszczenia. Produkty niskiej jakości zużywają się szybko poczynając od górnej warstwy włókien czyszczących, wskutek czego czyszczenie wymaga więcej czasu i wysiłków. W materiałach ściernych Vileda każde włókno pokryte jest substancją ziarnistą i żywicą, co gwarantuje utrzymanie znakomitych efektów czyszczących przez cały okres ich użytkowania. Mocne przyleganie żywicy zapewnia równomierne zużywanie czyściwa i włókien, gwarantując znakomitą jakość czyszczenia. 

Zalety produktu:


	Doskonale nadaje się do usuwania przywartych zabrudzeń, jak np. czyszczenia wnętrza piekarnika","[{""Zdjęcie główne produktu"":"""",""Zdjęcie główne produktu-src"":""/medias/02-scouring-02-handpads-03-handpad-heavy-duty-portrait.gif-ClonedDuringMediaCleanUp012345678-carouselThumbnail?context=bWFzdGVyfHJvb3R8NDQ1NDR8aW1hZ2UvZ2lmfGhkMi9oYTMvOTE5NDM2ODU5ODA0Ni5naWZ8ZjY4YzhmZmY2MzUwMDkwZjQxODU2NGViZjNkNGQ2OTg4Y2ZlMGMyMmNmY2I2ZTdjMmRiNTZlMGM4NGQ5YjVlOA""},{""Zdjęcie główne produktu"":"""",""Zdjęcie główne produktu-src"":""/medias/02-scouring-02-handpads-03-handpad-heavy-duty-flat-scourer-green-inuse-580x550.jpg-ClonedDuringMediaCleanUp01234567-carouselThumbnail?context=bWFzdGVyfHJvb3R8Mzc4NTZ8aW1hZ2UvanBlZ3xoM2IvaDc3LzkxOTQzNjg3MjkxMTguanBnfDFmODg5ZjI2OTc0ZmQ4MzEzMDAzNDkxYWI1OTU2MGE1OGQ4MWM1NjBlZDNiNmFhODkwNWVlNWEyNWE3MjRjYWI""},{""Zdjęcie główne produktu"":"""",""Zdjęcie główne produktu-src"":""/medias/02-scouring-02-handpads-03-handpad-heavy-duty-portrait.gif-ClonedDuringMediaCleanUp012345678-carouselImage?context=bWFzdGVyfHJvb3R8NDQ1NDR8aW1hZ2UvZ2lmfGhjYy9oZGQvOTE5NDM2ODY2MzU4Mi5naWZ8NmY0MTE2MjVjZjJmZmQ4NzBhMjZiY2ViMjc1NmZhYjMyMTMxN2E2YTQxNjVhYWY4MDRkNjgxMDliOGUyNTVlZQ""}]",""
"1587416120-575","https://www.vileda-professional.pl/Materia%C5%82y-%C5%9Bcierne/c/scouring?q=%3AcategorySequenceNumber-asc&resultsPerPage=32","Uchwyt Griddle Scourer
				
			
			
				
					Krótki, lekki i wytrzymały uchwyt aluminiowy","https://www.vileda-professional.pl/Materia%C5%82y-%C5%9Bcierne/Uchwyt-Griddle-Scourer/p/Griddle_Scourer_Handle","Uchwyt do zdzieraka","50","50","null","6","125215","Uchwyt Griddle Scourer
    
    Kompletny system do utrzymania czystości we wszystkich kuchniach komercyjnych. System Griddle jest uniwersalny i łatwy w użyciu. Może być stosowany w połączeniu z demontowalnym uchwytem z aluminium, który chroni ręce użytkowników przed sparzeniem się o gorące powierzchnie i zwiększa zasięg. Lekki, ergonomiczny uchwyt z tworzywa sztucznego ułatwia użytkownikom zastosowanie odpowiedniego nacisku w celu wydajnego oczyszczenia całego grilla. Lita struktura o wysokiej jakości z metalową płytką w uchwycie jest wymienna, dzięki czemu pad ma długą żywotność. Dodatkowo wysoko skuteczny pad do grilla spełnia wymagania HACCP. 

Zalety produktu


	Wytrzymała i lekka konstrukcja z aluminium
	Stała długość 50 cm
	Ergonomiczny, zaokrąglony uchwyt
	Unikalne mocowanie zatrzaskowe
	Zapewnia lepszy zasięg i ochronę rąk przed wysoką temperaturą i odpadkami","[{""Zdjęcie główne produktu"":"""",""Zdjęcie główne produktu-src"":""/medias/02-scouring-05-griddle-system-04-griddle-scourer-handle-portrait.gif-ClonedDuringMediaCleanUp0123-carouselThumbnail?context=bWFzdGVyfHJvb3R8MjU4Mzh8aW1hZ2UvZ2lmfGhjMC9oZjAvOTE5NDM3MDU2NDEyNi5naWZ8NTlkZjZhNDlkYmFiMTZmYWFkNWNmYWQzMWQxOThjNWQwYzc0YTA1ODBhZjQ2NmExMTIzZjk3OTUxZWRmZjI0MA""},{""Zdjęcie główne produktu"":"""",""Zdjęcie główne produktu-src"":""/medias/02-scouring-05-griddle-system-04-griddle-scourer-handle-griddle-scourer-with-handle-inuse-580x550.jpg-ClonedDuringMediaCleanUp0123-carouselThumbnail?context=bWFzdGVyfHJvb3R8MzQ5MzV8aW1hZ2UvanBlZ3xoYjQvaGE2LzkxOTQzNzA2OTUxOTguanBnfDFlZmQyYTA2MzQ4MDUyYzM2YmRmZjFiMzdhNjFiOGQ4MjkzNzNlZDM0M2RjZGEyOGQ4ZWFlYTA1ODU2YmYxYTk""},{""Zdjęcie główne produktu"":"""",""Zdjęcie główne produktu-src"":""/medias/02-scouring-05-griddle-system-04-griddle-scourer-handle-griddle-scourer-with-handle-set-580x550.gif-ClonedDuringMediaCleanUp0123-carouselThumbnail?context=bWFzdGVyfHJvb3R8MzU2ODZ8aW1hZ2UvZ2lmfGg4ZC9oNDAvOTE5NDM3MDgyNjI3MC5naWZ8MWY1MjRmYTE3OGViNDBhZjc2OGEyNWU3ZmE4OGRhOGVhYmFjZWMzM2NlYWZjNTg1MThiYTg3ODJhYmU4ZDEzYw""},{""Zdjęcie główne produktu"":"""",""Zdjęcie główne produktu-src"":""/medias/02-scouring-05-griddle-system-04-griddle-scourer-handle-portrait.gif-ClonedDuringMediaCleanUp0123-carouselImage?context=bWFzdGVyfHJvb3R8MjU4Mzh8aW1hZ2UvZ2lmfGhhZi9oODIvOTE5NDM3MDYyOTY2Mi5naWZ8YzAyOWNiZjcwYTQ2NzZmOWY2OTBhZjUxZTJkZmUwZWZkMzkwZTU1YzdiNjZhMjExYzM2YmFlODc4Y2MzZjRmNA""}]",""
"1587416161-586","https://www.vileda-professional.pl/Materia%C5%82y-%C5%9Bcierne/c/scouring?q=%3AcategorySequenceNumber-asc&resultsPerPage=32","Miraclean
				
			
			
				
					Produkt do usuwania upartych śladów, irytujących plam i zatartego brudu.","https://www.vileda-professional.pl/Materia%C5%82y-%C5%9Bcierne/Miraclean/p/Miraclean","Miraclean duża","12 x 7.5","12 x 7.5","biały","12","113035","Miraclean
    The No 1 marks and stains problem solver
    Najlepszy produkt do usuwania śladów i plam.

Jesteś zmęczony, masz dość widoku popisanych blatów stołowych, pozadzieranych podłóg, zakamienionych umywalek, zabrudzonych białych tablic, tłustych zlewów, odcisków palców na ścianach i w ogóle brudu wokół?

Miraclean jest jedynym rozwiązaniem tych wszystkich problemów. Wystarczy minimum wysiłku i użycia tylko wody, a natychmiast pozbędziesz się problemu. Bez stosowania agresywnych środków chemicznych, bez potu w walce z irytującymi Cię zabrudzeniami, wystarczy tylko zwilżyć Miraclean i zetrzeć plamę.

Idealne rozwiązanie do czyszczenia punktowego. Usuwa trudne do usunięcia ślady, plamy i zatarty brud przy minimalnym wysiłku w sytuacjach, gdy inne metody zawodzą.
 

Zalety produktu


	Wystarczy tylko zamoczyć, nie trzeba stosować środków chemicznych
	Znakomita jakość czyszczenia przy minimum wysiłku
	Certyfikat Öko-Tex Standard 100","[{""Zdjęcie główne produktu"":"""",""Zdjęcie główne produktu-src"":""/medias/02-scouring-06-miraclean-01-miraclean-portrait.gif-ClonedDuringMediaCleanUp012345678910-carouselThumbnail?context=bWFzdGVyfHJvb3R8NjIwNDV8aW1hZ2UvZ2lmfGhiMC9oNWUvOTE5NDM2ODA3Mzc1OC5naWZ8NzkxNGRmNGYyZDllNWZhMjhhZDU0YjhkYjRlZTU3OWUxMTAzNTEwYWQwYWYxYzZhMDM5YzM5YTlmYWQ4MjU2Nw""},{""Zdjęcie główne produktu"":"""",""Zdjęcie główne produktu-src"":""/medias/02-scouring-06-miraclean-01-miraclean-miraclean-detail-580x435.gif-ClonedDuringMediaCleanUp012345678910-carouselThumbnail?context=bWFzdGVyfHJvb3R8NjkyMTV8aW1hZ2UvZ2lmfGg5MS9oODgvOTE5NDM2ODIwNDgzMC5naWZ8YjJjMTUyMWI4NmYyMmRmYmEyMzAzZGNiMjUxNGU2NDAyZTQxYjRmMDEzMTJkOTg2ZGE4Y2E2OTBlM2UyZjliZQ""},{""Zdjęcie główne produktu"":"""",""Zdjęcie główne produktu-src"":""/medias/02-scouring-06-miraclean-01-miraclean-miraclean-inuse-02-580x550.jpg-ClonedDuringMediaCleanUp0123456789-carouselThumbnail?context=bWFzdGVyfHJvb3R8MTc4NTh8aW1hZ2UvanBlZ3xoYjYvaGU1LzkxOTQzNjgzMzU5MDIuanBnfDQ5NjcwMDQxYzdkZDJiZWE5MDk4MWUzMmRjY2Q3M2VjNDkwZTVjNTQ0ZWUyOTFkZGQ3MWY1YjQ4NjMwOTIzYjk""},{""Zdjęcie główne produktu"":"""",""Zdjęcie główne produktu-src"":""/medias/02-scouring-06-miraclean-01-miraclean-miraclean-set-01-580x550.gif-ClonedDuringMediaCleanUp012345678910-carouselThumbnail?context=bWFzdGVyfHJvb3R8NDM4MTF8aW1hZ2UvZ2lmfGhhYS9oOWIvOTE5NDM2ODQ2Njk3NC5naWZ8YTY2ZjQ3OTE3YmUyZjY1ZTc1OTY0ZTE1NzUzN2NlNDE0MmM3M2YyMGI1YTc5YTdhMmVjYjA0MGVhMWRiYmNmMg""},{""Zdjęcie główne produktu"":"""",""Zdjęcie główne produktu-src"":""/medias/02-scouring-06-miraclean-01-miraclean-portrait.gif-ClonedDuringMediaCleanUp012345678910-carouselImage?context=bWFzdGVyfHJvb3R8NjIwNDV8aW1hZ2UvZ2lmfGg3YS9oM2QvOTE5NDM2ODEzOTI5NC5naWZ8ODY0YThhODkyNmVjYTM2YjUzYjI3OWY0MjM3OTkyN2M0NDMwZTFjNGI1MjU2YWI2NmIxOGY1ZWNjMDM2YTc0ZA""}]",""
"1587416157-583","https://www.vileda-professional.pl/Materia%C5%82y-%C5%9Bcierne/c/scouring?q=%3AcategorySequenceNumber-asc&resultsPerPage=32","Wytrzymały pad ręczny
				
			
			
				
					Polarowy pad o właściwościach ściernych do wydajnego czyszczenia. Doskonały do najbardziej wymagających aplikacji.","https://www.vileda-professional.pl/Materia%C5%82y-%C5%9Bcierne/Wytrzyma%C5%82y-pad-r%C4%99czny/p/Handpad_Strong","Pad ręczny","22.9 x 15.2","22.9 x 15.2","""-""","10","108908","Wytrzymały pad ręczny
    
    Zewnętrznie wiele środków ściernych wygląda podobnie, ale jeśli wybierzesz jeden z proponowanych przez Vileda, to szybko zauważysz różnicę zarówno w odniesieniu do jakości jak końcowego efektu czyszczenia. Produkty niskiej jakości zużywają się szybko poczynając od górnej warstwy włókien czyszczących, wskutek czego czyszczenie wymaga więcej czasu i wysiłków. W materiałach ściernych Vileda każde włókno pokryte jest substancją ziarnistą i żywicą, co gwarantuje utrzymanie znakomitych efektów czyszczących przez cały okres ich użytkowania. Mocne przyleganie żywicy zapewnia równomierne zużywanie czyściwa i włókien, gwarantując znakomitą jakość czyszczenia. 

Zalety produktu


	Doskonały do najbardziej wymagających aplikacji","[{""Zdjęcie główne produktu"":"""",""Zdjęcie główne produktu-src"":""/medias/02-scouring-02-handpads-02-handpad-strong-portrait.gif-ClonedDuringMediaCleanUp012345678-carouselThumbnail?context=bWFzdGVyfHJvb3R8MzAzMjh8aW1hZ2UvZ2lmfGgxMS9oZTAvOTE5NDM2ODg2MDE5MC5naWZ8OGE0NWNjMDM3ZGFiN2UyMzczOWM4YWUxMThjMTRjZWNlOTRmNTE5YTQyM2JiNjI0ZjA0NTIzOTJjNmM4ZWQyNQ""},{""Zdjęcie główne produktu"":"""",""Zdjęcie główne produktu-src"":""/medias/02-scouring-02-handpads-02-handpad-strong-portrait.gif-ClonedDuringMediaCleanUp012345678-carouselImage?context=bWFzdGVyfHJvb3R8MzAzMjh8aW1hZ2UvZ2lmfGhkYy9oOTgvOTE5NDM2ODkyNTcyNi5naWZ8ZGQzZGQzOTBhMjEzZmUyMzZmOGFhODgxNTk2NzYzYjQwNGExZjg2MzA2NzM5MzU3Yzc0YTg3NzBiOTFhMGU1Nw""}]",""
"1587416172-595","https://www.vileda-professional.pl/Materia%C5%82y-%C5%9Bcierne/c/scouring?q=%3AcategorySequenceNumber-asc&resultsPerPage=32","Gąbka Non-Scratch
				
			
			
				
					Gąbka z warstwą czyszczącą bez ścierniwa - czyści wrażliwe powierzchnie bez zarysowań","https://www.vileda-professional.pl/Materia%C5%82y-%C5%9Bcierne/G%C4%85bka-Non-Scratch/p/High_Foam_Scourer_Non_Scratch","Vileda “Non-Scratch”, zielony","15 x 7","15 x 7","zielony","10","102561","Gąbka Non-Scratch
    Soft touch, hard working on several surfaces
    Miękkie w dotyku do efektywnego czyszczenia różnych powierzchniCzęść piankowa jest miękka, dobrze leży w dłoni i oferuje dobrą ergonomię. Nie daj się jednak zwieść jej miękkości – to wytrzymały partner, który oczyszcza różne powierzchnie, nadając im lśniący połysk.
Piankowa gąbka z miękką warstwą czyszczącą bez ścierniwa czyści wrażliwe powierzchnie i jest przyjemna dla dłoni.

Higiena i bezpieczeństwo
System kodowania kolorystycznego zapewnia proces sprzątania zgodny ze standardami higieny i zasadami HACCP. 

Zalety produktu


	Miękka biała warstwa czyszcząca nie zawiera ścierniwa, co zapewnia jej przydatność do czyszczenia wszystkich powierzchni bez zadrapań
	Doskonała do użytku w łazienkach, kuchniach itp.
	Pianka pokrywająca warstwę czyszczącą chroni palce
	Kodowanie kolorami R/B/G/Y pomaga w zapobieganiu przenoszenia zanieczyszczeń","[{""Zdjęcie główne produktu"":"""",""Zdjęcie główne produktu-src"":""/medias/02-scouring-03-high-foam-backed-scourers-01-non-scratch-portrait.gif-ClonedDuringMediaCleanUp0123456-carouselThumbnail?context=bWFzdGVyfHJvb3R8MzQ0ODd8aW1hZ2UvZ2lmfGhlNS9oMjkvOTE5NTE2NDA0MTI0Ni5naWZ8N2YzMWMzYmU3MjJjZTliN2I4MWVkZGE0YTVjMzQ2ZDI5ZDlhOWQ0MTYxMDIwZTA1MTkxMzk1NjgwYmY3MTgxNw""},{""Zdjęcie główne produktu"":"""",""Zdjęcie główne produktu-src"":""/medias/02-scouring-03-high-foam-backed-scourers-01-non-scratch-non-scratch-detail-580x550.gif-ClonedDuringMediaCleanUp0123456-carouselThumbnail?context=bWFzdGVyfHJvb3R8NDU5ODB8aW1hZ2UvZ2lmfGhkMS9oNjcvOTE5NTE2NDE3MjMxOC5naWZ8YTgzYTc4N2U3ZTJlNDc5MjdhMTFmMGZhY2Y3ZDYyYjkyMWJmYjIyZjE0YzI3MzVmYmVlYjlmZTJhNWVmMjAzYg""},{""Zdjęcie główne produktu"":"""",""Zdjęcie główne produktu-src"":""/medias/02-scouring-03-high-foam-backed-scourers-01-non-scratch-portrait.gif-ClonedDuringMediaCleanUp0123456-carouselImage?context=bWFzdGVyfHJvb3R8MzQ0ODd8aW1hZ2UvZ2lmfGg3Ni9oYjYvOTE5NTE2NDEwNjc4Mi5naWZ8Nzg4ZjVkYmJjZjViNDJkY2VkZTFmNzA5ZDFhMWVlOThlMDBmMjIzNDg2MWE4ODJlNDVkMTg4ZTM1MzIxNjM4ZQ""}]",""
"1587416172-596","https://www.vileda-professional.pl/Materia%C5%82y-%C5%9Bcierne/c/scouring?q=%3AcategorySequenceNumber-asc&resultsPerPage=32","Gąbka Non-Scratch
				
			
			
				
					Gąbka z warstwą czyszczącą bez ścierniwa - czyści wrażliwe powierzchnie bez zarysowań","https://www.vileda-professional.pl/Materia%C5%82y-%C5%9Bcierne/G%C4%85bka-Non-Scratch/p/High_Foam_Scourer_Non_Scratch","Vileda “Non-Scratch”, niebieski","15 x 7","15 x 7","niebieski","10","102562","Gąbka Non-Scratch
    Soft touch, hard working on several surfaces
    Miękkie w dotyku do efektywnego czyszczenia różnych powierzchniCzęść piankowa jest miękka, dobrze leży w dłoni i oferuje dobrą ergonomię. Nie daj się jednak zwieść jej miękkości – to wytrzymały partner, który oczyszcza różne powierzchnie, nadając im lśniący połysk.
Piankowa gąbka z miękką warstwą czyszczącą bez ścierniwa czyści wrażliwe powierzchnie i jest przyjemna dla dłoni.

Higiena i bezpieczeństwo
System kodowania kolorystycznego zapewnia proces sprzątania zgodny ze standardami higieny i zasadami HACCP. 

Zalety produktu


	Miękka biała warstwa czyszcząca nie zawiera ścierniwa, co zapewnia jej przydatność do czyszczenia wszystkich powierzchni bez zadrapań
	Doskonała do użytku w łazienkach, kuchniach itp.
	Pianka pokrywająca warstwę czyszczącą chroni palce
	Kodowanie kolorami R/B/G/Y pomaga w zapobieganiu przenoszenia zanieczyszczeń","[{""Zdjęcie główne produktu"":"""",""Zdjęcie główne produktu-src"":""/medias/02-scouring-03-high-foam-backed-scourers-01-non-scratch-portrait.gif-ClonedDuringMediaCleanUp0123456-carouselThumbnail?context=bWFzdGVyfHJvb3R8MzQ0ODd8aW1hZ2UvZ2lmfGhlNS9oMjkvOTE5NTE2NDA0MTI0Ni5naWZ8N2YzMWMzYmU3MjJjZTliN2I4MWVkZGE0YTVjMzQ2ZDI5ZDlhOWQ0MTYxMDIwZTA1MTkxMzk1NjgwYmY3MTgxNw""},{""Zdjęcie główne produktu"":"""",""Zdjęcie główne produktu-src"":""/medias/02-scouring-03-high-foam-backed-scourers-01-non-scratch-non-scratch-detail-580x550.gif-ClonedDuringMediaCleanUp0123456-carouselThumbnail?context=bWFzdGVyfHJvb3R8NDU5ODB8aW1hZ2UvZ2lmfGhkMS9oNjcvOTE5NTE2NDE3MjMxOC5naWZ8YTgzYTc4N2U3ZTJlNDc5MjdhMTFmMGZhY2Y3ZDYyYjkyMWJmYjIyZjE0YzI3MzVmYmVlYjlmZTJhNWVmMjAzYg""},{""Zdjęcie główne produktu"":"""",""Zdjęcie główne produktu-src"":""/medias/02-scouring-03-high-foam-backed-scourers-01-non-scratch-portrait.gif-ClonedDuringMediaCleanUp0123456-carouselImage?context=bWFzdGVyfHJvb3R8MzQ0ODd8aW1hZ2UvZ2lmfGg3Ni9oYjYvOTE5NTE2NDEwNjc4Mi5naWZ8Nzg4ZjVkYmJjZjViNDJkY2VkZTFmNzA5ZDFhMWVlOThlMDBmMjIzNDg2MWE4ODJlNDVkMTg4ZTM1MzIxNjM4ZQ""}]",""
"1587416164-587","https://www.vileda-professional.pl/Materia%C5%82y-%C5%9Bcierne/c/scouring?q=%3AcategorySequenceNumber-asc&resultsPerPage=32","Inox
				
			
			
				
					Produkty ścierne Vileda Professional ze stali nierdzewnej.","https://www.vileda-professional.pl/Materia%C5%82y-%C5%9Bcierne/Inox/p/Inox","Inox","null","null","silver","50","100787","Inox
    The spiral that cleans
    Spiralny zdzierak o wysokiej skuteczności usuwania zabrudzeńBardzo odporny i trwały zdzierak o kulistym kształcie o wysokiej skuteczności usuwania zabrudzeń. Wykonany w 100% ze stali nierdzewnej, doskonale nadaje się do intensywnego szorowania i usuwania przywartych zanieczyszczeń. 

Zalety produktu


	Zdzierak wykonany z kwasoodpornej stali nierdzewnej
	Bardzo odporny i trwały
	Doskonały do intensywnego szorowania i usuwania","[{""Zdjęcie główne produktu"":"""",""Zdjęcie główne produktu-src"":""/medias/02-scouring-07-inox-portrait.gif-ClonedDuringMediaCleanUp0123456789-carouselThumbnail?context=bWFzdGVyfHJvb3R8Nzg1NDd8aW1hZ2UvZ2lmfGg3Mi9oMzMvOTE5NDM2NzY4MDU0Mi5naWZ8MjE2ZGY4NzFkNDQ5YWZhMDAxOGFhZGVjNjgyZTNjZTE2YmI0NDhlM2VhZjQ1NjA4OTRjOWE5MDk0OGQwMDFlNA""},{""Zdjęcie główne produktu"":"""",""Zdjęcie główne produktu-src"":""/medias/02-scouring-07-inox-inox-scouring-ball-60gr-detail-580x550.gif-ClonedDuringMediaCleanUp0123456789-carouselThumbnail?context=bWFzdGVyfHJvb3R8MTEzMTM2fGltYWdlL2dpZnxoN2YvaGIxLzkxOTQzNjc4MTE2MTQuZ2lmfGRmOWUxM2RiZjM2MjU0ZjM2YmEyNTc3Y2I4MjljMDk2ODViNzJjOTI0NWE3NmVjZjRhMTQ4ZTcyOTMyOGE5ZWQ""},{""Zdjęcie główne produktu"":"""",""Zdjęcie główne produktu-src"":""/medias/02-scouring-07-inox-inox-scouring-ball-inuse-580x550.jpg-ClonedDuringMediaCleanUp0123456789-carouselThumbnail?context=bWFzdGVyfHJvb3R8NDI3NzJ8aW1hZ2UvanBlZ3xoOGIvaGZiLzkxOTQzNjc5NDI2ODYuanBnfDhiNmY4ZDQ2OGZlMDMyYmY1MTk1ZTgzNjE0YzczYmRhMzc2NDA1ZDg2MDM3MGNlZTY5MDQ5N2RmMDU3MmRmYTI""},{""Zdjęcie główne produktu"":"""",""Zdjęcie główne produktu-src"":""/medias/02-scouring-07-inox-portrait.gif-ClonedDuringMediaCleanUp0123456789-carouselImage?context=bWFzdGVyfHJvb3R8Nzg1NDd8aW1hZ2UvZ2lmfGg4Yy9oMTQvOTE5NDM2Nzc0NjA3OC5naWZ8MjBkYjgwOTI0YTJhZDVmMmFiZmJkN2QzZWFmZWUyZTU3YTA1YTc2YWFhMDBhNWQzNzI0YmY5ZjI3OWZhZmFlOA""}]",""
"1587416178-601","https://www.vileda-professional.pl/Materia%C5%82y-%C5%9Bcierne/c/scouring?q=%3AcategorySequenceNumber-asc&resultsPerPage=32","Gąbka garnkowa (czarny pad)
				
			
			
				
					Doskonała gąbka, o wysokiej jakości czarnej warstwie ściernej, wygodny uchwyt piankowy","https://www.vileda-professional.pl/Materia%C5%82y-%C5%9Bcierne/G%C4%85bka-garnkowa-%28czarny-pad%29/p/High_Foam_Scourer_Heavy_Duty","Gąbka garnkowa","15 x 7","15 x 7","czarny","10","102565","Gąbka garnkowa (czarny pad)
    Soft touch, hard working on several surfaces
    Miękka w dotyku, skutecznie czyści wiele powierzchniCzęść piankowa jest miękka, dobrze leży w dłoni i oferuje dobrą ergonomię. Nie daj się jednak zwieść jej miękkości – to wytrzymały partner, który oczyszcza różne powierzchnie, nadając im lśniący połysk. 

Zalety produktu


	Doskonała gąbka, o wysokiej jakości czarnej warstwie ściernej, wygodny uchwyt piankowy
	Odpowiednia do usuwania silnych zabrudzeń i do innych trudnych zastosowań
	Pianka pokrywająca warstwę czyszczącą chroni palce i utrzymuje warstwę czyszczącą w położeniu zapewniającym jej maksymalny kontakt z czyszczoną powierzchnią","[{""Zdjęcie główne produktu"":"""",""Zdjęcie główne produktu-src"":""/medias/02-scouring-03-high-foam-backed-scourers-03-high-foam-backed-scourer-heavy-duty-heavy-duty-detail-02-580x550.gif-ClonedDuringMediaCleanUp0123456-carouselThumbnail?context=bWFzdGVyfHJvb3R8NDYyOTN8aW1hZ2UvZ2lmfGg2Ni9oZjYvOTE5NTE2MzY0ODAzMC5naWZ8YzVmYzM5NjYxZWZmZWMwYWVlNDkxNmU0ODMwZjkwZTVlZGFkZDg0YjNiN2M0OTRhYjZmNmQzOTJhMmI5MWI3OQ""},{""Zdjęcie główne produktu"":"""",""Zdjęcie główne produktu-src"":""/medias/02-scouring-03-high-foam-backed-scourers-03-high-foam-backed-scourer-heavy-duty-heavy-duty-detail-02-580x550.gif-ClonedDuringMediaCleanUp0123456-carouselImage?context=bWFzdGVyfHJvb3R8NDYyOTN8aW1hZ2UvZ2lmfGg4OC9oOGQvOTE5NTE2MzcxMzU2Ni5naWZ8MGU5MDUxOTM1ZjE0ZDNmOWMwNjVlN2M4ZWZhZmUyODM1ZDQ0ZmE3OTk2YzQ5NWQwZDFhMGI1ZWRiNWU3NGFhZQ""}]",""
"1587416172-598","https://www.vileda-professional.pl/Materia%C5%82y-%C5%9Bcierne/c/scouring?q=%3AcategorySequenceNumber-asc&resultsPerPage=32","Gąbka Non-Scratch
				
			
			
				
					Gąbka z warstwą czyszczącą bez ścierniwa - czyści wrażliwe powierzchnie bez zarysowań","https://www.vileda-professional.pl/Materia%C5%82y-%C5%9Bcierne/G%C4%85bka-Non-Scratch/p/High_Foam_Scourer_Non_Scratch","Vileda “Non-Scratch”, żółty","15 x 7","15 x 7","żółty","10","102564","Gąbka Non-Scratch
    Soft touch, hard working on several surfaces
    Miękkie w dotyku do efektywnego czyszczenia różnych powierzchniCzęść piankowa jest miękka, dobrze leży w dłoni i oferuje dobrą ergonomię. Nie daj się jednak zwieść jej miękkości – to wytrzymały partner, który oczyszcza różne powierzchnie, nadając im lśniący połysk.
Piankowa gąbka z miękką warstwą czyszczącą bez ścierniwa czyści wrażliwe powierzchnie i jest przyjemna dla dłoni.

Higiena i bezpieczeństwo
System kodowania kolorystycznego zapewnia proces sprzątania zgodny ze standardami higieny i zasadami HACCP. 

Zalety produktu


	Miękka biała warstwa czyszcząca nie zawiera ścierniwa, co zapewnia jej przydatność do czyszczenia wszystkich powierzchni bez zadrapań
	Doskonała do użytku w łazienkach, kuchniach itp.
	Pianka pokrywająca warstwę czyszczącą chroni palce
	Kodowanie kolorami R/B/G/Y pomaga w zapobieganiu przenoszenia zanieczyszczeń","[{""Zdjęcie główne produktu"":"""",""Zdjęcie główne produktu-src"":""/medias/02-scouring-03-high-foam-backed-scourers-01-non-scratch-portrait.gif-ClonedDuringMediaCleanUp0123456-carouselThumbnail?context=bWFzdGVyfHJvb3R8MzQ0ODd8aW1hZ2UvZ2lmfGhlNS9oMjkvOTE5NTE2NDA0MTI0Ni5naWZ8N2YzMWMzYmU3MjJjZTliN2I4MWVkZGE0YTVjMzQ2ZDI5ZDlhOWQ0MTYxMDIwZTA1MTkxMzk1NjgwYmY3MTgxNw""},{""Zdjęcie główne produktu"":"""",""Zdjęcie główne produktu-src"":""/medias/02-scouring-03-high-foam-backed-scourers-01-non-scratch-non-scratch-detail-580x550.gif-ClonedDuringMediaCleanUp0123456-carouselThumbnail?context=bWFzdGVyfHJvb3R8NDU5ODB8aW1hZ2UvZ2lmfGhkMS9oNjcvOTE5NTE2NDE3MjMxOC5naWZ8YTgzYTc4N2U3ZTJlNDc5MjdhMTFmMGZhY2Y3ZDYyYjkyMWJmYjIyZjE0YzI3MzVmYmVlYjlmZTJhNWVmMjAzYg""},{""Zdjęcie główne produktu"":"""",""Zdjęcie główne produktu-src"":""/medias/02-scouring-03-high-foam-backed-scourers-01-non-scratch-portrait.gif-ClonedDuringMediaCleanUp0123456-carouselImage?context=bWFzdGVyfHJvb3R8MzQ0ODd8aW1hZ2UvZ2lmfGg3Ni9oYjYvOTE5NTE2NDEwNjc4Mi5naWZ8Nzg4ZjVkYmJjZjViNDJkY2VkZTFmNzA5ZDFhMWVlOThlMDBmMjIzNDg2MWE4ODJlNDVkMTg4ZTM1MzIxNjM4ZQ""}]",""
"1587416168-592","https://www.vileda-professional.pl/Materia%C5%82y-%C5%9Bcierne/c/scouring?q=%3AcategorySequenceNumber-asc&resultsPerPage=32","PurActive
				
			
			
				
					Specjalna powłoka PUR Active z łatwością unosi oporne zabrudzenia zachowując przy tym delikatność wobec wszystkich czyszczonych
powierzchni.","https://www.vileda-professional.pl/Materia%C5%82y-%C5%9Bcierne/PurActive/p/PurActive","PurActive, żółty","15 x 7","15 x 7","żółty","10","123117","PurActive
    Soft touch, hard working on several surfaces
    Delikatny w dotyku, skutecznie usuwa zabrudzenia z różnych powierzchni.

Część piankowa jest miękka, dobrze leży w dłoni i oferuje dobrą ergonomię. Nie daj się jednak zwieść jej miękkości – to wytrzymały partner, który oczyszcza różne powierzchnie, nadając im lśniący połysk. Specjalna powłoka PUR Active z łatwością unosi oporne zabrudzenia zachowując przy tym delikatność wobec wszystkich czyszczonych powierzchni. Jest trzykrotnie bardziej efektywna niż tradycyjne nierysujące czyściwa i jest bardziej przyjazna dla powierzchni niż stosowane dotąd produkty i materiały czyszczące.

Higiena i bezpieczeństwo 

Dzięki systemowi kodowania kolorystycznego, można wprowadzić proces utrzymania czystości, gwarantujący spełnienie wysokich standardów higieny i zasad HACCP

Zastosowanie 

Do wszystkich twardych powierzchni wymagających czyszczenia bez zarysowań (najlepiej jest wpierw przetestować produkt w niewidocznym miejscu)
 

Zalety produktu


	Łatwo usuwa tłuszcz i inne zanieczyszczenia
	Czyści delikatnie wszystkie trudne powierzchnie
	Komfortowo dopasowuje się do ręki czyszczącego
	Kodowanie kolorami pomaga w zapobieganiu przenoszenia zanieczyszczeń","[{""Zdjęcie główne produktu"":"""",""Zdjęcie główne produktu-src"":""/medias/02-scouring-04-pur-active-01-pur-active-portrait.gif-ClonedDuringMediaCleanUp012345678-carouselThumbnail?context=bWFzdGVyfHJvb3R8NDY5OTF8aW1hZ2UvZ2lmfGhkNy9oMjQvOTE5NDM2NzAyNTE4Mi5naWZ8NzViOWRjZDc0NGZiY2ZmYWYzZDZkNjI0Nzc3MDQxYmZhNTBhZTMyMTViOWM2YWZmNzk5YmE1ZDg0MGMwOTc2NQ""},{""Zdjęcie główne produktu"":"""",""Zdjęcie główne produktu-src"":""/medias/02-scouring-04-pur-active-01-pur-active-pureactive-detail-580x550.gif-ClonedDuringMediaCleanUp012345678-carouselThumbnail?context=bWFzdGVyfHJvb3R8NTczMTZ8aW1hZ2UvZ2lmfGhkZi9oNmMvOTE5NDM2NzE1NjI1NC5naWZ8YjQ2Zjc3NTllZWRlZjA4MTdjOTE3ZTc4M2RiNzdiYWYzMzhmZjQxYTZiMzg1YTlmMDk5NDEyYTZlMTBhODZhNw""},{""Zdjęcie główne produktu"":"""",""Zdjęcie główne produktu-src"":""/medias/02-scouring-04-pur-active-01-pur-active-puractive-inuse-580x550.jpg-ClonedDuringMediaCleanUp012345678-carouselThumbnail?context=bWFzdGVyfHJvb3R8MjUyMTB8aW1hZ2UvanBlZ3xoOTcvaGZlLzkxOTQzNjcyODczMjYuanBnfDI0MjU5ZjhiNzVlZTQxNTRhOTJlZWZjODY5ZTM1YWM1ZDViYmJmMWI5NmQxNGYwMGJjOWUxNDczYzkyYjY3MTA""},{""Zdjęcie główne produktu"":"""",""Zdjęcie główne produktu-src"":""/medias/02-scouring-04-pur-active-01-pur-active-portrait.gif-ClonedDuringMediaCleanUp012345678-carouselImage?context=bWFzdGVyfHJvb3R8NDY5OTF8aW1hZ2UvZ2lmfGhhYS9oNGIvOTE5NDM2NzA5MDcxOC5naWZ8OTQzOTkzMzQ3MDZjYTBlN2RhMGZiYjZhZDNjN2RkMDgyOWI0YzMzZDNjNWRjOTY3YWIxM2E2N2UyZDAzYjNmMg""}]",""
"1587416151-578","https://www.vileda-professional.pl/Materia%C5%82y-%C5%9Bcierne/c/scouring?q=%3AcategorySequenceNumber-asc&resultsPerPage=32","Griddle Zestaw startowy
				
			
			
				
					Zestaw czyszczący do najtrudniejszych prac w kuchni","https://www.vileda-professional.pl/Materia%C5%82y-%C5%9Bcierne/Griddle-Zestaw-startowy/p/Griddle_System_Starter_Kit","Uchwyt do materiałów ściernych","14.5 x 10","14.5 x 10","null","10","123358","Griddle Zestaw startowy
    
    Kompletny system do utrzymania czystości we wszystkich kuchniach komercyjnych. System Griddle jest uniwersalny i łatwy w użyciu. Może być stosowany w połączeniu z demontowalnym uchwytem z aluminium, który chroni ręce użytkowników przed sparzeniem się o gorące powierzchnie i zwiększa zasięg. Lekki, ergonomiczny uchwyt z tworzywa sztucznego ułatwia użytkownikom zastosowanie odpowiedniego nacisku w celu wydajnego oczyszczenia całego grilla. Lita struktura o wysokiej jakości z metalową płytką w uchwycie jest wymienna, dzięki czemu pad ma długą żywotność. Dodatkowo wysoko skuteczny pad do grilla spełnia wymagania HACCP. 

Zalety produktu


	Zestaw startowy składa się z uchwytu, pada i arkusza
	Demontowalna plastikowa zatyczka umożliwia stosowanie z opcjonalnym uchwytem aluminiowym","[{""Zdjęcie główne produktu"":"""",""Zdjęcie główne produktu-src"":""/medias/02-scouring-05-griddle-system-01-griddle-scourer-starter-kit-Griddle-Scourer-Starter-Ki.gif-ClonedDuringMediaCleanUp012345-carouselThumbnail?context=bWFzdGVyfHJvb3R8NjMzOTl8aW1hZ2UvZ2lmfGg3NC9oYjkvOTE5NDM2OTM4NDQ3OC5naWZ8MDc1MmQ2OGQ2MDBiMmNjZjJmNTIyNDk4ODE1OTQwNzFlYjJkZTYzZTBjOTMyNzI3NGQ4NjRhZDIwY2E3N2M5NQ""},{""Zdjęcie główne produktu"":"""",""Zdjęcie główne produktu-src"":""/medias/02-scouring-05-griddle-system-01-griddle-scourer-starter-kit-portrait.gif-ClonedDuringMediaCleanUp01234-carouselThumbnail?context=bWFzdGVyfHJvb3R8NTY0Nzl8aW1hZ2UvZ2lmfGhjYy9oMmQvOTE5NDM2OTUxNTU1MC5naWZ8Y2MyOTQ2OGE0ZDAwMmM2M2Y4MTFkMDg3Y2Y0ZmZkNDdhYTQxZTA1YTMxMzkwZDE1MGQ3MmE1Nzk3ODA3M2RmZA""},{""Zdjęcie główne produktu"":"""",""Zdjęcie główne produktu-src"":""/medias/02-scouring-05-griddle-system-01-griddle-scourer-starter-kit-griddle-scourer-kit-scourer-detail-580x550.gif-ClonedDuringMediaCleanUp012345-carouselThumbnail?context=bWFzdGVyfHJvb3R8NDIzNjJ8aW1hZ2UvZ2lmfGg4NC9oYmYvOTE5NDM2OTY0NjYyMi5naWZ8YWZmNDM2ZmIyNGQ1ZjlhOGIzMzhkOGM0MjllMmQ2OTE0Mjc2ZDc1ZTdkMmUxMTA3NTNlMjJmMzU5NDFmMWRiOQ""},{""Zdjęcie główne produktu"":"""",""Zdjęcie główne produktu-src"":""/medias/02-scouring-05-griddle-system-01-griddle-scourer-starter-kit-griddle-scourer-kit-screen-detail-580x550.gif-ClonedDuringMediaCleanUp012345-carouselThumbnail?context=bWFzdGVyfHJvb3R8NjQ4MDB8aW1hZ2UvZ2lmfGg2Zi9oZjYvOTE5NDM2OTc3NzY5NC5naWZ8YTFiMmQyNzYwOGUxNzk0YjdmOGY5MTdkN2EyMWE5NDlkYmQ5N2NjMGNiYTNiNWZjYzI4MmYxMjc4ZDI0OGNkMg""},{""Zdjęcie główne produktu"":"""",""Zdjęcie główne produktu-src"":""/medias/02-scouring-05-griddle-system-01-griddle-scourer-starter-kit-Griddle-Scourer-Starter-Ki.gif-ClonedDuringMediaCleanUp012345-carouselImage?context=bWFzdGVyfHJvb3R8NjMzOTl8aW1hZ2UvZ2lmfGg1ZC9oYmEvOTE5NDM2OTQ1MDAxNC5naWZ8N2MyZTU5ZTVjZGIzODBlMmYzNGRmZTc0MjIzMjIxOGEyNjI2MDU4NDdlOGExZGY1Y2ZkY2Q0OTFkMzgyY2FkZA""}]",""
"1587416153-580","https://www.vileda-professional.pl/Materia%C5%82y-%C5%9Bcierne/c/scouring?q=%3AcategorySequenceNumber-asc&resultsPerPage=32","Pad ręczny Super Scourer
				
			
			
				
					Pad o działaniu ścierającym o doskonałych właściwościach czyszczących","https://www.vileda-professional.pl/Materia%C5%82y-%C5%9Bcierne/Pad-r%C4%99czny-Super-Scourer/p/Handpad_Super_Scourers","Pad ręczny w rolce","14 x 6000","14 x 6000","zielony","6","100810","Pad ręczny Super Scourer
    
    Zewnętrznie wiele środków ściernych wygląda podobnie, ale jeśli wybierzesz jeden z proponowanych przez Vileda, to szybko zauważysz różnicę zarówno w odniesieniu do jakości jak końcowego efektu czyszczenia. Produkty niskiej jakości zużywają się szybko poczynając od górnej warstwy włókien czyszczących, wskutek czego czyszczenie wymaga więcej czasu i wysiłków. W materiałach ściernych Vileda każde włókno pokryte jest substancją ziarnistą i żywicą, co gwarantuje utrzymanie znakomitych efektów czyszczących przez cały okres ich użytkowania. Mocne przyleganie żywicy zapewnia równomierne zużywanie czyściwa i włókien, gwarantując znakomitą jakość czyszczenia. 

Zalety produktu


	Wysokiej jakości pad z agresywną warstwą ścierną
	Doskonale nadaje się do zmywania i usuwania śladów
	Dostępny jako pad ręczny w 2 wymiarach i na rolce","[{""Zdjęcie główne produktu"":"""",""Zdjęcie główne produktu-src"":""/medias/02-scouring-02-handpads-04-handpad-super-scourers-scene.jpg-ClonedDuringMediaCleanUp012345-carouselThumbnail?context=bWFzdGVyfHJvb3R8NjY0MzF8aW1hZ2UvZ2lmfGhjNy9oNmEvOTE5NDM2OTEyMjMzNC5naWZ8YzIzZjM1ODg2YjAwN2VmMjM4NGIzMDM2ZGVhZGIyMDliN2ZjNGYxOWFjYTNmN2IzNWFlZTYzNjFmY2QxZTU3OQ""},{""Zdjęcie główne produktu"":"""",""Zdjęcie główne produktu-src"":""/medias/02-scouring-02-handpads-04-handpad-super-scourers-portrait.gif-ClonedDuringMediaCleanUp0123456-carouselThumbnail?context=bWFzdGVyfHJvb3R8Mzc4NTZ8aW1hZ2UvanBlZ3xoN2YvaGZjLzkxOTQzNjkyNTM0MDYuanBnfDVjNjQ1YTM5MGRkYmEzYmVlYzc1YjY4MGQxNzlhZTU4NjUwNjczYjcwYWY2ZDkyMDBkZjUzODk4N2YyMDcwNTU""},{""Zdjęcie główne produktu"":"""",""Zdjęcie główne produktu-src"":""/medias/02-scouring-02-handpads-04-handpad-super-scourers-scene.jpg-ClonedDuringMediaCleanUp012345-carouselImage?context=bWFzdGVyfHJvb3R8NjY0MzF8aW1hZ2UvZ2lmfGgwMy9oNzUvOTE5NDM2OTE4Nzg3MC5naWZ8YTAzZjY1YzY1ZWE2NDIzMzliOWUyOTZiM2UwZThkMjVlNDhiYjNhNzQ4YjU2MTJkNzZhMmE2NmJmOTJhMjE1OA""}]",""
"1587416153-581","https://www.vileda-professional.pl/Materia%C5%82y-%C5%9Bcierne/c/scouring?q=%3AcategorySequenceNumber-asc&resultsPerPage=32","Pad ręczny Super Scourer
				
			
			
				
					Pad o działaniu ścierającym o doskonałych właściwościach czyszczących","https://www.vileda-professional.pl/Materia%C5%82y-%C5%9Bcierne/Pad-r%C4%99czny-Super-Scourer/p/Handpad_Super_Scourers","Pad ręczny Super do szorowania","15 x 23","15 x 23","zielony","5","100811","Pad ręczny Super Scourer
    
    Zewnętrznie wiele środków ściernych wygląda podobnie, ale jeśli wybierzesz jeden z proponowanych przez Vileda, to szybko zauważysz różnicę zarówno w odniesieniu do jakości jak końcowego efektu czyszczenia. Produkty niskiej jakości zużywają się szybko poczynając od górnej warstwy włókien czyszczących, wskutek czego czyszczenie wymaga więcej czasu i wysiłków. W materiałach ściernych Vileda każde włókno pokryte jest substancją ziarnistą i żywicą, co gwarantuje utrzymanie znakomitych efektów czyszczących przez cały okres ich użytkowania. Mocne przyleganie żywicy zapewnia równomierne zużywanie czyściwa i włókien, gwarantując znakomitą jakość czyszczenia. 

Zalety produktu


	Wysokiej jakości pad z agresywną warstwą ścierną
	Doskonale nadaje się do zmywania i usuwania śladów
	Dostępny jako pad ręczny w 2 wymiarach i na rolce","[{""Zdjęcie główne produktu"":"""",""Zdjęcie główne produktu-src"":""/medias/02-scouring-02-handpads-04-handpad-super-scourers-scene.jpg-ClonedDuringMediaCleanUp012345-carouselThumbnail?context=bWFzdGVyfHJvb3R8NjY0MzF8aW1hZ2UvZ2lmfGhjNy9oNmEvOTE5NDM2OTEyMjMzNC5naWZ8YzIzZjM1ODg2YjAwN2VmMjM4NGIzMDM2ZGVhZGIyMDliN2ZjNGYxOWFjYTNmN2IzNWFlZTYzNjFmY2QxZTU3OQ""},{""Zdjęcie główne produktu"":"""",""Zdjęcie główne produktu-src"":""/medias/02-scouring-02-handpads-04-handpad-super-scourers-portrait.gif-ClonedDuringMediaCleanUp0123456-carouselThumbnail?context=bWFzdGVyfHJvb3R8Mzc4NTZ8aW1hZ2UvanBlZ3xoN2YvaGZjLzkxOTQzNjkyNTM0MDYuanBnfDVjNjQ1YTM5MGRkYmEzYmVlYzc1YjY4MGQxNzlhZTU4NjUwNjczYjcwYWY2ZDkyMDBkZjUzODk4N2YyMDcwNTU""},{""Zdjęcie główne produktu"":"""",""Zdjęcie główne produktu-src"":""/medias/02-scouring-02-handpads-04-handpad-super-scourers-scene.jpg-ClonedDuringMediaCleanUp012345-carouselImage?context=bWFzdGVyfHJvb3R8NjY0MzF8aW1hZ2UvZ2lmfGgwMy9oNzUvOTE5NDM2OTE4Nzg3MC5naWZ8YTAzZjY1YzY1ZWE2NDIzMzliOWUyOTZiM2UwZThkMjVlNDhiYjNhNzQ4YjU2MTJkNzZhMmE2NmJmOTJhMjE1OA""}]",""
"1587416164-588","https://www.vileda-professional.pl/Materia%C5%82y-%C5%9Bcierne/c/scouring?q=%3AcategorySequenceNumber-asc&resultsPerPage=32","Inox
				
			
			
				
					Produkty ścierne Vileda Professional ze stali nierdzewnej.","https://www.vileda-professional.pl/Materia%C5%82y-%C5%9Bcierne/Inox/p/Inox","Inox","null","null","silver","50","100788","Inox
    The spiral that cleans
    Spiralny zdzierak o wysokiej skuteczności usuwania zabrudzeńBardzo odporny i trwały zdzierak o kulistym kształcie o wysokiej skuteczności usuwania zabrudzeń. Wykonany w 100% ze stali nierdzewnej, doskonale nadaje się do intensywnego szorowania i usuwania przywartych zanieczyszczeń. 

Zalety produktu


	Zdzierak wykonany z kwasoodpornej stali nierdzewnej
	Bardzo odporny i trwały
	Doskonały do intensywnego szorowania i usuwania","[{""Zdjęcie główne produktu"":"""",""Zdjęcie główne produktu-src"":""/medias/02-scouring-07-inox-portrait.gif-ClonedDuringMediaCleanUp0123456789-carouselThumbnail?context=bWFzdGVyfHJvb3R8Nzg1NDd8aW1hZ2UvZ2lmfGg3Mi9oMzMvOTE5NDM2NzY4MDU0Mi5naWZ8MjE2ZGY4NzFkNDQ5YWZhMDAxOGFhZGVjNjgyZTNjZTE2YmI0NDhlM2VhZjQ1NjA4OTRjOWE5MDk0OGQwMDFlNA""},{""Zdjęcie główne produktu"":"""",""Zdjęcie główne produktu-src"":""/medias/02-scouring-07-inox-inox-scouring-ball-60gr-detail-580x550.gif-ClonedDuringMediaCleanUp0123456789-carouselThumbnail?context=bWFzdGVyfHJvb3R8MTEzMTM2fGltYWdlL2dpZnxoN2YvaGIxLzkxOTQzNjc4MTE2MTQuZ2lmfGRmOWUxM2RiZjM2MjU0ZjM2YmEyNTc3Y2I4MjljMDk2ODViNzJjOTI0NWE3NmVjZjRhMTQ4ZTcyOTMyOGE5ZWQ""},{""Zdjęcie główne produktu"":"""",""Zdjęcie główne produktu-src"":""/medias/02-scouring-07-inox-inox-scouring-ball-inuse-580x550.jpg-ClonedDuringMediaCleanUp0123456789-carouselThumbnail?context=bWFzdGVyfHJvb3R8NDI3NzJ8aW1hZ2UvanBlZ3xoOGIvaGZiLzkxOTQzNjc5NDI2ODYuanBnfDhiNmY4ZDQ2OGZlMDMyYmY1MTk1ZTgzNjE0YzczYmRhMzc2NDA1ZDg2MDM3MGNlZTY5MDQ5N2RmMDU3MmRmYTI""},{""Zdjęcie główne produktu"":"""",""Zdjęcie główne produktu-src"":""/medias/02-scouring-07-inox-portrait.gif-ClonedDuringMediaCleanUp0123456789-carouselImage?context=bWFzdGVyfHJvb3R8Nzg1NDd8aW1hZ2UvZ2lmfGg4Yy9oMTQvOTE5NDM2Nzc0NjA3OC5naWZ8MjBkYjgwOTI0YTJhZDVmMmFiZmJkN2QzZWFmZWUyZTU3YTA1YTc2YWFhMDBhNWQzNzI0YmY5ZjI3OWZhZmFlOA""}]",""
"1587416172-597","https://www.vileda-professional.pl/Materia%C5%82y-%C5%9Bcierne/c/scouring?q=%3AcategorySequenceNumber-asc&resultsPerPage=32","Gąbka Non-Scratch
				
			
			
				
					Gąbka z warstwą czyszczącą bez ścierniwa - czyści wrażliwe powierzchnie bez zarysowań","https://www.vileda-professional.pl/Materia%C5%82y-%C5%9Bcierne/G%C4%85bka-Non-Scratch/p/High_Foam_Scourer_Non_Scratch","Vileda “Non-Scratch”, czerwony","15 x 7","15 x 7","czerwony","10","102563","Gąbka Non-Scratch
    Soft touch, hard working on several surfaces
    Miękkie w dotyku do efektywnego czyszczenia różnych powierzchniCzęść piankowa jest miękka, dobrze leży w dłoni i oferuje dobrą ergonomię. Nie daj się jednak zwieść jej miękkości – to wytrzymały partner, który oczyszcza różne powierzchnie, nadając im lśniący połysk.
Piankowa gąbka z miękką warstwą czyszczącą bez ścierniwa czyści wrażliwe powierzchnie i jest przyjemna dla dłoni.

Higiena i bezpieczeństwo
System kodowania kolorystycznego zapewnia proces sprzątania zgodny ze standardami higieny i zasadami HACCP. 

Zalety produktu


	Miękka biała warstwa czyszcząca nie zawiera ścierniwa, co zapewnia jej przydatność do czyszczenia wszystkich powierzchni bez zadrapań
	Doskonała do użytku w łazienkach, kuchniach itp.
	Pianka pokrywająca warstwę czyszczącą chroni palce
	Kodowanie kolorami R/B/G/Y pomaga w zapobieganiu przenoszenia zanieczyszczeń","[{""Zdjęcie główne produktu"":"""",""Zdjęcie główne produktu-src"":""/medias/02-scouring-03-high-foam-backed-scourers-01-non-scratch-portrait.gif-ClonedDuringMediaCleanUp0123456-carouselThumbnail?context=bWFzdGVyfHJvb3R8MzQ0ODd8aW1hZ2UvZ2lmfGhlNS9oMjkvOTE5NTE2NDA0MTI0Ni5naWZ8N2YzMWMzYmU3MjJjZTliN2I4MWVkZGE0YTVjMzQ2ZDI5ZDlhOWQ0MTYxMDIwZTA1MTkxMzk1NjgwYmY3MTgxNw""},{""Zdjęcie główne produktu"":"""",""Zdjęcie główne produktu-src"":""/medias/02-scouring-03-high-foam-backed-scourers-01-non-scratch-non-scratch-detail-580x550.gif-ClonedDuringMediaCleanUp0123456-carouselThumbnail?context=bWFzdGVyfHJvb3R8NDU5ODB8aW1hZ2UvZ2lmfGhkMS9oNjcvOTE5NTE2NDE3MjMxOC5naWZ8YTgzYTc4N2U3ZTJlNDc5MjdhMTFmMGZhY2Y3ZDYyYjkyMWJmYjIyZjE0YzI3MzVmYmVlYjlmZTJhNWVmMjAzYg""},{""Zdjęcie główne produktu"":"""",""Zdjęcie główne produktu-src"":""/medias/02-scouring-03-high-foam-backed-scourers-01-non-scratch-portrait.gif-ClonedDuringMediaCleanUp0123456-carouselImage?context=bWFzdGVyfHJvb3R8MzQ0ODd8aW1hZ2UvZ2lmfGg3Ni9oYjYvOTE5NTE2NDEwNjc4Mi5naWZ8Nzg4ZjVkYmJjZjViNDJkY2VkZTFmNzA5ZDFhMWVlOThlMDBmMjIzNDg2MWE4ODJlNDVkMTg4ZTM1MzIxNjM4ZQ""}]",""
"1587416176-600","https://www.vileda-professional.pl/Materia%C5%82y-%C5%9Bcierne/c/scouring?q=%3AcategorySequenceNumber-asc&resultsPerPage=32","Gąbka do szorowania
				
			
			
				
					Wysokiej jakości gąbka z zieloną warstwą ścierną i wygodnym uchwytem
piankowym, doskonała do ogólnego zmywania i usuwania śladów","https://www.vileda-professional.pl/Materia%C5%82y-%C5%9Bcierne/G%C4%85bka-do-szorowania/p/High_Foam_Scourer_Strong","Gąbka do szorowania","15 x 7","15 x 7","zielony","10","101397","Gąbka do szorowania
    Soft touch, hard working on several surfaces
    Miękka w dotyku, skutecznie czyści wiele powierzchniPianka pokrywająca warstwę czyszczącą chroni dłonie, zapewnia dobry chwyt i lepszą ergonomię. Nie daj się jednak zwieść - nasza gąbka skutecznie usuwa zabrudzenia i czyści różne rodzaje powierzchni, nadając im lśniący połysk. 

Zalety produktu


	Doskonała gąbka, o wysokiej jakości zielonej warstwie ściernej, z wygodnym uchwytem piankowym Idealna do ogólnego zmywania i usuwania śladów
	Pianka pokrywająca warstwę czyszczącą chroni palce i utrzymuje warstwę czyszczącą w położeniu zapewniającym jej maksymalny kontakt z czyszczoną powierzchnią","[{""Zdjęcie główne produktu"":"""",""Zdjęcie główne produktu-src"":""/medias/02-scouring-03-high-foam-backed-scourers-04-high-foam-backed-scourer-strong-strong-detail-02-580x550.gif-ClonedDuringMediaCleanUp012345678-carouselThumbnail?context=bWFzdGVyfHJvb3R8NTExMjJ8aW1hZ2UvZ2lmfGhlMS9oNzcvOTE5NTE2Mzc3OTEwMi5naWZ8MzlhMjNkNDkyNWE5OTkyNzJiMDc5YjU2ZDM3ODYxMGVhYWQ5Y2FjNjVmN2M4M2FiMGJkOTI1ZDI5NGQxYmMxMQ""},{""Zdjęcie główne produktu"":"""",""Zdjęcie główne produktu-src"":""/medias/02-scouring-03-high-foam-backed-scourers-04-high-foam-backed-scourer-strong-strong-detail-02-580x550.gif-ClonedDuringMediaCleanUp012345678-carouselImage?context=bWFzdGVyfHJvb3R8NTExMjJ8aW1hZ2UvZ2lmfGgyZi9oMDQvOTE5NTE2Mzg0NDYzOC5naWZ8MDE2NGYxNjk0NzgwNWIxYmI5YWVlZTA4OWMzYTA0MTdlMTU3ZjBlZGMzY2IzYmI4NzI0OTlhODQ3YzVmZWMwMQ""}]",""
"1587416146-576","https://www.vileda-professional.pl/Materia%C5%82y-%C5%9Bcierne/c/scouring?q=%3AcategorySequenceNumber-asc&resultsPerPage=32","Pad ścierny do grilla
				
			
			
				
					Wytrzymały pad wykonany w 100% z nylonu o doskonałych właściwościach ściernych.","https://www.vileda-professional.pl/Materia%C5%82y-%C5%9Bcierne/Pad-%C5%9Bcierny-do-grilla/p/Griddle_Scourer_Pad","Pad ze skrobakiem","14.5 x 10","14.5 x 10","null","6","101024","Pad ścierny do grilla
    
    Kompletny system do utrzymania czystości we wszystkich kuchniach komercyjnych. System Griddle jest uniwersalny i łatwy w użyciu. Może być stosowany w połączeniu z demontowalnym uchwytem z aluminium, który chroni ręce użytkowników przed sparzeniem się o gorące powierzchnie i zwiększa zasięg. Lekki, ergonomiczny uchwyt z tworzywa sztucznego ułatwia użytkownikom zastosowanie odpowiedniego nacisku w celu wydajnego oczyszczenia całego grilla. Lita struktura o wysokiej jakości z metalową płytką w uchwycie jest wymienna, dzięki czemu pad ma długą żywotność. Dodatkowo wysoko skuteczny pad do grilla spełnia wymagania HACCP. 

Zalety produktu:


	Pad wykonany w 100% z nylonu o silnych właściwościach ściernych
	Najwyższa skuteczność i trwałość
	Dorównuje skutecznością skrobakom metalowym i nie zawiera elementów metalowych, spełniając przepisy HACCP","[{""Zdjęcie główne produktu"":"""",""Zdjęcie główne produktu-src"":""/medias/02-scouring-05-griddle-system-03-griddle-scourer-pad-portrait.gif-ClonedDuringMediaCleanUp01234-carouselThumbnail?context=bWFzdGVyfHJvb3R8NDAyMTl8aW1hZ2UvZ2lmfGhmNS9oYzEvOTE5NDM3MDMwMTk4Mi5naWZ8YjU0OTdjOTZmYjlkZjM4Zjc5OTk1MTJmMjU4ZWQ2MmEzZmVjMTNmYWFmZjYwNTY1N2Q4ODkwYjQ1NzUwM2YzYQ""},{""Zdjęcie główne produktu"":"""",""Zdjęcie główne produktu-src"":""/medias/02-scouring-05-griddle-system-03-griddle-scourer-pad-griddle-scourer-pad-inuse-580x550.jpg-ClonedDuringMediaCleanUp01234-carouselThumbnail?context=bWFzdGVyfHJvb3R8MzU1MjB8aW1hZ2UvanBlZ3xoODgvaDdkLzkxOTQzNzA0MzMwNTQuanBnfDVlY2QyY2Y2MTE5ZGNlNTI2ODFlYzdmMzZiYzA3ZTdhMmJjMDU4OGEzMjExZTdlODFjYjg4YWVlNjBlYjg0MDY""},{""Zdjęcie główne produktu"":"""",""Zdjęcie główne produktu-src"":""/medias/02-scouring-05-griddle-system-03-griddle-scourer-pad-portrait.gif-ClonedDuringMediaCleanUp01234-carouselImage?context=bWFzdGVyfHJvb3R8NDAyMTl8aW1hZ2UvZ2lmfGg5ZS9oYWUvOTE5NDM3MDM2NzUxOC5naWZ8MGU4ZGM0NzA3YWI0MjAzNWIxZDM2NTBlOTU3N2U0YjQzODczODJjMjc1ZGZjNzE5MGU2MGJkY2U4OWIwMTI5ZQ""}]",""
"1587416155-582","https://www.vileda-professional.pl/Materia%C5%82y-%C5%9Bcierne/c/scouring?q=%3AcategorySequenceNumber-asc&resultsPerPage=32","Gąbka Non-Scratch
				
			
			
				
					Gąbka z warstwą czyszczącą bez ścierniwa - czyści wrażliwe powierzchnie bez zarysowań","https://www.vileda-professional.pl/Materia%C5%82y-%C5%9Bcierne/G%C4%85bka-Non-Scratch/p/Handpad_Non-Scratch","Pad ręczny Non-Scratch","15 x 23","15 x 23","biały","5","108900","Gąbka Non-Scratch
    
    Zewnętrznie wiele środków ściernych wygląda podobnie, ale jeśli wybierzesz jeden z proponowanych przez Vileda, to szybko zauważysz różnicę zarówno w odniesieniu do jakości jak końcowego efektu czyszczenia. Produkty niskiej jakości zużywają się szybko poczynając od górnej warstwy włókien czyszczących, wskutek czego czyszczenie wymaga więcej czasu i wysiłków. W materiałach ściernych Vileda każde włókno pokryte jest substancją ziarnistą i żywicą, co gwarantuje utrzymanie znakomitych efektów czyszczących przez cały okres ich użytkowania. Mocne przyleganie żywicy zapewnia równomierne zużywanie czyściwa i włókien, gwarantując znakomitą jakość czyszczenia. 

Zalety produktu


	Doskonale nadaje się do delikatnych powierzchni, np. w łazienkach
	Nie rysuje powierzchni","[{""Zdjęcie główne produktu"":"""",""Zdjęcie główne produktu-src"":""/medias/02-scouring-02-handpads-01-handpad-non-scratch-portrait.gif-ClonedDuringMediaCleanUp012345678-carouselThumbnail?context=bWFzdGVyfHJvb3R8Mjg2MzV8aW1hZ2UvZ2lmfGgzNi9oOGUvOTE5NDM2ODk5MTI2Mi5naWZ8NjMxOGZhOGZiMmJjNGE2NzA3N2U2MzM3MThlNzQwMWQ0NWJlZTg2OGM4ODM2ZTA2NDBkNDEyN2U2Yzk3NjZkOQ""},{""Zdjęcie główne produktu"":"""",""Zdjęcie główne produktu-src"":""/medias/02-scouring-02-handpads-01-handpad-non-scratch-portrait.gif-ClonedDuringMediaCleanUp012345678-carouselImage?context=bWFzdGVyfHJvb3R8Mjg2MzV8aW1hZ2UvZ2lmfGhmNS9oZjYvOTE5NDM2OTA1Njc5OC5naWZ8NGMxMDBjZjgwNGE4ZmI0NTBkYjk2NWM2YTliYzc5NDkxMTQ0YjliOGMxYjY1ZGM3ZjhiMTM2NzI5MmEzYmRmNw""}]",""
"1587416174-599","https://www.vileda-professional.pl/Materia%C5%82y-%C5%9Bcierne/c/scouring?q=%3AcategorySequenceNumber-asc&resultsPerPage=32","Gąbka łazienkowa miękka
				
			
			
				
					Wysokiej jakości gąbka, którą łatwo jest utrzymać w dłoni z niebieską warstwą czyszczącą. Doskonała do sanitariatów.","https://www.vileda-professional.pl/Materia%C5%82y-%C5%9Bcierne/G%C4%85bka-%C5%82azienkowa-mi%C4%99kka/p/High_Foam_Scourer_Soft","Gąbka łazienkowa","15 x 7","15 x 7","niebieski","10","100729","Gąbka łazienkowa miękka
    Soft abrasive for gentle cleaning
    Struktura warstwy czyszczącej umożliwia delikatne usuwanie zabrudzeń

Zewnętrznie wiele środków ściernych wygląda podobnie, ale jeśli wybierzesz jeden z proponowanych przez Vileda, to szybko zauważysz różnicę zarówno w odniesieniu do jakości jak końcowego efektu czyszczenia. Produkty niskiej jakości zużywają się szybko poczynając od górnej warstwy włókien czyszczących, wskutek czego czyszczenie wymaga więcej czasu i wysiłków. W materiałach ściernych Vileda każde włókno pokryte jest substancją ziarnistą i żywicą, co gwarantuje utrzymanie znakomitych efektów czyszczących przez cały okres ich użytkowania. Mocne przyleganie żywicy zapewnia równomierne zużywanie czyściwa i włókien, gwarantując znakomitą jakość czyszczenia.

Materiał 

Środki czyszczące Viledy wytwarzane są z nylonu, który nie rdzewieje, nie zostawia zadr i zanieczyszczeń, a także łatwo się spłukuje.

Zastosowanie

Elastyczny materiał z warstwą ścierną. Doskonały do sanitariatów.
 

Zalety produktu


	Miękka, niebieska struktura warstwy czyszczącej, bardziej efektywna w usuwaniu plam niż biała, ale wciąż delikatna a stosunku do powierzchni czyszczonej
	Doskonała do zastosowań sanitarnych
	Pianka pokrywająca warstwę czyszczącą chroni palce i utrzymuje płasko warstwę czyszczącą, aby zapewnić maksymalny kontakt z czyszczoną powierzchnią","[{""Zdjęcie główne produktu"":"""",""Zdjęcie główne produktu-src"":""/medias/02-scouring-03-high-foam-backed-scourers-02-high-foam-backed-scourer-soft-portrait.gif-ClonedDuringMediaCleanUp01234567-carouselThumbnail?context=bWFzdGVyfHJvb3R8NDc3ODZ8aW1hZ2UvZ2lmfGhhOS9oY2YvOTE5NTE2MzkxMDE3NC5naWZ8ZDk1YmQ0NDUxMGU5MzA1NWYwMDExMGNlNWNkYjZkZTI1ZWUyYjFiMjYwMDA1NGFlNDllMjA0YmE5ODFjYjIyNQ""},{""Zdjęcie główne produktu"":"""",""Zdjęcie główne produktu-src"":""/medias/02-scouring-03-high-foam-backed-scourers-02-high-foam-backed-scourer-soft-portrait.gif-ClonedDuringMediaCleanUp01234567-carouselImage?context=bWFzdGVyfHJvb3R8NDc3ODZ8aW1hZ2UvZ2lmfGgzNi9oOTgvOTE5NTE2Mzk3NTcxMC5naWZ8N2Y5OTFhODQxNDQ0N2RhZjBlMWZhNzAwNzYxYWQ4Nzc0NDc4ZmFlNWEyYmU3NjA0ZGIzMjA2MzEyMDYwNTZiYg""}]",""
"1587416153-579","https://www.vileda-professional.pl/Materia%C5%82y-%C5%9Bcierne/c/scouring?q=%3AcategorySequenceNumber-asc&resultsPerPage=32","Pad ręczny Super Scourer
				
			
			
				
					Pad o działaniu ścierającym o doskonałych właściwościach czyszczących","https://www.vileda-professional.pl/Materia%C5%82y-%C5%9Bcierne/Pad-r%C4%99czny-Super-Scourer/p/Handpad_Super_Scourers","Handpad Super Scourer (small)","11 x 15","11 x 15","zielony","5","102575","Pad ręczny Super Scourer
    
    Zewnętrznie wiele środków ściernych wygląda podobnie, ale jeśli wybierzesz jeden z proponowanych przez Vileda, to szybko zauważysz różnicę zarówno w odniesieniu do jakości jak końcowego efektu czyszczenia. Produkty niskiej jakości zużywają się szybko poczynając od górnej warstwy włókien czyszczących, wskutek czego czyszczenie wymaga więcej czasu i wysiłków. W materiałach ściernych Vileda każde włókno pokryte jest substancją ziarnistą i żywicą, co gwarantuje utrzymanie znakomitych efektów czyszczących przez cały okres ich użytkowania. Mocne przyleganie żywicy zapewnia równomierne zużywanie czyściwa i włókien, gwarantując znakomitą jakość czyszczenia. 

Zalety produktu


	Wysokiej jakości pad z agresywną warstwą ścierną
	Doskonale nadaje się do zmywania i usuwania śladów
	Dostępny jako pad ręczny w 2 wymiarach i na rolce","[{""Zdjęcie główne produktu"":"""",""Zdjęcie główne produktu-src"":""/medias/02-scouring-02-handpads-04-handpad-super-scourers-scene.jpg-ClonedDuringMediaCleanUp012345-carouselThumbnail?context=bWFzdGVyfHJvb3R8NjY0MzF8aW1hZ2UvZ2lmfGhjNy9oNmEvOTE5NDM2OTEyMjMzNC5naWZ8YzIzZjM1ODg2YjAwN2VmMjM4NGIzMDM2ZGVhZGIyMDliN2ZjNGYxOWFjYTNmN2IzNWFlZTYzNjFmY2QxZTU3OQ""},{""Zdjęcie główne produktu"":"""",""Zdjęcie główne produktu-src"":""/medias/02-scouring-02-handpads-04-handpad-super-scourers-portrait.gif-ClonedDuringMediaCleanUp0123456-carouselThumbnail?context=bWFzdGVyfHJvb3R8Mzc4NTZ8aW1hZ2UvanBlZ3xoN2YvaGZjLzkxOTQzNjkyNTM0MDYuanBnfDVjNjQ1YTM5MGRkYmEzYmVlYzc1YjY4MGQxNzlhZTU4NjUwNjczYjcwYWY2ZDkyMDBkZjUzODk4N2YyMDcwNTU""},{""Zdjęcie główne produktu"":"""",""Zdjęcie główne produktu-src"":""/medias/02-scouring-02-handpads-04-handpad-super-scourers-scene.jpg-ClonedDuringMediaCleanUp012345-carouselImage?context=bWFzdGVyfHJvb3R8NjY0MzF8aW1hZ2UvZ2lmfGgwMy9oNzUvOTE5NDM2OTE4Nzg3MC5naWZ8YTAzZjY1YzY1ZWE2NDIzMzliOWUyOTZiM2UwZThkMjVlNDhiYjNhNzQ4YjU2MTJkNzZhMmE2NmJmOTJhMjE1OA""}]",""
