{

    "version": "0.2.0",
    "configurations": [
        {
            "name": "Python: Current File",
            "type": "python",
            "request": "launch",
            "program": "${workspaceFolder}/script.py",
            "console": "integratedTerminal",
            "args": ["--source", 
                "sitemaps/kimberly/chusteczki/results/kimberly-chusteczki-en.csv", 
                "sitemaps/kimberly/chusteczki/results/kimberly-chusteczki-de.csv:7", 
                "--scheme", 
                "sitemaps/kimberly/chusteczki/results/szablon.xls", 
                "--match", "Numer artykułu", 
                "--drop", "True", 
                "--skip_rows", "3", 
                "--save_path", "sitemaps/kimberly/chusteczki/results/results.xlsx",
                "--require_columns", "Numer artykułu"
            ]
        }
    ]
}