﻿web-scraper-order,web-scraper-start-url,product-link,product-link-href,Podkategoria produktu,Numer artykułu,Nazwa produktu [PL],Krótki opis produktu [PL],Kolor,Pojemność [L],Rozszerzenie opisu produktu [PL],Zdjęcie główne produktu-src,Karta charakterystyki PL [nazwa pliku z rozszerzeniem],Karta produktu PL [nazwa pliku z rozszerzeniem]
"1592913158-31","http://www.woca.pl/produkty-do-podlog","Teleskopskaft
    
      
Zobacz więcej","http://www.woca.pl/shop/produkt/teleskopskaft","Akcesoria","","Teleskopskaft","[{""Krótki opis produktu [PL]"":""""},{""Krótki opis produktu [PL]"":""""}]","-","0","","/admin/public/getimage.ashx?image=/Files/Images/PIM/316272869.jpg&crop=0&Width=460&AlternativeImage=/Files/System/espresso/image.png","null","https://unik.skypim.com/show?objectid=328434309&template=ORG"
"1592913193-48","http://www.woca.pl/produkty-do-podlog","Swep Mop - red
    
      
Zobacz więcej","http://www.woca.pl/shop/produkt/swep-mop-red","Akcesoria","","Swep Mop - red","[{""Krótki opis produktu [PL]"":""""},{""Krótki opis produktu [PL]"":""""}]","-","0","","/admin/public/getimage.ashx?image=/Files/Images/PIM/316226501.jpg&crop=0&Width=460&AlternativeImage=/Files/System/espresso/image.png","null","https://unik.skypim.com/show?objectid=328443352&template=ORG"
"1592913144-24","http://www.woca.pl/produkty-do-podlog","Sprayhoved
    
      
Zobacz więcej","http://www.woca.pl/shop/produkt/sprayhoved","Akcesoria","","Sprayhoved","[{""Krótki opis produktu [PL]"":""""},{""Krótki opis produktu [PL]"":""""}]","White
      
      
      
      
      
        -","0","","/admin/public/getimage.ashx?image=/Files/Images/PIM/316273137.jpg&crop=0&Width=460&AlternativeImage=/Files/System/espresso/image.png","null","https://unik.skypim.com/show?objectid=328440817&template=ORG"
"1592913125-15","http://www.woca.pl/produkty-do-podlog","Polishing Machine 13""
    
      
Zobacz więcej","http://www.woca.pl/shop/produkt/polishing-machine-13","Akcesoria","","Polishing Machine 13""","[{""Krótki opis produktu [PL]"":""""},{""Krótki opis produktu [PL]"":""""}]","-","0","","/admin/public/getimage.ashx?image=/Files/Images/PIM/316272967.jpg&crop=0&Width=460&AlternativeImage=/Files/System/espresso/image.png","null","https://unik.skypim.com/show?objectid=328442135&template=ORG"
"1592913121-13","http://www.woca.pl/produkty-do-podlog","Sanding Grit 13""
    
      
Zobacz więcej","http://www.woca.pl/shop/produkt/sanding-grit-13","Akcesoria","","Sanding Grit 13""","[{""Krótki opis produktu [PL]"":""""},{""Krótki opis produktu [PL]"":""""}]","-","1","","/admin/public/getimage.ashx?image=/Files/Images/PIM/316226427.jpg&crop=0&Width=460&AlternativeImage=/Files/System/espresso/image.png","null","https://unik.skypim.com/show?objectid=328438633&template=ORG"
"1592913150-27","http://www.woca.pl/produkty-do-podlog","Uchwyt do łasiczki
    
      
Zobacz więcej","http://www.woca.pl/shop/produkt/uchwyt-do-lasiczki","Akcesoria","","Uchwyt do łasiczki","[{""Krótki opis produktu [PL]"":""Do aplikacji ługu""},{""Krótki opis produktu [PL]"":""""}]","-","0","Do aplikacji ługu. 
Wymaga łasiczki WOCA do ługowania #88002. 
Pasuje do kija teleskopowego WOCA #599651.

Produkt:
Szerokość 40 cm","/admin/public/getimage.ashx?image=/Files/Images/PIM/316226486.jpg&crop=0&Width=460&AlternativeImage=/Files/System/espresso/image.png","null","https://unik.skypim.com/show?objectid=330793498&template=ORG"
"1592913164-34","http://www.woca.pl/produkty-do-podlog","Paint Roller Cylinder, 4 mm
    
      
Zobacz więcej","http://www.woca.pl/shop/produkt/paint-roller-cylinder--4-mm","Akcesoria","","Paint Roller Cylinder, 4 mm","[{""Krótki opis produktu [PL]"":""""},{""Krótki opis produktu [PL]"":""""}]","-","0","","/admin/public/getimage.ashx?image=/Files/Images/PIM/316226537.jpg&crop=0&Width=460&AlternativeImage=/Files/System/espresso/image.png","null","https://unik.skypim.com/show?objectid=328432595&template=ORG"
"1592913123-14","http://www.woca.pl/produkty-do-podlog","Replacement Driver Pulley 13""
    
      
Zobacz więcej","http://www.woca.pl/shop/produkt/replacement-driver-pulley-13","Akcesoria","","Replacement Driver Pulley 13""","[{""Krótki opis produktu [PL]"":""""},{""Krótki opis produktu [PL]"":""""}]","-","1","","/admin/public/getimage.ashx?image=/Files/Images/PIM/316226373.jpg&crop=0&Width=460&AlternativeImage=/Files/System/espresso/image.png","null","https://unik.skypim.com/show?objectid=328437374&template=ORG"
"1592913175-39","http://www.woca.pl/produkty-do-podlog","Super Hand Pad
    
      
Zobacz więcej","http://www.woca.pl/shop/produkt/super-hand-pad","Akcesoria","","Super Hand Pad","[{""Krótki opis produktu [PL]"":""""},{""Krótki opis produktu [PL]"":""""}]","biały
      
      
      
      
      
        beżowy","1","#88039 - beżowy
#88040 - biały

Produkt:
250x115 mm
grubości 20 mm","/admin/public/getimage.ashx?image=/Files/Images/PIM/316273271.jpg&crop=0&Width=460&AlternativeImage=/Files/System/espresso/image.png","null","https://unik.skypim.com/show?objectid=328441652&template=ORG"
"1592913146-25","http://www.woca.pl/produkty-do-podlog","Aplikator gumowy
    
      
Zobacz więcej","http://www.woca.pl/shop/produkt/aplikator-gumowy","Akcesoria","","Aplikator gumowy","[{""Krótki opis produktu [PL]"":""Do aplikacji oleju.""},{""Krótki opis produktu [PL]"":""""}]","-","1","Do aplikacji oleju. 
Pasuje do kija teleskopowego WOCA #599651.","/admin/public/getimage.ashx?image=/Files/Images/PIM/316273117.jpg&crop=0&Width=460&AlternativeImage=/Files/System/espresso/image.png","null","https://unik.skypim.com/show?objectid=330782455&template=ORG"
"1592913137-21","http://www.woca.pl/produkty-do-podlog","Sanding Grit 16""
    
      
Zobacz więcej","http://www.woca.pl/shop/produkt/sanding-grit-16","Akcesoria","","Sanding Grit 16""","[{""Krótki opis produktu [PL]"":""""},{""Krótki opis produktu [PL]"":""""}]","-","1","","/admin/public/getimage.ashx?image=/Files/Images/PIM/316226427.jpg&crop=0&Width=460&AlternativeImage=/Files/System/espresso/image.png","null","https://unik.skypim.com/show?objectid=328439881&template=ORG"
"1592913148-26","http://www.woca.pl/produkty-do-podlog","Łasiczka do ługowania
    
      
Zobacz więcej","http://www.woca.pl/shop/produkt/lasiczka-do-lugowania","Akcesoria","","Łasiczka do ługowania","[{""Krótki opis produktu [PL]"":""Mikrofibra. Do aplikacji ługu.""},{""Krótki opis produktu [PL]"":""""}]","-","0","Mikrofibra. Do aplikacji ługu.
Pasuje do uchwyt do łasiczki WOCA #88001.

Produkt:
Szerokość 40 cm","/admin/public/getimage.ashx?image=/Files/Images/PIM/316226139.jpg&crop=0&Width=460&AlternativeImage=/Files/System/espresso/image.png","null","https://unik.skypim.com/show?objectid=330773286&template=ORG"
"1592913171-37","http://www.woca.pl/produkty-do-podlog","Pad wełniany
    
      
Zobacz więcej","http://www.woca.pl/shop/produkt/pad-welniany","Akcesoria","","Pad wełniany","[{""Krótki opis produktu [PL]"":""""},{""Krótki opis produktu [PL]"":""""}]","Beige
      
      
      
      
      
        -","0","Do polerowania na sucho.

Produkt:
250x115 mm
grubości 5 mm","/admin/public/getimage.ashx?image=/Files/Images/PIM/316272863.jpg&crop=0&Width=460&AlternativeImage=/Files/System/espresso/image.png","null","https://unik.skypim.com/show?objectid=328443680&template=ORG"
"1592913166-35","http://www.woca.pl/produkty-do-podlog","Paint Roller Holder
    
      
Zobacz więcej","http://www.woca.pl/shop/produkt/paint-roller-holder","Akcesoria","","Paint Roller Holder","[{""Krótki opis produktu [PL]"":""""},{""Krótki opis produktu [PL]"":""""}]","-","0","","/admin/public/getimage.ashx?image=/Files/Images/PIM/316246325.jpg&crop=0&Width=460&AlternativeImage=/Files/System/espresso/image.png","null","https://unik.skypim.com/show?objectid=328433724&template=ORG"
"1592913183-43","http://www.woca.pl/produkty-do-podlog","Hand Scrubber Flex Kit Red
    
      
Zobacz więcej","http://www.woca.pl/shop/produkt/hand-scrubber-flex-kit-red","Akcesoria","","Hand Scrubber Flex Kit Red","[{""Krótki opis produktu [PL]"":""Do czyszczenia i polerowania powierzchni drewnianych""},{""Krótki opis produktu [PL]"":""Łatwa aplikacja""}]","Red","0","Zapewnia szybkie i skuteczne polerowanie oraz czyszczenie. Nadaje się do wszystkich powierzchni drewnianych i kamiennych użytkowanych we wnętrzach oraz na zewnątrz. WOCA Hand Scrubber Flex stosuje się z wymienialnymi wkładkami  (o drobnej i grubszej ziarnistości), które są łatwe i szybkie w montażu/wymianie.

Czerwony = o grubszej ziarnistości
Biały = o drobnej ziarnistości

Produkt:
90x150 mm","/admin/public/getimage.ashx?image=/Files/Images/PIM/316225215.jpg&crop=0&Width=460&AlternativeImage=/Files/System/espresso/image.png","null","https://unik.skypim.com/show?objectid=330746832&template=ORG"
"1592913173-38","http://www.woca.pl/produkty-do-podlog","Standardowy Pad
    
      
Zobacz więcej","http://www.woca.pl/shop/produkt/standardowy-pad","Akcesoria","","Standardowy Pad","[{""Krótki opis produktu [PL]"":""""},{""Krótki opis produktu [PL]"":""""}]","biały
      
      
      
      
      
        Black
      
      
      
      
      
        Green","1
      
      
      
      
      
        0","#88033 - czarny (szlifowanie)
#88034 - zielony (nakładanie)
#88036 - biały (polerowanie)

Produkt:
250x115 mm
grubości 8 mm","/admin/public/getimage.ashx?image=/Files/Images/PIM/316226211.jpg&crop=0&Width=460&AlternativeImage=/Files/System/espresso/image.png","null","https://unik.skypim.com/show?objectid=328428310&template=ORG"
"1592913156-30","http://www.woca.pl/produkty-do-podlog","Lacquer Bucket
    
      
Zobacz więcej","http://www.woca.pl/shop/produkt/lacquer-bucket","Akcesoria","","Lacquer Bucket","[{""Krótki opis produktu [PL]"":""""},{""Krótki opis produktu [PL]"":""""}]","-","0","","/admin/public/getimage.ashx?image=/Files/Images/PIM/316272931.jpg&crop=0&Width=460&AlternativeImage=/Files/System/espresso/image.png","null","https://unik.skypim.com/show?objectid=330766078&template=ORG"
"1592913179-41","http://www.woca.pl/produkty-do-podlog","Szmatki polerskie, 38x40 cm
    
      
Zobacz więcej","http://www.woca.pl/shop/produkt/szmatki-polerskie--38x40-cm","Akcesoria","","Szmatki polerskie, 38x40 cm","[{""Krótki opis produktu [PL]"":""Do wycierania nadmiaru płynów.""},{""Krótki opis produktu [PL]"":""""}]","-","0","Do wycierania nadmiaru płynów.

Produkt:
38x40 cm
140 g/m2","/admin/public/getimage.ashx?image=/Files/Images/PIM/316226328.jpg&crop=0&Width=460&AlternativeImage=/Files/System/espresso/image.png","null","https://unik.skypim.com/show?objectid=328441302&template=ORG"
"1592913133-19","http://www.woca.pl/produkty-do-podlog","Super Polishing Pad 16""
    
      
Zobacz więcej","http://www.woca.pl/shop/produkt/super-polishing-pad-16","Akcesoria","","Super Polishing Pad 16""","[{""Krótki opis produktu [PL]"":""""},{""Krótki opis produktu [PL]"":""""}]","Biały
      
      
      
      
      
        Beżowy
      
      
      
      
      
        Zielony","1","","/admin/public/getimage.ashx?image=/Files/Images/PIM/316273065.jpg&crop=0&Width=460&AlternativeImage=/Files/System/espresso/image.png","null","https://unik.skypim.com/show?objectid=328443159&template=ORG"
"1592913154-29","http://www.woca.pl/produkty-do-podlog","Colour Tray
    
      
Zobacz więcej","http://www.woca.pl/shop/produkt/colour-tray","Akcesoria","","Colour Tray","[{""Krótki opis produktu [PL]"":""""},{""Krótki opis produktu [PL]"":""""}]","-","0","","/admin/public/getimage.ashx?image=/Files/Images/PIM/316226165.jpg&crop=0&Width=460&AlternativeImage=/Files/System/espresso/image.png","null","https://unik.skypim.com/show?objectid=328444274&template=ORG"
"1592913141-23","http://www.woca.pl/produkty-do-podlog","Polishing Machine 16""
    
      
Zobacz więcej","http://www.woca.pl/shop/produkt/polishing-machine-16","Akcesoria","","Polishing Machine 16""","[{""Krótki opis produktu [PL]"":""""},{""Krótki opis produktu [PL]"":""""}]","-","1","","/admin/public/getimage.ashx?image=/Files/Images/PIM/316272967.jpg&crop=0&Width=460&AlternativeImage=/Files/System/espresso/image.png","null","https://unik.skypim.com/show?objectid=328442806&template=ORG"
"1592913139-22","http://www.woca.pl/produkty-do-podlog","Replacement Driver Pulley 16""
    
      
Zobacz więcej","http://www.woca.pl/shop/produkt/replacement-driver-pulley-16","Akcesoria","","Replacement Driver Pulley 16""","[{""Krótki opis produktu [PL]"":""""},{""Krótki opis produktu [PL]"":""""}]","-","1","","/admin/public/getimage.ashx?image=/Files/Images/PIM/316226373.jpg&crop=0&Width=460&AlternativeImage=/Files/System/espresso/image.png","null","https://unik.skypim.com/show?objectid=328438476&template=ORG"
"1592913185-44","http://www.woca.pl/produkty-do-podlog","Hand Scrubber Flex Kit White
    
      
Zobacz więcej","http://www.woca.pl/shop/produkt/hand-scrubber-flex-kit-white","Akcesoria","","Hand Scrubber Flex Kit White","[{""Krótki opis produktu [PL]"":""""},{""Krótki opis produktu [PL]"":""""}]","White","0","","/admin/public/getimage.ashx?image=/Files/Images/PIM/316225244.jpg&crop=0&Width=460&AlternativeImage=/Files/System/espresso/image.png","null","https://unik.skypim.com/show?objectid=330791848&template=ORG"
"1592913195-49","http://www.woca.pl/produkty-do-podlog","Wymienny wkład mopa z aplikatorem
    
      
Zobacz więcej","http://www.woca.pl/shop/produkt/wymienny-wklad-mopa-z-aplikatorem","Akcesoria","","Wymienny wkład mopa z aplikatorem","[{""Krótki opis produktu [PL]"":""""},{""Krótki opis produktu [PL]"":""""}]","-","0","Połączenie bawełny i mikrofibry.","/admin/public/getimage.ashx?image=/Files/Images/PIM/328347100.jpg&crop=0&Width=460&AlternativeImage=/Files/System/espresso/image.png","null","https://unik.skypim.com/show?objectid=328439755&template=ORG"
"1592913127-16","http://www.woca.pl/produkty-do-podlog","Performance Pad 16"" Safire 66
    
      
Zobacz więcej","http://www.woca.pl/shop/produkt/performance-pad-16-safire-66","Akcesoria","","Performance Pad 16"" Safire 66","[{""Krótki opis produktu [PL]"":""""},{""Krótki opis produktu [PL]"":""""}]","-","0","","/admin/public/getimage.ashx?image=/Files/Images/PIM/328347060.jpg&crop=0&Width=460&AlternativeImage=/Files/System/espresso/image.png","null","https://unik.skypim.com/show?objectid=328431278&template=ORG"
"1592913129-17","http://www.woca.pl/produkty-do-podlog","Polérpad Uld 16''
    
      
Zobacz więcej","http://www.woca.pl/shop/produkt/polerpad-uld-16","Akcesoria","","Polérpad Uld 16''","[{""Krótki opis produktu [PL]"":""""},{""Krótki opis produktu [PL]"":""""}]","-","0","","/admin/public/getimage.ashx?image=/Files/Images/PIM/316227293.jpg&crop=0&Width=460&AlternativeImage=/Files/System/espresso/image.png","null","https://unik.skypim.com/show?objectid=328440507&template=ORG"
"1592913177-40","http://www.woca.pl/produkty-do-podlog","Padholder
    
      
Zobacz więcej","http://www.woca.pl/shop/produkt/padholder","Akcesoria","","Padholder","[{""Krótki opis produktu [PL]"":""""},{""Krótki opis produktu [PL]"":""""}]","Czarny","0","","/admin/public/getimage.ashx?image=/Files/Images/PIM/316272857.jpg&crop=0&Width=460&AlternativeImage=/Files/System/espresso/image.png","null","https://unik.skypim.com/show?objectid=328431698&template=ORG"
"1592913135-20","http://www.woca.pl/produkty-do-podlog","Pad szlifierski SPP 16’’
    
      
Zobacz więcej","http://www.woca.pl/shop/produkt/pad-szlifierski-spp-16%E2%80%99%E2%80%99","Akcesoria","","Pad szlifierski SPP 16’’","[{""Krótki opis produktu [PL]"":""""},{""Krótki opis produktu [PL]"":""""}]","Bordeaux","0","Wysoka jakość. Długa żywotność. Nie pozostawia rys na lakierze. Zapewnia idealne wykończenie.

Produkt:
8 mm grubości
Bordowy","/admin/public/getimage.ashx?image=/Files/Images/PIM/316273193.jpg&crop=0&Width=460&AlternativeImage=/Files/System/espresso/image.png","null","https://unik.skypim.com/show?objectid=330782206&template=ORG"
"1592913187-45","http://www.woca.pl/produkty-do-podlog","Replacement Swep Mop, White
    
      
Zobacz więcej","http://www.woca.pl/shop/produkt/replacement-swep-mop--white","Akcesoria","","Replacement Swep Mop, White","[{""Krótki opis produktu [PL]"":""""},{""Krótki opis produktu [PL]"":""""}]","-","1","","/admin/public/getimage.ashx?image=/Files/Images/PIM/316272919.jpg&crop=0&Width=460&AlternativeImage=/Files/System/espresso/image.png","null","https://unik.skypim.com/show?objectid=328437804&template=ORG"
"1592913131-18","http://www.woca.pl/produkty-do-podlog","Normal Polishing Pad 16""
    
      
Zobacz więcej","http://www.woca.pl/shop/produkt/normal-polishing-pad-16","Akcesoria","","Normal Polishing Pad 16""","[{""Krótki opis produktu [PL]"":""""},{""Krótki opis produktu [PL]"":""""}]","Zielony
      
      
      
      
      
        Beżowy
      
      
      
      
      
        Biały
      
      
      
      
      
        Czarny","1
      
      
      
      
      
        0","","/admin/public/getimage.ashx?image=/Files/Images/PIM/316273051.jpg&crop=0&Width=460&AlternativeImage=/Files/System/espresso/image.png","null","https://unik.skypim.com/show?objectid=328428772&template=ORG"
"1592913189-46","http://www.woca.pl/produkty-do-podlog","Mop - komplet
    
      
Zobacz więcej","http://www.woca.pl/shop/produkt/mop-komplet","Akcesoria","599810","Mop - komplet","[{""Krótki opis produktu [PL]"":""""},{""Krótki opis produktu [PL]"":""Łatwa aplikacja""}]","-","0","Do częstego mycia.","/admin/public/getimage.ashx?crop=0&image=/Files/Images/PIM/217027197.jpg&Width=460","null","null"
"1592913160-32","http://www.woca.pl/produkty-do-podlog","Lacquer Roller Waterbased
    
      
Zobacz więcej","http://www.woca.pl/shop/produkt/lacquer-roller-waterbased","Akcesoria","","Lacquer Roller Waterbased","[{""Krótki opis produktu [PL]"":""""},{""Krótki opis produktu [PL]"":""""}]","-","0","","/admin/public/getimage.ashx?image=/Files/Images/PIM/328347106.jpg&crop=0&Width=460&AlternativeImage=/Files/System/espresso/image.png","null","https://unik.skypim.com/show?objectid=330772950&template=ORG"
"1592913181-42","http://www.woca.pl/produkty-do-podlog","Szmatki polerskie, 50x55 cm
    
      
Zobacz więcej","http://www.woca.pl/shop/produkt/szmatki-polerskie--50x55-cm","Akcesoria","","Szmatki polerskie, 50x55 cm","[{""Krótki opis produktu [PL]"":""Do wycierania nadmiaru płynów.""},{""Krótki opis produktu [PL]"":""""}]","Grey
      
      
      
      
      
        -","0","Do wycierania nadmiaru płynów.

Produkt:
50x55 cm","/admin/public/getimage.ashx?image=/Files/Images/PIM/316226328.jpg&crop=0&Width=460&AlternativeImage=/Files/System/espresso/image.png","null","https://unik.skypim.com/show?objectid=330746151&template=ORG"
"1592913168-36","http://www.woca.pl/produkty-do-podlog","Gąbka
    
      
Zobacz więcej","http://www.woca.pl/shop/produkt/gabka","Akcesoria","599622","Gąbka","[{""Krótki opis produktu [PL]"":""Do aplikacji produktów pielęgnacyjnych.""},{""Krótki opis produktu [PL]"":""""}]","-","0","Do aplikacji produktów pielęgnacyjnych.","/admin/public/getimage.ashx?crop=0&image=/Files/Images/PIM/180010783.jpg&Width=460","null","null"
"1592913191-47","http://www.woca.pl/produkty-do-podlog","Replacement Swep Mop, Red
    
      
Zobacz więcej","http://www.woca.pl/shop/produkt/replacement-swep-mop--red","Akcesoria","","Replacement Swep Mop, Red","[{""Krótki opis produktu [PL]"":""""},{""Krótki opis produktu [PL]"":""""}]","-","0","","/admin/public/getimage.ashx?image=/Files/Images/PIM/316226516.jpg&crop=0&Width=460&AlternativeImage=/Files/System/espresso/image.png","null","https://unik.skypim.com/show?objectid=328437608&template=ORG"
"1592913162-33","http://www.woca.pl/produkty-do-podlog","Lacquer Roller Solvent
    
      
Zobacz więcej","http://www.woca.pl/shop/produkt/lacquer-roller-solvent","Akcesoria","","Lacquer Roller Solvent","[{""Krótki opis produktu [PL]"":""""},{""Krótki opis produktu [PL]"":""""}]","-","0","","/admin/public/getimage.ashx?image=/Files/Images/PIM/328346516.jpg&crop=0&Width=460&AlternativeImage=/Files/System/espresso/image.png","null","https://unik.skypim.com/show?objectid=330793295&template=ORG"
"1592913152-28","http://www.woca.pl/produkty-do-podlog","Pędzel łamany długi
    
      
Zobacz więcej","http://www.woca.pl/shop/produkt/pedzel-lamany-dlugi","Akcesoria","","Pędzel łamany długi","[{""Krótki opis produktu [PL]"":""Do aplikacji oleju i lakieru.""},{""Krótki opis produktu [PL]"":""""}]","-","1","Do aplikacji oleju i lakieru. 
Pasuje do kija teleskopowego WOCA #599651.","/admin/public/getimage.ashx?image=/Files/Images/PIM/316226602.jpg&crop=0&Width=460&AlternativeImage=/Files/System/espresso/image.png","null","https://unik.skypim.com/show?objectid=328441107&template=ORG"
"1592913119-12","http://www.woca.pl/produkty-do-podlog","Normalny pad polerujący 13”
    
      
Zobacz więcej","http://www.woca.pl/shop/produkt/normalny-pad-polerujacy-13%E2%80%9D","Akcesoria","88018","Normalny pad polerujący 13”","[{""Krótki opis produktu [PL]"":""""},{""Krótki opis produktu [PL]"":""""}]","NO_COLOR
      
      
      
      
      
        Biały","1","Produkt:
10 mm grubości - Ø 330 mm

88021 - czarny (twardy/zrywanie)
88020 - zielony (średni/nakładanie)
88018 - biały (miękki/polerowanie)","/admin/public/getimage.ashx?crop=0&image=/Files/Images/PIM/316273057.jpg&Width=460","null","https://unik.skypim.com/show?objectid=328428513&template=ORG"
"1592913117-11","http://www.woca.pl/produkty-do-podlog","Super Polishing Pad 13""
    
      
Zobacz więcej","http://www.woca.pl/shop/produkt/super-polishing-pad-13","Akcesoria","","Super Polishing Pad 13""","[{""Krótki opis produktu [PL]"":""""},{""Krótki opis produktu [PL]"":""""}]","Biały
      
      
      
      
      
        NO_COLOR","1","","/admin/public/getimage.ashx?image=/Files/Images/PIM/316273065.jpg&crop=0&Width=460&AlternativeImage=/Files/System/espresso/image.png","null","https://unik.skypim.com/show?objectid=328441693&template=ORG"
"1592913197-50","http://www.woca.pl/produkty-do-podlog","Spray Mop
    
      
Zobacz więcej","http://www.woca.pl/shop/produkt/spray-mop","Akcesoria","","Spray Mop","[{""Krótki opis produktu [PL]"":""""},{""Krótki opis produktu [PL]"":""""}]","Black
      
      
      
      
      
        -","0","","/admin/public/getimage.ashx?image=/Files/Images/PIM/316239689.jpg&crop=0&Width=460&AlternativeImage=/Files/System/espresso/image.png","null","https://unik.skypim.com/show?objectid=328439261&template=ORG"
