﻿web-scraper-order,web-scraper-start-url,product-link,product-link-href,Numer artykułu,Nazwa produktu [EN],Krótki opis produktu [EN],Rozszerzenie opisu produktu [EN],Karta charakterystyki EN [nazwa pliku z rozszerzeniem]
"1596546562-367","https://www.gojo.com/en-GB/Product-Catalog/PURELL-Brand#numberOfResults=60&f:Category=[Brackets%20%2F%20Holders%20%2F%20Containers]","PURELL® Hand Sanitising Wipes Single Canister Bracket","https://www.gojo.com/en-GB/Product/9001-01","9001-01","PURELL® Hand Sanitising Wipes Single Canister Bracket","PURELL® Antimicrobial Wipes Bracket - Single","Provides convenient access to PURELL® Antimicrobial Wipes Plus.","null"
"1596546553-363","https://www.gojo.com/en-GB/Product-Catalog/PURELL-Brand#numberOfResults=60&f:Category=[Brackets%20%2F%20Holders%20%2F%20Containers]","PLACES™ Holder","https://www.gojo.com/en-GB/Product/9005-12","9005-12","PLACES™ Holder","Compact Bottle Bracket","Easily removable adhesive allows for flexible placement options.

                        
                            
                            Compact, adhesive-mounted bracket allows you to place bottles of PURELL on nearly any smooth wall or vertical surface.","null"
"1596546555-364","https://www.gojo.com/en-GB/Product-Catalog/PURELL-Brand#numberOfResults=60&f:Category=[Brackets%20%2F%20Holders%20%2F%20Containers]","PURELL® Bed End Holder","https://www.gojo.com/en-GB/Product/5700-12-EFF","5700-12-EFF","PURELL® Bed End Holder","Attaches to beds, trolleys and rails","Helps keep hand hygiene within arms reach with flexible placement options throughout the patient zone.

                        
                            
                            Compact bottle bracket
                            
                            Convenient & easy-to-install
                            
                            Durable plastic and a non-slip rubber coating for robust and reliable use
                            
                            For use with PURELL Advanced Hygienic Hand Sanitising Foam 535mL bottles.","null"
"1596546557-365","https://www.gojo.com/en-GB/Product-Catalog/PURELL-Brand#numberOfResults=60&f:Category=[Brackets%20%2F%20Holders%20%2F%20Containers]","Pump Bottle Holder","https://www.gojo.com/en-GB/Product/9500-12-EEU00","9500-12-EEU00","Pump Bottle Holder","500 mL pump bottle holder","Allows you to place product where it's needed.

                        
                            
                            Convenient & easy to install
                            
                            Durable clear plastic","null"
"1596546549-361","https://www.gojo.com/en-GB/Product-Catalog/PURELL-Brand#numberOfResults=60&f:Category=[Brackets%20%2F%20Holders%20%2F%20Containers]","Rail Mount for PURELL ES® Everywhere System","https://www.gojo.com/en-GB/Product/5830-08-BLK","5830-08-BLK","Rail Mount for PURELL ES® Everywhere System","Rail mount for PURELL ES® Everywhere System","Vertical surface mount bracket for the PURELL ES® Everywhere System.

                        
                            
                            Mounts system on vertical surfaces","null"
"1596546564-368","https://www.gojo.com/en-GB/Product-Catalog/PURELL-Brand#numberOfResults=60&f:Category=[Brackets%20%2F%20Holders%20%2F%20Containers]","Pump Bottle Holder","https://www.gojo.com/en-GB/Product/9300-12-EEU00","9300-12-EEU00","Pump Bottle Holder","300 mL pump bottle holder","Allows you to place product where it's needed.

                        
                            
                            Convenient & easy to install
                            
                            Durable clear plastic","null"
"1596546551-362","https://www.gojo.com/en-GB/Product-Catalog/PURELL-Brand#numberOfResults=60&f:Category=[Brackets%20%2F%20Holders%20%2F%20Containers]","Surface Mount for PURELL ES® Everywhere System","https://www.gojo.com/en-GB/Product/5840-08-WHT","5840-08-WHT","Surface Mount for PURELL ES® Everywhere System","Surface mount for PURELL ES® Everywhere System","Horizontal surface mount bracket for the PURELL ES® Everywhere System.

                        
                            
                            Mounts system on horizontal surfaces","null"
"1596546560-366","https://www.gojo.com/en-GB/Product-Catalog/PURELL-Brand#numberOfResults=60&f:Category=[Brackets%20%2F%20Holders%20%2F%20Containers]","Hook-on  Holder","https://www.gojo.com/en-GB/Product/9007-12","9007-12","Hook-on  Holder","Compact Bottle Bracket","Convenient, easy-to-install bracket.

                        
                            
                            Durable plastic and a non-slip rubber coating for robust and reliable use.
                            
                            For use with PURELL Advanced Hygienic Hand Rub 300 mL & 350 mL bottles","null"
