{
    "_id": "en_pramol",
    "startUrl": [
        "https://www.pramol.com/en/"
    ],
    "selectors": [
        {
            "id": "categories-links",
            "type": "SelectorLink",
            "parentSelectors": [
                "_root"
            ],
            "selector": "a[data-depth='0']",
            "multiple": true,
            "delay": 0
        },
        {
            "id": "pagination-products",
            "type": "SelectorLink",
            "parentSelectors": [
                "categories-links",
                "pagination-products"
            ],
            "selector": "li a.js-search-link",
            "multiple": true,
            "delay": 0
        },
        {
            "id": "product-link",
            "type": "SelectorLink",
            "parentSelectors": [
                "categories-links",
                "pagination-products"
            ],
            "selector": "a.thumbnail",
            "multiple": true,
            "delay": 0
        },
        {
            "id": "Nazwa produktu [EN]",
            "type": "SelectorText",
            "parentSelectors": [
                "product-link"
            ],
            "selector": "h1",
            "multiple": false,
            "regex": "",
            "delay": 0
        },
        {
            "id": "Krótki opis produktu [EN]",
            "type": "SelectorText",
            "parentSelectors": [
                "product-link"
            ],
            "selector": "div.product-information > div:first",
            "multiple": false,
            "regex": "",
            "delay": 0
        },
        {
            "id": "Rozszerzenie opisu produktu [EN]",
            "type": "SelectorText",
            "parentSelectors": [
                "product-link"
            ],
            "selector": "div.product-description",
            "multiple": false,
            "regex": "",
            "delay": 0
        }
    ]
}