{
    "_id": "purell-preparaty-do-powierzchni-en",
    "startUrl": [
        "https://www.gojo.com/en-GB/Search-Results#q=%22surface%20sanitising%22"
    ],
    "selectors": [
        {
            "id": "product-link",
            "type": "SelectorLink",
            "parentSelectors": [
                "_root"
            ],
            "selector": ".productTabName a",
            "multiple": true,
            "delay": 0
        },
        {
            "id": "Numer artykułu",
            "type": "SelectorText",
            "parentSelectors": [
                "product-link"
            ],
            "selector": ".product-info-container div.sku-detail:nth-of-type(1) span.value",
            "multiple": false,
            "regex": "",
            "delay": 0
        },
        {
            "id": "Nazwa produktu [EN]",
            "type": "SelectorText",
            "parentSelectors": [
                "product-link"
            ],
            "selector": ".right-column h2",
            "multiple": false,
            "regex": "",
            "delay": 0
        },
        {
            "id": "Krótki opis produktu [EN]",
            "type": "SelectorText",
            "parentSelectors": [
                "product-link"
            ],
            "selector": ".right-column h3",
            "multiple": false,
            "regex": "",
            "delay": 0
        },
        {
            "id": "Rozszerzenie opisu produktu [EN]",
            "type": "SelectorText",
            "parentSelectors": [
                "product-link"
            ],
            "selector": "div.product-info",
            "multiple": false,
            "regex": "",
            "delay": 0
        },
        {
            "id": "Karta charakterystyki EN [nazwa pliku z rozszerzeniem]",
            "type": "SelectorElementAttribute",
            "parentSelectors": [
                "product-link"
            ],
            "selector": ".sds a",
            "multiple": false,
            "extractAttribute": "href",
            "delay": 0
        }
    ]
}