﻿web-scraper-order,web-scraper-start-url,subcategory-link,subcategory-link-href,type-link,type-link-href,product-link,product-link-href,Nazwa produktu [PL],Krótki opis produktu [PL],Rozszerzenie opisu produktu [PL],Numer artykułu,Ilość opakowań pojedynczych w opakowaniu tranportowym [szt],Pojemność [L],Zdjęcie główne produktu-src,Karta charakterystyki PL [nazwa pliku z rozszerzeniem],Podkategoria produktu,Typ produktu
"1591618651-171","http://diverseysolutions.com/pl/Category/401","Pielęgnacja dłoni","http://diverseysolutions.com/pl/Category/402","Preparat do mycia rąk","http://diverseysolutions.com/pl/Category/403","Więcej informacji
                                                                                >","http://diverseysolutions.com/pl/Category/403/Product/5463","Soft Care Fresh","Soft Care Fresh jest lekko perfumowanym mydłem do rąk w postaci płynu, polecanym do stosowania wszędzie tam, gdzie należy często myć ręce oraz gdzie są wymagane wysokie standardy higieniczne, głównie w zakładach przemysłu spożywczego i żywienia zbiorowego (kuchnie w hotelach i restauracjach, sanatoriach itp.). Soft Care Fresh zawiera mieszaninę anionowych i amfoterycznych związków powierzchniowo czynnych, obojętnych soli, związków zapachowych, barwników oraz konserwantów. Skład został tak opracowany, aby uzyskać łagodne a jednocześnie skuteczne w działaniu mydło do częstego stosowania. Produkt został przebadany pod względem bezpieczeństwa stosowania oraz toksykologii i dopuszczony przez certyfikowane laboratorium.","Dokładnie myje skórę rąkPozostawia delikatny, świeży zapachPozwala na uzyskanie obfitej, trwałej piany, łatwej do spłukania","6960300","6x800ml","6x800ml","http://diverseysolutions.com/ProductImages/Thumb/6960300_SoftCare Fresh.JPG","http://msds.diversey.com/","Pielęgnacja dłoni","Preparat do mycia rąk"
"1591618637-166","http://diverseysolutions.com/pl/Category/401","Mycie ciała","http://diverseysolutions.com/pl/Category/404","Żel pod prysznic i szampon","http://diverseysolutions.com/pl/Category/405","Więcej informacji
                                                                                >","http://diverseysolutions.com/pl/Category/405/Product/5465","Soft Care Lux 2in1","Szampon do włosów i żel do mycia ciała. Preparat łagodny dla włosów, skóry głowy i ciała.","","6960900","6x800ml","6x800ml","http://diverseysolutions.com/ProductImages/Thumb/6960900_Lux_H62.jpg","http://msds.diversey.com/","Mycie ciała","Żel pod prysznic i szampon"
"1591618645-169","http://diverseysolutions.com/pl/Category/401","Pielęgnacja dłoni","http://diverseysolutions.com/pl/Category/402","Preparat do mycia dłoni - bakteriobójczy","http://diverseysolutions.com/pl/Category/408","Więcej informacji
                                                                                >","http://diverseysolutions.com/pl/Category/408/Product/5469","Soft Care Bac","Soft Care Bac jest łagodnym i zarazem skutecznym preparatem do mycia rąk o działaniu antybakteryjnym . Preparat nie zawiera związków zapachowych (nie powoduje przenoszenia zapachów na żywność), co sprawia, iż jest on polecany dla zakładów przemysłu spożywczego i gastronomii, wszędzie tam, gdzie niezbędne jest częste mycie rąk.","Jest łagodny dla skóry, zawiera substancje nawilżające, które zapewniają skórze właściwąNie zawiera związków zapachowych ani barwników – nie ma ryzyka skażenia żywności.Został przebadany dermatologicznie przez certyfikowane laboratoria.Triclosan zapewnia efekt przedłużonego działania, aktywności w stosunku do mikroorganizmów a także obniża ryzyko powtórnego zakażenia rąk.","6960800","6x800ml","6x800ml","http://diverseysolutions.com/ProductImages/Thumb/6960800 Soft Care Bac 800ml.jpg","http://msds.diversey.com/","Pielęgnacja dłoni","Preparat do mycia dłoni - bakteriobójczy"
"1591618649-170","http://diverseysolutions.com/pl/Category/401","Pielęgnacja dłoni","http://diverseysolutions.com/pl/Category/402","Preparat do mycia rąk","http://diverseysolutions.com/pl/Category/403","Więcej informacji
                                                                                >","http://diverseysolutions.com/pl/Category/403/Product/5464","Soft Care Dove","Soft Care Dove Cream Wash preparat do mycia rąk w postaci płynu, przeznaczony do stosowania wszędzie tam, gdzie są wymagane wysokiej jakości produkty. Polecany jest do mycia rąk m. in. w hotelach, restauracjach, obiektach użyteczności publicznej, centra fitness, SPA.","Łagodny dla skóry, przeznaczony do częstego stosowaniaPozwala na uzyskanie obfitej piany, łatwej do spłukaniaSkutecznie usuwa wszelkie zabrudzenia","6961200","6x800ml","6x800ml","http://diverseysolutions.com/ProductImages/Thumb/6961200_SoftCare Dove.JPG","http://msds.diversey.com/","Pielęgnacja dłoni","Preparat do mycia rąk"
"1591618637-167","http://diverseysolutions.com/pl/Category/401","Mycie ciała","http://diverseysolutions.com/pl/Category/404","Żel pod prysznic i szampon","http://diverseysolutions.com/pl/Category/405","Więcej informacji
                                                                                >","http://diverseysolutions.com/pl/Category/405/Product/5465","Soft Care Lux 2in1","Szampon do włosów i żel do mycia ciała. Preparat łagodny dla włosów, skóry głowy i ciała.","","6966700","28x300ml","28x300ml","http://diverseysolutions.com/ProductImages/Thumb/6960900_Lux_H62.jpg","http://msds.diversey.com/","Mycie ciała","Żel pod prysznic i szampon"
"1591618643-168","http://diverseysolutions.com/pl/Category/401","Pielęgnacja dłoni","http://diverseysolutions.com/pl/Category/402","Preparat do mycia dłoni - bakteriobójczy","http://diverseysolutions.com/pl/Category/408","Więcej informacji
                                                                                >","http://diverseysolutions.com/pl/Category/408/Product/5471","Soft Care Plus Pure","Soft Care Plus Pure jest łagodnym i zarazem skutecznym preparatem do mycia rąk, posiadającym doskonałe właściwości bakteriobójcze. Ten unikalny produkt łączy w sobie delikatność kosmetyków z wysoką efektywnością bakteriobójczą. Diglukonian chlorheksydyny, aktywny mikrobiologicznie składnik, zapewnia doskonałą bakteriobójczość, oraz przedłużone działanie, co gwarantuje bardzo wysoki poziom higieny oraz bezpieczeństwo mikrobiologiczne. Preparat nie zawiera związków zapachowych (nie powoduje przenoszenia zapachów na żywność) ani barwników, co sprawia, iż jest on polecany dla zakładów przemysłu spożywczego i gastronomii, gdzie niezbędne jest częste mycie rąk.","Preparat wykazuje bardzo dobre właściwości myjące, bakteriobójczeZawiera substancje nawilżające i odżywcze, które zapewniaja skórze właściwą ochronęZostał przebadany dermatologicznie przez certyfikowane laboratoriaNie zawiera związków zapachowych ani barwników","G12264","2x5L","2x5L","http://diverseysolutions.com/ProductImages/Noimages.jpeg","http://msds.diversey.com/","Pielęgnacja dłoni","Preparat do mycia dłoni - bakteriobójczy"
