{
    "_id": "gojo-oslona-pl",
    "startUrl": [
        "https://www.gojo.com/pl-PL/Product-Catalog/All-Products#numberOfResults=60&f:Kategoria=[Os%C5%82ona%20pod%C5%82ogi%20i%20%C5%9Bcian,Dispenser%20Sign%20Posiadaczy]"
    ],
    "selectors": [
        {
            "id": "product-link",
            "type": "SelectorLink",
            "parentSelectors": [
                "_root"
            ],
            "selector": ".productTabName a",
            "multiple": true,
            "delay": 0
        },
        {
            "id": "Numer artykułu",
            "type": "SelectorText",
            "parentSelectors": [
                "product-link"
            ],
            "selector": ".product-info-container div.sku-detail:nth-of-type(1) span.value",
            "multiple": false,
            "regex": "",
            "delay": 0
        },
        {
            "id": "Nazwa produktu [PL]",
            "type": "SelectorText",
            "parentSelectors": [
                "product-link"
            ],
            "selector": ".right-column h2",
            "multiple": false,
            "regex": "",
            "delay": 0
        },
        {
            "id": "Typ produktu",
            "type": "SelectorText",
            "parentSelectors": [
                "product-link"
            ],
            "selector": "div.detail-row:contains('Typ produktu') div.value",
            "multiple": false,
            "regex": "",
            "delay": 0
        },
        {
            "id": "Kompatybilny system",
            "type": "SelectorText",
            "parentSelectors": [
                "product-link"
            ],
            "selector": "div.detail-row:contains('System dozownika') div.value",
            "multiple": false,
            "regex": "",
            "delay": 0
        },
        {
            "id": "Kompatybilne komponenty",
            "type": "SelectorGroup",
            "parentSelectors": [
                "product-link"
            ],
            "selector": ".product a:nth-of-type(1)",
            "delay": 0,
            "extractAttribute": ""
        },
        {
            "id": "Krótki opis produktu [PL]",
            "type": "SelectorText",
            "parentSelectors": [
                "product-link"
            ],
            "selector": ".right-column h3",
            "multiple": false,
            "regex": "",
            "delay": 0
        },
        {
            "id": "Rozszerzenie opisu produktu [PL]",
            "type": "SelectorText",
            "parentSelectors": [
                "product-link"
            ],
            "selector": "div.product-info",
            "multiple": false,
            "regex": "",
            "delay": 0
        },
        {
            "id": "Zdjęcie główne produktu",
            "type": "SelectorImage",
            "parentSelectors": [
                "product-link"
            ],
            "selector": ".left-column > img",
            "multiple": false,
            "delay": 0
        },
        {
            "id": "Pojemność [L]",
            "type": "SelectorText",
            "parentSelectors": [
                "product-link"
            ],
            "selector": "div.detail-row:contains('Rozmiar') div.value",
            "multiple": false,
            "regex": "",
            "delay": 0
        },
        {
            "id": "Ilość opakowań pojedynczych w opakowaniu tranportowym [szt]",
            "type": "SelectorText",
            "parentSelectors": [
                "product-link"
            ],
            "selector": "div.detail-row:contains('Ilość  w opakowaniu') div.value",
            "multiple": false,
            "regex": "",
            "delay": 0
        },
        {
            "id": "Karta charakterystyki PL [nazwa pliku z rozszerzeniem]",
            "type": "SelectorElementAttribute",
            "parentSelectors": [
                "product-link"
            ],
            "selector": ".product-info-container a",
            "multiple": false,
            "extractAttribute": "href",
            "delay": 0
        }
    ]
}
