{
    "_id": "barlon-preparaty-do-wc",
    "startUrl": [
        "http://barlon.pl/?preparaty-do-wc,84"
    ],
    "selectors": [
        {
            "id": "Nazwa produktu [PL]",
            "type": "SelectorLink",
            "parentSelectors": [
                "_root"
            ],
            "selector": "h2 a",
            "multiple": true,
            "delay": 0
        },
        {
            "id": "Rozszerzenie opisu produktu [PL]",
            "type": "SelectorText",
            "parentSelectors": [
                "Nazwa produktu [PL]"
            ],
            "selector": "div#pageDescription",
            "multiple": false,
            "regex": "",
            "delay": 0
        },
        {
            "id": "Zdjęcie główne produktu",
            "type": "SelectorElementAttribute",
            "parentSelectors": [
                "Nazwa produktu [PL]"
            ],
            "selector": ".mlbox\\[pages\\] img",
            "multiple": false,
            "extractAttribute": "src",
            "delay": 0
        },
        {
            "id": "Pojemność [L]",
            "type": "SelectorText",
            "parentSelectors": [
                "Nazwa produktu [PL]"
            ],
            "selector": "div#pageDescription",
            "multiple": false,
            "regex": "",
            "delay": 0
        }
    ]
}