﻿web-scraper-order,web-scraper-start-url,product-link,product-link-href,Numer artykułu,Nazwa produktu [DE],EAN produktu,Krótki opis produktu [DE],Rozszerzenie opisu produktu [DE],Waga brutto [kg],EAN opakowania transportowego,Spełnione normy,Karta produktu DE [nazwa pliku z rozszerzeniem],Długość produktu,Szerokość produktu,Wysokość produktu,Długość opakowania transportowego,Szerokość opakowania transportowego,Wysokość opakowania transportowego
"1598262074-52","https://www.purell.eu/de/kategorien?cat=47&manufacturer=170&product_format=104&product_list_limit=100","GOJO® Luxury Schaumlotion für Haar, Körper und Hände (ADX-12™/1200ml)","https://www.purell.eu/de/gojo-luxury-schaumlotion-adx-1200ml","8813-03-EEU","GOJO® Luxury Schaumlotion für Haar, Körper und Hände (ADX-12™/1200ml)","0073852075861","Spa-Qualität-Schaumlotion für Haar, Körper und Hände mit Gurkenduftnote. Optimal für den Einsatz im Freizeitbereich. Angereichert mit Feuchtigkeitsstoffen, natürlichen Extrakten und hautpflegenden Stoffen.","SMART-FLEX™ Flaschengestaltung verwendet 30 % weniger Material als HDPE 
CONTROLLED COLLAPSE™ Technologie hält die Flaschenform beim Entleeren länger aufrecht 
Abnehmbare Pumpe für ein einfacheres Recycling
GOJO® SANITARY SEALED™ Nachfüllpackung trägt zur Vermeidung von Verunreinigung bei","1,35","10073852075868","null","https://www.purell.eu/de/prolinedownloadcenter/download/index/item/3a33e227e166e0139c1fff701ce8804f3372b25620c050594be71e722457d10a/","26,04 x 10,16 x 8,89","26,04 x 10,16 x 8,89","26,04 x 10,16 x 8,89","26,80 x 10,50 x 28,30","26,80 x 10,50 x 28,30","26,80 x 10,50 x 28,30"
"1598262039-38","https://www.purell.eu/de/kategorien?cat=47&manufacturer=170&product_format=104&product_list_limit=100","GOJO® Antimicrobial Plus Handwaschschaum (ADX-7™/700ml)","https://www.purell.eu/de/gojo-antimicrobial-plus-handwaschschaum-adx-700ml","8748-04-EEU","GOJO® Antimicrobial Plus Handwaschschaum (ADX-7™/700ml)","0738520282469","Die Quat-freie GOJO antimikrobielle Schaumseife zur Handwäsche sorgt mit ihrer hochwirksamen Formel für sanfte Haut.","Geeignet für den Umgang mit Lebensmitteln in Bereichen wie Restaurants, an der Front und im Hintergrund, Küchen, Lebensmittelverarbeitung und Gebäude-Management 
Geeignet für empfindliche Haut1 und für häufiges Händewaschen formuliert 
Angereichert mit feuchtigkeitsspendenden pflanzlichen Wirkstoffen
Breitspektrumwirkung2 (Bakterien, Pilze & Viren)
Besteht EN 1499 in 30 Sekunden
Sensorik-Prüfung gemäß: BS EN ISO 4120:2007
Gezielter Einsatz gegen lebensmittelspezifische Pathogene wie Salmonellen, Listerien und E.Coli-Bakterien
SMART-FLEX™ Flaschengestaltung verwendet 30 % weniger Material als HDPE 
CONTROLLED COLLAPSE™ Technologie hält die Flaschenform beim Entleeren länger aufrecht 
Abnehmbare Pumpe für ein einfacheres Recycling
SANITARY SEALED™ Nachfüllpackung trägt zur Vermeidung von Verunreinigung bei","0,81","null","Bakterien (30s) : EN 1276, EN 13727+ A2*(hygienische Handwaschbedingungen), wirksam gegen Salmonella enterica und Listeria monocytogenes, EN 1499 (1.1 ml) 

Pilze (30s) : EN 1650, EN 13627  (hygienische Handwaschbedingungen) 

Viren (30s) : EN 14476+ A1*, aktiv gegen Herps Simplex Type 1 (HSV-1), H1N1, PRV (Modellvirus für Hepatitis B), aktiv gegen Vacciciavirus

Breitspektrumwirkung gegen umhüllte Viren wie Coranvirus, HIV, Influenzavirus, Hepatitis B und C sowie Herpesviren in Übereinstimmung mit der Methode gemäß EN 14476","https://www.purell.eu/de/prolinedownloadcenter/download/index/item/4fd0df2686141ed8650faf3a513890dfe4d44539803d2d222f2cf56224594fa7/","22,23 x 8,89 x 7,62","22,23 x 8,89 x 7,62","22,23 x 8,89 x 7,62","24,29 x 17,94 x 18,58","24,29 x 17,94 x 18,58","24,29 x 17,94 x 18,58"
"1598262091-59","https://www.purell.eu/de/kategorien?cat=47&manufacturer=170&product_format=104&product_list_limit=100","GOJO® Freshberry Schaumseife für die Hände (TFX™/1200ml)","https://www.purell.eu/de/gojo-freshberry-schaumseife-tfx-1200ml","5361-02-EEU","GOJO® Freshberry Schaumseife für die Hände (TFX™/1200ml)","0073852076295","Wellness-inspirierte Schaumseife zur Handwäsche. Vereint üppigen Schaum und einen angenehmen pflanzlichen Duft mit einer kräftigen türkisblauen Farbe und macht das Händewaschen zu einem Erlebnis. Angereichert mit Feuchtigkeitsstoffen, natürlichen Extrakten und hautpflegenden Stoffen. Die Handseife ist angenehm in der Anwendung. Handhygiene für eine gesunde Umwelt.","Sparsam im Verbrauch: Reicht für 2000 Handwäschen. Eine Handwäsche kostet weniger als 1 Cent!
Ecolabel zertifiziert
Nachfüllpackung mit GOJO SMART-FLEX™ Technologie hergestellt","1,3","null","null","https://www.purell.eu/de/prolinedownloadcenter/download/index/item/801320e0803d593b03169ae6f9e3b6275c572bd8e3ac6735e5ecf24aeb26ebbe/","21,59 x 13,50 x 8,57","21,59 x 13,50 x 8,57","21,59 x 13,50 x 8,57","22,5 x 13,5 x 18,2","22,5 x 13,5 x 18,2","22,5 x 13,5 x 18,2"
"1598262054-44","https://www.purell.eu/de/kategorien?cat=47&manufacturer=170&product_format=104&product_list_limit=100","GOJO® Natural Scrub Handreiniger (GOJO® PRO™ TDX™/5L)","https://www.purell.eu/de/gojo-natural-scrub-handreiniger-industrie-pro-tdx-5l","7635-02-EEU","GOJO® Natural Scrub Handreiniger (GOJO® PRO™ TDX™/5L)","073852083040","GOJO® Natural Scrub Handreiniger (GOJO® PRO™ TDX™/5L)","null","5,44","null","null","https://www.purell.eu/de/prolinedownloadcenter/download/index/item/9a328149f158f8913a7ddd56dc95dc8e508db17677cb1b6cfb6852dd02d7c6fd/","null","null","null","32,56 x 27,48 x 18,14","32,56 x 27,48 x 18,14","32,56 x 27,48 x 18,14"
"1598262084-56","https://www.purell.eu/de/kategorien?cat=47&manufacturer=170&product_format=104&product_list_limit=100","GOJO® Milde Schaumseife für die Hände (ADX-7™/700ml)","https://www.purell.eu/de/gojo-milde-schaumseife-adx-700ml","8711-04-EEU","GOJO® Milde Schaumseife für die Hände (ADX-7™/700ml)","0073852075854","GOJO® Extra Milde Schaumseife Nachfüllung 700 ml für GOJO ADX-7 manueller Seifenspender. GOJO Extra Milde Schaumseife ist extrem sanft zur Haut ist und enthält keine Duft- oder Farbstoffe. Sie ist mild genug für sehr häufiges Händewaschen. Ecolabelzertifiziert. Mit GOJO SMART-FLEX-Technologie hergestellte Nachfüllpacks. GOJO SANITARY SEALED Nachfüllpacks – rasten einfach und schnell ein. Sie schützen Benutzer vor den Risiken der Kontamination aus Seifenkanistern. Controlled collapse Nachfüllungen – die zum Patent angemeldeten Nachfüllpacks behalten beim Entleeren Ihre Form.","Besonders mild zur Haut
Sparsam im Verbrauch: Reicht für 780 Anwendungen
Ohne Farb- und Duftstoffe
Besonders geeignet bei besonders häufigem Händewaschen
Ecolabel-zertifiziert","0,77","null","null","https://www.purell.eu/de/prolinedownloadcenter/download/index/item/a938d3e8563942d2bf745821632673fe3689dd4e38979d77b48bc191c645271b/","22,23 x 8,89 x 7,62","22,23 x 8,89 x 7,62","22,23 x 8,89 x 7,62","23,00 x 17,70 x 18,20","23,00 x 17,70 x 18,20","23,00 x 17,70 x 18,20"
"1598262057-45","https://www.purell.eu/de/kategorien?cat=47&manufacturer=170&product_format=104&product_list_limit=100","GOJO® Natural Scrub Handreiniger (GOJO® PRO™ TDX™/2L)","https://www.purell.eu/de/gojo-natural-scrub-handreiniger-industrie-pro-tdx-2l","7335-04-EEU","GOJO® Natural Scrub Handreiniger (GOJO® PRO™ TDX™/2L)","073852083026","Industrielle Umgebungen schaffen einzigartige Verschmutzungen, die schwierig von der Haut zu entfernen sind, ohne Sie zu beschädigen.","null","2,3","null","null","https://www.purell.eu/de/prolinedownloadcenter/download/index/item/9a328149f158f8913a7ddd56dc95dc8e508db17677cb1b6cfb6852dd02d7c6fd/","null","null","null","27,15 x 20,02 x 23.97","27,15 x 20,02 x 23.97","27,15 x 20,02 x 23.97"
"1598262072-51","https://www.purell.eu/de/kategorien?cat=47&manufacturer=170&product_format=104&product_list_limit=100","GOJO® Freshberry Schaumseife für die Hände (ADX-12™/1250ml)","https://www.purell.eu/de/gojo-freshberry-schaumseife-adx-1200ml","8816-03-EEU","GOJO® Freshberry Schaumseife für die Hände (ADX-12™/1250ml)","0073852076271","Wellness-inspirierte Schaumseife zur Handwäsche. Vereint üppigen Schaum und einen angenehmen pflanzlichen Duft mit einer kräftigen türkisblauen Farbe und macht das Händewaschen zu einem Erlebnis. Angereichert mit Feuchtigkeitsstoffen, natürlichen Extrakten und hautpflegenden Stoffen. Die Handseife ist angenehm in der Anwendung. Handhygiene für eine gesunde Umwelt.","Sparsam im Verbrauch: Reicht für 1350 Handwäschen
Ecolabel zertifiziert
Nachfüllpackung mit GOJO SMART-FLEX™ Technologie hergestellt","1,35","10073852076278","null","https://www.purell.eu/de/prolinedownloadcenter/download/index/item/801320e0803d593b03169ae6f9e3b6275c572bd8e3ac6735e5ecf24aeb26ebbe/","26,04 x 10,16 x 8,89","26,04 x 10,16 x 8,89","26,04 x 10,16 x 8,89","26,80 x 10,50 x 28,30","26,80 x 10,50 x 28,30","26,80 x 10,50 x 28,30"
"1598262049-42","https://www.purell.eu/de/kategorien?cat=47&manufacturer=170&product_format=104&product_list_limit=100","GOJO® Antimicrobial Plus Handwaschschaum  (LTX-7™/700ml)","https://www.purell.eu/de/gojo-antimicrobial-plus-handwaschschaum-ltx-700ml","1348-03-EEU","GOJO® Antimicrobial Plus Handwaschschaum  (LTX-7™/700ml)","0738520282414","Die Quat-freie GOJO antimikrobielle Schaumseife zur Handwäsche sorgt mit ihrer hochwirksamen Formel für sanfte Haut.","Geeignet für den Umgang mit Lebensmitteln in Bereichen wie Restaurants, an der Front und im Hintergrund, Küchen, Lebensmittelverarbeitung und Gebäude-Management 
Geeignet für empfindliche Haut1 und für häufiges Händewaschen formuliert 
Angereichert mit feuchtigkeitsspendenden pflanzlichen Wirkstoffen
Breitspektrumwirkung2 (Bakterien, Pilze & Viren)
Besteht EN 1499 in 30 Sekunden
Sensorik-Prüfung gemäß: BS EN ISO 4120:2007
Gezielter Einsatz gegen lebensmittelspezifische Pathogene wie Salmonellen, Listerien und E.Coli-Bakterien
SMART-FLEX™ Flaschengestaltung verwendet 30 % weniger Material als HDPE 
CONTROLLED COLLAPSE™ Technologie hält die Flaschenform beim Entleeren länger aufrecht 
Abnehmbare Pumpe für ein einfacheres Recycling
SANITARY SEALED™ Nachfüllpackung trägt zur Vermeidung von Verunreinigung bei","0,82","null","Bakterien (30s) : EN 1276, EN 13727+ A2*(hygienische Handwaschbedingungen), wirksam gegen Salmonella enterica und Listeria monocytogenes, EN 1499 (1.1 ml) 

Pilze (30s) : EN 1650, EN 13627  (hygienische Handwaschbedingungen) 

Viren (30s) : EN 14476+ A1*, aktiv gegen Herps Simplex Type 1 (HSV-1), H1N1, PRV (Modellvirus für Hepatitis B), aktiv gegen Vacciciavirus

Breitspektrumwirkung gegen umhüllte Viren wie Coranvirus, HIV, Influenzavirus, Hepatitis B und C sowie Herpesviren in Übereinstimmung mit der Methode gemäß EN 14476","https://www.purell.eu/de/prolinedownloadcenter/download/index/item/4fd0df2686141ed8650faf3a513890dfe4d44539803d2d222f2cf56224594fa7/","17,13 x 90,80 x 12,87","17,13 x 90,80 x 12,87","17,13 x 90,80 x 12,87","27,90 x 13,20 x 18,50","27,90 x 13,20 x 18,50","27,90 x 13,20 x 18,50"
"1598262067-49","https://www.purell.eu/de/kategorien?cat=47&manufacturer=170&product_format=104&product_list_limit=100","GOJO® Freshberry Schaumseife für die Hände (FMX™/1250ml)","https://www.purell.eu/de/gojo-freshberry-schaumseife-fmx-1250ml","5161-03-EEU","GOJO® Freshberry Schaumseife für die Hände (FMX™/1250ml)","0073852076288","Wellness-inspirierte Schaumseife zur Handwäsche. Vereint üppigen Schaum und einen angenehmen pflanzlichen Duft mit einer kräftigen türkisblauen Farbe und macht das Händewaschen zu einem Erlebnis. Angereichert mit Feuchtigkeitsstoffen, natürlichen Extrakten und hautpflegenden Stoffen. Die Handseife ist angenehm in der Anwendung. Handhygiene für eine gesunde Umwelt.","Sparsam im Verbrauch: Reicht für 1785 Handwäschen. Eine Handwäsche kostet weniger als 1 Cent.
Ecolabel zertifiziert
Nachfüllpackung mit GOJO SMART-FLEX™ Technologie hergestellt","1,35","null","null","https://www.purell.eu/de/prolinedownloadcenter/download/index/item/801320e0803d593b03169ae6f9e3b6275c572bd8e3ac6735e5ecf24aeb26ebbe/","21,43 x 12,54 x 9,69","21,43 x 12,54 x 9,69","21,43 x 12,54 x 9,69","22,50 x 13,00 x 29,30","22,50 x 13,00 x 29,30","22,50 x 13,00 x 29,30"
"1598262059-46","https://www.purell.eu/de/kategorien?cat=47&manufacturer=170&product_format=104&product_list_limit=100","GOJO® Milde Schaumseife für die Hände (TFX™/1200ml)","https://www.purell.eu/de/gojo-milde-schaumseife-tfx-1200ml","5665-02-EEU","GOJO® Milde Schaumseife für die Hände (TFX™/1200ml)","0073852075922","GOJO® Extra Milde Schaumseife für die Hände Nachfüllung (1200 ml) für GOJO TFX automatischen Schaumseifenspender. GOJO Extra Milde Schaumseife ist extrem sanft zur Haut ist und enthält keine Duft- oder Farbstoffe. Sie ist mild genug für sehr häufiges Händewaschen. Ecolabel zertifiziert. Mit GOJO SMART-FLEX-Technologie hergestellte Nachfüllpacks. GOJO SANITARY SEALED Nachfüllpacks – rasten einfach und schnell ein. Sie schützen Benutzer vor den Risiken der Kontamination aus Seifenkanistern. Controlled collapse Nachfüllungen – die zum Patent angemeldeten Nachfüllpacks behalten beim Entleeren Ihre Form.","Besonders mild zur Haut
Sparsam im Verbrauch: Reicht für 2000 Anwendungen. Eine Handwäsche kostet unter 1 Cent.
Ohne Farb- und Duftstoffe
Besonders geeignet bei besonders häufigem Händewaschen
Ecolabel-zertifiziert","1,3","10073852075929","null","https://www.purell.eu/de/prolinedownloadcenter/download/index/item/a938d3e8563942d2bf745821632673fe3689dd4e38979d77b48bc191c645271b/","21,59 x 13,50 x 8,57","21,59 x 13,50 x 8,57","21,59 x 13,50 x 8,57","22,10 x 13,50 x 18,10","22,10 x 13,50 x 18,10","22,10 x 13,50 x 18,10"
"1598262047-41","https://www.purell.eu/de/kategorien?cat=47&manufacturer=170&product_format=104&product_list_limit=100","GOJO® Antimicrobial Plus Handwaschschaum (LTX-12™/1200ml)","https://www.purell.eu/de/gojo-antimicrobial-plus-handwaschschaum-ltx-1200ml","1948-02-EEU","GOJO® Antimicrobial Plus Handwaschschaum (LTX-12™/1200ml)","0738520282421","Die Quat-freie GOJO antimikrobielle Schaumseife zur Handwäsche sorgt mit ihrer hochwirksamen Formel für sanfte Haut.","Geeignet für den Umgang mit Lebensmitteln in Bereichen wie Restaurants, an der Front und im Hintergrund, Küchen, Lebensmittelverarbeitung und Gebäude-Management 
Geeignet für empfindliche Haut1 und für häufiges Händewaschen formuliert 
Angereichert mit feuchtigkeitsspendenden pflanzlichen Wirkstoffen
Breitspektrumwirkung2 (Bakterien, Pilze & Viren)
Besteht EN 1499 in 30 Sekunden
Sensorik-Prüfung gemäß: BS EN ISO 4120:2007
Gezielter Einsatz gegen lebensmittelspezifische Pathogene wie Salmonellen, Listerien und E.Coli-Bakterien
SMART-FLEX™ Flaschengestaltung verwendet 30 % weniger Material als HDPE 
CONTROLLED COLLAPSE™ Technologie hält die Flaschenform beim Entleeren länger aufrecht 
Abnehmbare Pumpe für ein einfacheres Recycling
SANITARY SEALED™ Nachfüllpackung trägt zur Vermeidung von Verunreinigung bei","1.42","null","Bakterien (30s) : EN 1276, EN 13727+ A2*(hygienische Handwaschbedingungen), wirksam gegen Salmonella enterica und Listeria monocytogenes, EN 1499 (1.1 ml) 

Pilze (30s) : EN 1650, EN 13627  (hygienische Handwaschbedingungen) 

Viren (30s) : EN 14476+ A1*, aktiv gegen Herps Simplex Type 1 (HSV-1), H1N1, PRV (Modellvirus für Hepatitis B), aktiv gegen Vacciciavirus

Breitspektrumwirkung gegen umhüllte Viren wie Coranvirus, HIV, Influenzavirus, Hepatitis B und C sowie Herpesviren in Übereinstimmung mit der Methode gemäß EN 14476","https://www.purell.eu/de/prolinedownloadcenter/download/index/item/4fd0df2686141ed8650faf3a513890dfe4d44539803d2d222f2cf56224594fa7/","22,73 x 9,37 x 12,98","22,73 x 9,37 x 12,98","22,73 x 9,37 x 12,98","24,77 x 13,97 x 19,69","24,77 x 13,97 x 19,69","24,77 x 13,97 x 19,69"
"1598262042-39","https://www.purell.eu/de/kategorien?cat=47&manufacturer=170&product_format=104&product_list_limit=100","GOJO® Antimicrobial Plus Handwaschschaum (TFX™/1200ml)","https://www.purell.eu/de/gojo-antimicrobial-plus-handwaschschaum-tfx-1200ml","5348-02-EEU","GOJO® Antimicrobial Plus Handwaschschaum (TFX™/1200ml)","0738520282445","Die Quat-freie GOJO antimikrobielle Schaumseife zur Handwäsche sorgt mit ihrer hochwirksamen Formel für sanfte Haut.","Geeignet für den Umgang mit Lebensmitteln in Bereichen wie Restaurants, an der Front und im Hintergrund, Küchen, Lebensmittelverarbeitung und Gebäude-Management 
Geeignet für empfindliche Haut1 und für häufiges Händewaschen formuliert 
Angereichert mit feuchtigkeitsspendenden pflanzlichen Wirkstoffen
Breitspektrumwirkung2 (Bakterien, Pilze & Viren)
Besteht EN 1499 in 30 Sekunden
Sensorik-Prüfung gemäß: BS EN ISO 4120:2007
Gezielter Einsatz gegen lebensmittelspezifische Pathogene wie Salmonellen, Listerien und E.Coli-Bakterien
SMART-FLEX™ Flaschengestaltung verwendet 30 % weniger Material als HDPE 
CONTROLLED COLLAPSE™ Technologie hält die Flaschenform beim Entleeren länger aufrecht 
Abnehmbare Pumpe für ein einfacheres Recycling
SANITARY SEALED™ Nachfüllpackung trägt zur Vermeidung von Verunreinigung bei","1,36","null","Bakterien (30s) : EN 1276, EN 13727+ A2*(hygienische Handwaschbedingungen), wirksam gegen Salmonella enterica und Listeria monocytogenes, EN 1499 (1.1 ml) 

Pilze (30s) : EN 1650, EN 13627  (hygienische Handwaschbedingungen) 

Viren (30s) : EN 14476+ A1*, aktiv gegen Herps Simplex Type 1 (HSV-1), H1N1, PRV (Modellvirus für Hepatitis B), aktiv gegen Vacciciavirus

Breitspektrumwirkung gegen umhüllte Viren wie Coranvirus, HIV, Influenzavirus, Hepatitis B und C sowie Herpesviren in Übereinstimmung mit der Methode gemäß EN 14476","https://www.purell.eu/de/prolinedownloadcenter/download/index/item/4fd0df2686141ed8650faf3a513890dfe4d44539803d2d222f2cf56224594fa7/","21,59 x 13,50 x 8,57","21,59 x 13,50 x 8,57","21,59 x 13,50 x 8,57","22,39 x 14,61 x 18,10","22,39 x 14,61 x 18,10","22,39 x 14,61 x 18,10"
"1598262062-47","https://www.purell.eu/de/kategorien?cat=47&manufacturer=170&product_format=104&product_list_limit=100","GOJO® Milde Schaumseife für die Hände (FMX™/1250ml)","https://www.purell.eu/de/gojo-milde-schaumseife-fmx-1250ml","5167-03-EEU","GOJO® Milde Schaumseife für die Hände (FMX™/1250ml)","0073852075885","GOJO® Extra Milde Schaumseife Nachfüllung 700 ml für GOJO ADX-7 manueller Seifenspender. GOJO Extra Milde Schaumseife ist extrem sanft zur Haut ist und enthält keine Duft- oder Farbstoffe. Sie ist mild genug für sehr häufiges Händewaschen. Ecolabelzertifiziert. Mit GOJO SMART-FLEX-Technologie hergestellte Nachfüllpacks. GOJO SANITARY SEALED Nachfüllpacks – rasten einfach und schnell ein. Sie schützen Benutzer vor den Risiken der Kontamination aus Seifenkanistern. Controlled collapse Nachfüllungen – die zum Patent angemeldeten Nachfüllpacks behalten beim Entleeren Ihre Form.","Besonders mild zur Haut
Sparsam im Verbrauch: Reicht für 1785 Anwendungen
Ohne Farb- und Duftstoffe
Besonders geeignet bei besonders häufigem Händewaschen
Ecolabel-zertifiziert","1,33","null","null","https://www.purell.eu/de/prolinedownloadcenter/download/index/item/a938d3e8563942d2bf745821632673fe3689dd4e38979d77b48bc191c645271b/","21,43 x 12,54 x 9,69","21,43 x 12,54 x 9,69","21,43 x 12,54 x 9,69","22,50 x 13,00 x 29,30","22,50 x 13,00 x 29,30","22,50 x 13,00 x 29,30"
"1598262082-55","https://www.purell.eu/de/kategorien?cat=47&manufacturer=170&product_format=104&product_list_limit=100","GOJO® Luxury Schaumlotion für Haar, Körper und Hände (AXD-7™/700ml)","https://www.purell.eu/de/gojo-luxury-schaumlotion-adx-700ml","8713-04-EEU","GOJO® Luxury Schaumlotion für Haar, Körper und Hände (AXD-7™/700ml)","null","Spa-Qualität-Schaumlotion für Haar, Körper und Hände mit Gurkenduftnote. Optimal für den Einsatz im Freizeitbereich. Angereichert mit Feuchtigkeitsstoffen, natürlichen Extrakten und hautpflegenden Stoffen.","SMART-FLEX™ Flaschengestaltung verwendet 30 % weniger Material als HDPE 
CONTROLLED COLLAPSE™ Technologie hält die Flaschenform beim Entleeren länger aufrecht 
Abnehmbare Pumpe für ein einfacheres Recycling
GOJO® SANITARY SEALED™ Nachfüllpackung trägt zur Vermeidung von Verunreinigung bei","0,30","null","null","https://www.purell.eu/de/prolinedownloadcenter/download/index/item/3a33e227e166e0139c1fff701ce8804f3372b25620c050594be71e722457d10a/","22,23 x 8,89 x 7,62","22,23 x 8,89 x 7,62","22,23 x 8,89 x 7,62","23,00 x 17,70 x 18,20","23,00 x 17,70 x 18,20","23,00 x 17,70 x 18,20"
"1598262086-57","https://www.purell.eu/de/kategorien?cat=47&manufacturer=170&product_format=104&product_list_limit=100","GOJO® Freshberry Schaumseife für die Hände  (LTX-7™/700ml)","https://www.purell.eu/de/gojo-freshberry-schaumseife-ltx-700ml","1316-03-EEU","GOJO® Freshberry Schaumseife für die Hände  (LTX-7™/700ml)","0073852076240","Wellness-inspirierte Schaumseife zur Handwäsche. Vereint üppigen Schaum und einen angenehmen pflanzlichen Duft mit einer kräftigen türkisblauen Farbe und macht das Händewaschen zu einem Erlebnis. Angereichert mit Feuchtigkeitsstoffen, natürlichen Extrakten und hautpflegenden Stoffen. Die Handseife ist angenehm in der Anwendung. Handhygiene für eine gesunde Umwelt.","Sparsam im Verbrauch: Reicht für 780 Handwäschen
Ecolabel zertifiziert
Nachfüllpackung mit GOJO SMART-FLEX™ Technologie hergestellt","0,82","null","null","https://www.purell.eu/de/prolinedownloadcenter/download/index/item/801320e0803d593b03169ae6f9e3b6275c572bd8e3ac6735e5ecf24aeb26ebbe/","17,22 x 9,09 x 12,88","17,22 x 9,09 x 12,88","17,22 x 9,09 x 12,88","18,50 x 12,60 x 27,90","18,50 x 12,60 x 27,90","18,50 x 12,60 x 27,90"
"1598262070-50","https://www.purell.eu/de/kategorien?cat=47&manufacturer=170&product_format=104&product_list_limit=100","GOJO® Freshberry Schaumseife für die Hände (LTX-12™/1200ml)","https://www.purell.eu/de/gojo-freshberry-schaumseife-ltx-1200ml","1916-02-EEU","GOJO® Freshberry Schaumseife für die Hände (LTX-12™/1200ml)","0073852076257","Wellness-inspirierte Schaumseife zur Handwäsche. Vereint üppigen Schaum und einen angenehmen pflanzlichen Duft mit einer kräftigen türkisblauen Farbe und macht das Händewaschen zu einem Erlebnis. Angereichert mit Feuchtigkeitsstoffen, natürlichen Extrakten und hautpflegenden Stoffen. Die Handseife ist angenehm in der Anwendung. Handhygiene für eine gesunde Umwelt.","Sparsam im Verbrauch: Reicht für 1350 Handwäschen
Ecolabel zertifiziert
Nachfüllpackung mit GOJO SMART-FLEX™ Technologie hergestellt","1,3","10073852076254","null","https://www.purell.eu/de/prolinedownloadcenter/download/index/item/801320e0803d593b03169ae6f9e3b6275c572bd8e3ac6735e5ecf24aeb26ebbe/","22,73 x 9,37 x 12,98","22,73 x 9,37 x 12,98","22,73 x 9,37 x 12,98","24,00 x 12,90 x 19,50","24,00 x 12,90 x 19,50","24,00 x 12,90 x 19,50"
"1598262088-58","https://www.purell.eu/de/kategorien?cat=47&manufacturer=170&product_format=104&product_list_limit=100","GOJO® Milde Schaumseife für die Hände (LTX-7™/700ml)","https://www.purell.eu/de/gojo-milde-schaumseife-ltx-700ml","1311-03-EEU","GOJO® Milde Schaumseife für die Hände (LTX-7™/700ml)","0073852075892","GOJO® Milde Schaumseife für die Hände Nachfüllung 700 ml für GOJO LTX-7 berührungsloser Schaumseifenspender. GOJO Milde Schaumseife ist extrem sanft zur Haut ist und enthält keine Duft- oder Farbstoffe. Sie ist mild genug für sehr häufiges Händewaschen. Ecolabelzertifiziert. Mit GOJO SMART-FLEX-Technologie hergestellte Nachfüllpacks. GOJO SANITARY SEALED Nachfüllpacks – rasten einfach und schnell ein. Sie schützen Benutzer vor den Risiken der Kontamination aus Seifenkanistern. Controlled collapse Nachfüllungen – die zum Patent angemeldeten Nachfüllpacks behalten beim Entleeren Ihre Form.","Besonders mild zur Haut
Sparsam im Verbrauch: Reicht für 780 Anwendungen
Ohne Farb- und Duftstoffe
Besonders geeignet bei besonders häufigem Händewaschen
Ecolabel-zertifiziert","0.77","null","null","https://www.purell.eu/de/prolinedownloadcenter/download/index/item/a938d3e8563942d2bf745821632673fe3689dd4e38979d77b48bc191c645271b/","17,22 x 9,09 x 12,88","17,22 x 9,09 x 12,88","17,22 x 9,09 x 12,88","18,50 x 12,60 x 27,90","18,50 x 12,60 x 27,90","18,50 x 12,60 x 27,90"
"1598262064-48","https://www.purell.eu/de/kategorien?cat=47&manufacturer=170&product_format=104&product_list_limit=100","GOJO® Luxury Schaumlotion für Haar, Körper und Hände (FMX™/1250ml)","https://www.purell.eu/de/gojo-luxury-schaumlotion-fmx-1250ml","5163-03-EEU","GOJO® Luxury Schaumlotion für Haar, Körper und Hände (FMX™/1250ml)","0073852076288","Spa-Qualität-Schaumlotion für Haar, Körper und Hände mit Gurkenduftnote. Optimal für den Einsatz im Freizeitbereich. Angereichert mit Feuchtigkeitsstoffen, natürlichen Extrakten und hautpflegenden Stoffen.","SMART-FLEX™ Flaschengestaltung verwendet 30 % weniger Material als HDPE 
CONTROLLED COLLAPSE™ Technologie hält die Flaschenform beim Entleeren länger aufrecht 
Abnehmbare Pumpe für ein einfacheres Recycling
GOJO® SANITARY SEALED™ Nachfüllpackung trägt zur Vermeidung von Verunreinigung bei","1,3","null","null","https://www.purell.eu/de/prolinedownloadcenter/download/index/item/3a33e227e166e0139c1fff701ce8804f3372b25620c050594be71e722457d10a/","21,59 x 113,50 x 8,57","21,59 x 113,50 x 8,57","21,59 x 113,50 x 8,57","22,50 x 13,50 x 18,20","22,50 x 13,50 x 18,20","22,50 x 13,50 x 18,20"
"1598262044-40","https://www.purell.eu/de/kategorien?cat=47&manufacturer=170&product_format=104&product_list_limit=100","GOJO® Antimicrobial Plus Handwaschschaum (FMX™/1250ml)","https://www.purell.eu/de/gojo-antimicrobial-plus-handwaschschaum-fmx-1250ml","5148-03-EEU","GOJO® Antimicrobial Plus Handwaschschaum (FMX™/1250ml)","0738520282438","Die Quat-freie GOJO antimikrobielle Schaumseife zur Handwäsche sorgt mit ihrer hochwirksamen Formel für sanfte Haut.","Geeignet für den Umgang mit Lebensmitteln in Bereichen wie Restaurants, an der Front und im Hintergrund, Küchen, Lebensmittelverarbeitung und Gebäude-Management 
Geeignet für empfindliche Haut1 und für häufiges Händewaschen formuliert 
Angereichert mit feuchtigkeitsspendenden pflanzlichen Wirkstoffen
Breitspektrumwirkung2 (Bakterien, Pilze & Viren)
Besteht EN 1499 in 30 Sekunden
Sensorik-Prüfung gemäß: BS EN ISO 4120:2007
Gezielter Einsatz gegen lebensmittelspezifische Pathogene wie Salmonellen, Listerien und E.Coli-Bakterien
SMART-FLEX™ Flaschengestaltung verwendet 30 % weniger Material als HDPE 
CONTROLLED COLLAPSE™ Technologie hält die Flaschenform beim Entleeren länger aufrecht 
Abnehmbare Pumpe für ein einfacheres Recycling
SANITARY SEALED™ Nachfüllpackung trägt zur Vermeidung von Verunreinigung bei","1,44","null","Bakterien (30s) : EN 1276, EN 13727+ A2*(hygienische Handwaschbedingungen), wirksam gegen Salmonella enterica und Listeria monocytogenes, EN 1499 (1.1 ml) 

Pilze (30s) : EN 1650, EN 13627  (hygienische Handwaschbedingungen) 

Viren (30s) : EN 14476+ A1*, aktiv gegen Herps Simplex Type 1 (HSV-1), H1N1, PRV (Modellvirus für Hepatitis B), aktiv gegen Vacciciavirus

Breitspektrumwirkung gegen umhüllte Viren wie Coranvirus, HIV, Influenzavirus, Hepatitis B und C sowie Herpesviren in Übereinstimmung mit der Methode gemäß EN 14476","https://www.purell.eu/de/prolinedownloadcenter/download/index/item/4fd0df2686141ed8650faf3a513890dfe4d44539803d2d222f2cf56224594fa7/","21,43 x 12,54 x 9,69","21,43 x 12,54 x 9,69","21,43 x 12,54 x 9,69","22,50 x 13,00 x 29,30","22,50 x 13,00 x 29,30","22,50 x 13,00 x 29,30"
"1598262077-53","https://www.purell.eu/de/kategorien?cat=47&manufacturer=170&product_format=104&product_list_limit=100","GOJO® Milde Schaumseife für die Hände (ADX-12™/1200ml)","https://www.purell.eu/de/gojo-milde-schaumseife-adx-1200ml","8811-03-EEU","GOJO® Milde Schaumseife für die Hände (ADX-12™/1200ml)","0073852075861","GOJO® Extra Milde Schaumseife Nachfüllung 700 ml für GOJO ADX-7 manueller Seifenspender. GOJO Extra Milde Schaumseife ist extrem sanft zur Haut ist und enthält keine Duft- oder Farbstoffe. Sie ist mild genug für sehr häufiges Händewaschen. Ecolabelzertifiziert. Mit GOJO SMART-FLEX-Technologie hergestellte Nachfüllpacks. GOJO SANITARY SEALED Nachfüllpacks – rasten einfach und schnell ein. Sie schützen Benutzer vor den Risiken der Kontamination aus Seifenkanistern. Controlled collapse Nachfüllungen – die zum Patent angemeldeten Nachfüllpacks behalten beim Entleeren Ihre Form.","Besonders mild zur Haut
Sparsam im Verbrauch: Reicht für 1350 Anwendungen
Ohne Farb- und Duftstoffe
Besonders geeignet bei besonders häufigem Händewaschen
Ecolabel-zertifiziert","1,35","null","null","https://www.purell.eu/de/prolinedownloadcenter/download/index/item/a938d3e8563942d2bf745821632673fe3689dd4e38979d77b48bc191c645271b/","26,04 x 10,16 x 8,89","26,04 x 10,16 x 8,89","26,04 x 10,16 x 8,89","26,80 x 10,50 x 28,30","26,80 x 10,50 x 28,30","26,80 x 10,50 x 28,30"
"1598262052-43","https://www.purell.eu/de/kategorien?cat=47&manufacturer=170&product_format=104&product_list_limit=100","GOJO® Milde Schaumseife für die Hände (LTX-12™/1200ml)","https://www.purell.eu/de/gojo-milde-schaumseife-ltx-1200ml","1911-02-EEU","GOJO® Milde Schaumseife für die Hände (LTX-12™/1200ml)","0073852075915","GOJO® Extra Milde Schaumseife Nachfüllung 700 ml für GOJO ADX-7 manueller Seifenspender. GOJO Extra Milde Schaumseife ist extrem sanft zur Haut ist und enthält keine Duft- oder Farbstoffe. Sie ist mild genug für sehr häufiges Händewaschen. Ecolabelzertifiziert. Mit GOJO SMART-FLEX-Technologie hergestellte Nachfüllpacks. GOJO SANITARY SEALED Nachfüllpacks – rasten einfach und schnell ein. Sie schützen Benutzer vor den Risiken der Kontamination aus Seifenkanistern. Controlled collapse Nachfüllungen – die zum Patent angemeldeten Nachfüllpacks behalten beim Entleeren Ihre Form.","Besonders mild zur Haut
Sparsam im Verbrauch: Reicht für 1350 Anwendungen
Ohne Farb- und Duftstoffe
Besonders geeignet bei besonders häufigem Händewaschen
Ecolabel-zertifiziert","1,30","10073852075912","null","https://www.purell.eu/de/prolinedownloadcenter/download/index/item/a938d3e8563942d2bf745821632673fe3689dd4e38979d77b48bc191c645271b/","22,73 x 9,37 x 12,98","22,73 x 9,37 x 12,98","22,73 x 9,37 x 12,98","24,00 x 12,90 x 19,50","24,00 x 12,90 x 19,50","24,00 x 12,90 x 19,50"
"1598262079-54","https://www.purell.eu/de/kategorien?cat=47&manufacturer=170&product_format=104&product_list_limit=100","GOJO® Freshberry Schaumseife für die Hände (ADX-7™/700ml)","https://www.purell.eu/de/gojo-freshberry-schaumseife-adx-700ml","8716-04-EEU","GOJO® Freshberry Schaumseife für die Hände (ADX-7™/700ml)","null","Wellness-inspirierte Schaumseife zur Handwäsche. Vereint üppigen Schaum und einen angenehmen pflanzlichen Duft mit einer kräftigen türkisblauen Farbe und macht das Händewaschen zu einem Erlebnis. Angereichert mit Feuchtigkeitsstoffen, natürlichen Extrakten und hautpflegenden Stoffen. Die Handseife ist angenehm in der Anwendung. Handhygiene für eine gesunde Umwelt.","Sparsam im Verbrauch: Reicht für 780 Handwäschen
Ecolabel zertifiziert
Nachfüllpackung mit GOJO SMART-FLEX™ Technologie hergestellt","0,77","null","null","https://www.purell.eu/de/prolinedownloadcenter/download/index/item/801320e0803d593b03169ae6f9e3b6275c572bd8e3ac6735e5ecf24aeb26ebbe/","22,23 x 8,89 x 7,62","22,23 x 8,89 x 7,62","22,23 x 8,89 x 7,62","23,00 x 17,70 x 18,20","23,00 x 17,70 x 18,20","23,00 x 17,70 x 18,20"
