﻿web-scraper-order,web-scraper-start-url,Nazwa produktu [EN],Krótki opis produktu [EN],Zdjęcie główne produktu-src,Karta charakterystyki EN [nazwa pliku z rozszerzeniem]
"1590567343-393","http://www.garchem.pl/kategoria/12/produkty","Universal Cleaner ""Kubuś"" flovers 5L","Universal Cleaner ""Kubuś"" flovers 5L","/storage/products/57b1eb6a63e04.png","/storage/products/57b1eb6a63e04_1.pdf"
"1590567343-396","http://www.garchem.pl/kategoria/12/produkty","Universal Cleaner ""EXTRA"" flovers 1L","Universal Cleaner ""EXTRA"" flovers 1L","/storage/products/57b424dbaf2cf.png","null"
"1590567343-398","http://www.garchem.pl/kategoria/12/produkty","Universal Cleaner ""Clean Net"" lilly of valey 1L","Universal Cleaner ""Clean Net"" lilly of valey 1L","/storage/products/5ec15602628cd.png","null"
"1590567343-397","http://www.garchem.pl/kategoria/12/produkty","Universal Cleaner ""Clean Net"" lemon 1L","Universal Cleaner ""Clean Net"" lemon 1L","/storage/products/5ec155e7ebec8.PNG","null"
"1590567343-394","http://www.garchem.pl/kategoria/12/produkty","Universal Cleaner ""Extra"" lemon 1L","Universal Cleaner ""Extra"" lemon 1L","/storage/products/57b41a92766b3.png","null"
"1590567343-392","http://www.garchem.pl/kategoria/12/produkty","Universal Cleaner ""Kubuś"" Appe 5L","Universal Cleaner ""Kubuś"" Appe 5L","/storage/products/57b1eac1e5501.png","/storage/products/57b1eac1e5501_1.pdf"
"1590567343-390","http://www.garchem.pl/kategoria/12/produkty","Universal cleaners ""Kubuś"" Appe 1L","Universal cleaners ""Kubuś"" Appe 1L","/storage/products/57ab484e12124.png","/storage/products/577176a254044_1.pdf"
"1590567343-399","http://www.garchem.pl/kategoria/12/produkty","Universal Cleaner ""Clean Net""  lavender 1L","Universal Cleaner ""Clean Net""  lavender 1L","/storage/products/5ec1566306c75.png","null"
"1590567343-395","http://www.garchem.pl/kategoria/12/produkty","Universal Cleaner ""EXTRA"" Appe 1L","Universal Cleaner ""EXTRA"" Appe 1L","/storage/products/57b42460b164e.png","null"
"1590567343-389","http://www.garchem.pl/kategoria/12/produkty","Universal Cleaner ""Kubuś""  Lemon 1L, 5L","Universal Cleaner ""Kubuś""  Lemon 1L, 5L","/storage/products/57ab483bbc11b.png","/storage/products/57717448130e9_1.pdf"
"1590567343-391","http://www.garchem.pl/kategoria/12/produkty","Universal Cleaner ""Kubuś"" flovers 1L","Universal Cleaner ""Kubuś"" flovers 1L","/storage/products/57ab485d71e1f.png","/storage/products/5771756956da9_1.pdf"
