﻿web-scraper-order,web-scraper-start-url,Nazwa produktu [PL],Krótki opis produktu [PL],Zdjęcie główne produktu-src,Karta charakterystyki PL [nazwa pliku z rozszerzeniem]
"1590567304-384","http://www.garchem.pl/kategoria/12/produkty","Płyn uniwersalny ""EXTRA"" jabłkowy 1L","Płyn uniwersalny ""EXTRA"" jabłkowy 1L","/storage/products/57b42460b164e.png","null"
"1590567304-385","http://www.garchem.pl/kategoria/12/produkty","Płyn uniwersalny ""EXTRA"" kwiatowy 1L","Płyn uniwersalny ""EXTRA"" kwiatowy 1L","/storage/products/57b424dbaf2cf.png","null"
"1590567304-381","http://www.garchem.pl/kategoria/12/produkty","Płyn uniwersalny ""Kubuś"" jabłkowy  5L","Płyn uniwersalny ""Kubuś"" jabłkowy  5L","/storage/products/57b1eac1e5501.png","/storage/products/57b1eac1e5501_1.pdf"
"1590567304-387","http://www.garchem.pl/kategoria/12/produkty","Płyn uniwersalny ""Clean Net"" konwalia 1L","Płyn uniwersalny ""Clean Net"" konwalia 1L","/storage/products/5ec15602628cd.png","null"
"1590567304-379","http://www.garchem.pl/kategoria/12/produkty","Płyn uniwersalny ""Kubuś"" jabłkowy 1L","Płyn uniwersalny ""Kubuś"" jabłkowy 1L","/storage/products/57ab484e12124.png","/storage/products/577176a254044_1.pdf"
"1590567304-380","http://www.garchem.pl/kategoria/12/produkty","Płyn uniwersalny ""Kubuś"" kwiatowy 1L","Płyn uniwersalny ""Kubuś"" kwiatowy 1L","/storage/products/57ab485d71e1f.png","/storage/products/5771756956da9_1.pdf"
"1590567304-386","http://www.garchem.pl/kategoria/12/produkty","Płyn uniwersalny ""Clean Net"" cytryna 1L","Płyn uniwersalny ""Clean Net"" cytryna 1L","/storage/products/5ec155e7ebec8.PNG","null"
"1590567304-382","http://www.garchem.pl/kategoria/12/produkty","Płyn uniwersalny ""Kubuś"" kwiatowy  5L","Płyn uniwersalny ""Kubuś"" kwiatowy  5L","/storage/products/57b1eb6a63e04.png","/storage/products/57b1eb6a63e04_1.pdf"
"1590567304-378","http://www.garchem.pl/kategoria/12/produkty","Płyn uniwersalny ""Kubuś"" cytrynowy 1L, 5L","Płyn uniwersalny ""Kubuś"" cytrynowy 1L, 5L","/storage/products/57ab483bbc11b.png","/storage/products/57717448130e9_1.pdf"
"1590567304-383","http://www.garchem.pl/kategoria/12/produkty","Płyn uniwersalny ""Extra"" cytryna 1L","Płyn uniwersalny ""Extra"" cytryna 1L","/storage/products/57b41a92766b3.png","null"
"1590567304-388","http://www.garchem.pl/kategoria/12/produkty","Płyn uniwersalny ""Clean Net""  lawenda 1L","Płyn uniwersalny ""Clean Net""  lawenda 1L","/storage/products/5ec1566306c75.png","null"
