﻿web-scraper-order,web-scraper-start-url,Nazwa produktu [PL],Krótki opis produktu [PL],Zdjęcie główne produktu-src,Karta charakterystyki PL [nazwa pliku z rozszerzeniem]
"1590564919-18","http://www.garchem.pl/kategoria/17/produkty","Płyn do mycia naczyń ""CLEAN PRO"" Standard cytryna","Płyn do mycia naczyń ""CLEAN PRO"" Standard cytryna","/storage/products/5ec12ddd0d9fa.png","null"
"1590564919-23","http://www.garchem.pl/kategoria/17/produkty","Płyn do mycia naczyń ""CLEAN PRO""  Premium mięta","Płyn do mycia naczyń ""CLEAN PRO""  Premium mięta","/storage/products/5ec12faef39e0.png","null"
"1590564919-15","http://www.garchem.pl/kategoria/17/produkty","Mydło w płynie ""CLEAN PRO"" STANDARD 5L róża","Mydło w płynie ""CLEAN PRO"" STANDARD 5L róża","/storage/products/5ec12b7b4f18e.png","/storage/products/577d699062e14_1.pdf"
"1590564919-19","http://www.garchem.pl/kategoria/17/produkty","Mydło w płynie ""CLEAN PRO"" PREMIUM 5L róża","Mydło w płynie ""CLEAN PRO"" PREMIUM 5L róża","/storage/products/5ec12ba50a9d0.png","/storage/products/577d6aa942481_1.pdf"
"1590564919-24","http://www.garchem.pl/kategoria/17/produkty","Proszek do czyszczenia ""CLEAN PRO""  500g","Proszek do czyszczenia ""CLEAN PRO""  500g","/storage/products/5ec13056b46f0.PNG","null"
"1590564919-26","http://www.garchem.pl/kategoria/17/produkty","Płyn do mycia szyb ""CLEAN PRO""","Płyn do mycia szyb ""CLEAN PRO""","/storage/products/5ec1502518678.png","null"
"1590564919-16","http://www.garchem.pl/kategoria/17/produkty","Mydło w płynie ""CLEAN PRO"" STANDARD 5L konwalia","Mydło w płynie ""CLEAN PRO"" STANDARD 5L konwalia","/storage/products/5ec12acf281cf.png","/storage/products/577d688342dc4_1.pdf"
"1590564919-20","http://www.garchem.pl/kategoria/17/produkty","Mydło w płynie ""CLEAN PRO"" PREMIUM 5L konwalia","Mydło w płynie ""CLEAN PRO"" PREMIUM 5L konwalia","/storage/products/5ec12b4d620c3.png","/storage/products/577d6a1f41d6e_1.pdf"
"1590564919-17","http://www.garchem.pl/kategoria/17/produkty","Mydło w płynie ""CLEAN PRO"" PREMIUM 5L jabłko","Mydło w płynie ""CLEAN PRO"" PREMIUM 5L jabłko","/storage/products/5ec12c0c7777a.png","/storage/products/5c6cf85b9dad2_1.pdf"
"1590564919-11","http://www.garchem.pl/kategoria/17/produkty","Mydło w pianie ""CLEAN PRO""","Mydło w pianie ""CLEAN PRO""","/storage/products/5ec152260b29e.png","/storage/products/5ec15b8cc746c_1.pdf"
"1590564919-27","http://www.garchem.pl/kategoria/17/produkty","Żel do WC ""CLEAN PRO""","Żel do WC ""CLEAN PRO""","/storage/products/5ec150756be5b.PNG","null"
"1590564919-22","http://www.garchem.pl/kategoria/17/produkty","Płyn do mycia naczyń ""CLEAN PRO"" Premium cytryna","Płyn do mycia naczyń ""CLEAN PRO"" Premium cytryna","/storage/products/5ec12f537d5a9.png","null"
"1590564919-13","http://www.garchem.pl/kategoria/17/produkty","Mydło w płynie LUX kremowe ""CLEAN PRO""","Mydło w płynie LUX kremowe ""CLEAN PRO""","/storage/products/5ec15294f03b7.png","/storage/products/5ec15c8a53bf6_1.pdf"
"1590564919-21","http://www.garchem.pl/kategoria/17/produkty","Płyn do mycia naczyń  ""CLEAN PRO"" Standard mięta","Płyn do mycia naczyń  ""CLEAN PRO"" Standard mięta","/storage/products/5ec12e72d0677.png","null"
"1590564919-25","http://www.garchem.pl/kategoria/17/produkty","Mleczko do czyszczenia  ""CLEAN PRO"" 500 ml","Mleczko do czyszczenia  ""CLEAN PRO"" 500 ml","/storage/products/5ec14fd295e06.PNG","null"
"1590564919-14","http://www.garchem.pl/kategoria/17/produkty","Mydło w płynie ""CLEAN PRO"" STANDARD 5L jabłko","Mydło w płynie ""CLEAN PRO"" STANDARD 5L jabłko","/storage/products/5ec12be0597f2.png","/storage/products/577d690493d91_1.pdf"
"1590564919-12","http://www.garchem.pl/kategoria/17/produkty","Mydło w pianie ""CLEAN PRO""  mleko i wanilia","Mydło w pianie ""CLEAN PRO""  mleko i wanilia","/storage/products/5ec131271e457.png","null"
"1590564919-28","http://www.garchem.pl/kategoria/17/produkty","Mleczko do mebli ""CLEAN PRO""","Mleczko do mebli ""CLEAN PRO""","/storage/products/5ec1510399ddd.PNG","null"
