﻿web-scraper-order,web-scraper-start-url,Nazwa produktu [DE],Krótki opis produktu [DE],Zdjęcie główne produktu-src,Karta charakterystyki DE [nazwa pliku z rozszerzeniem]
"1590566771-284","http://www.garchem.pl/kategoria/3/produkty","Weichspüler ""RAMO"" Ozean 1L","Weichspüler ""RAMO"" Ozean 1L","/storage/products/57ab43ec347ae.png","/storage/products/5ec153f8d6509_1.pdf"
"1590566771-280","http://www.garchem.pl/kategoria/3/produkty","Weichspüler 4L blau, rosa, weiß, grün","Weichspüler 4L blau, rosa, weiß, grün","/storage/products/5ec15458d7401.PNG","/storage/products/5ec1542fcb92a_1.pdf"
"1590566771-283","http://www.garchem.pl/kategoria/3/produkty","Weichspüler ""RAMO"" Sensitive- weiss 1L","Weichspüler ""RAMO"" Sensitive- weiss 1L","/storage/products/57ab43db91bed.png","/storage/products/5ec153e398f12_1.pdf"
"1590566771-281","http://www.garchem.pl/kategoria/3/produkty","Weichspüler ""Clean Net"" 4L blau","Weichspüler ""Clean Net"" 4L blau","/storage/products/5b816a8f972fa.png","/storage/products/5cfcc051a5dcd_1.pdf"
"1590566771-282","http://www.garchem.pl/kategoria/3/produkty","Weichspüler ""Clean Net"" 4L rose","Weichspüler ""Clean Net"" 4L rose","/storage/products/5ec154ff66e36.PNG","/storage/products/5ec154ff66e36_1.pdf"
"1590566771-285","http://www.garchem.pl/kategoria/3/produkty","Weichspüler ""RAMO"" Frühling 1L","Weichspüler ""RAMO"" Frühling 1L","/storage/products/57ab43fcc86d2.png","/storage/products/5ec15412557bd_1.pdf"
