{
    "_id": "welmax-papier-en",
    "startUrl": [
        "http://welmax.eu/en/produkty/jumbo-toilet-paper-white/"
    ],
    "selectors": [
        {
            "id": "row-selector",
            "type": "SelectorElement",
            "parentSelectors": [
                "_root"
            ],
            "selector": ".active tbody:nth-child(n+3)",
            "multiple": true,
            "delay": 0
        },
        {
            "id": "Numer artykułu",
            "type": "SelectorText",
            "parentSelectors": [
                "row-selector"
            ],
            "selector": "td[width='15%']",
            "multiple": false,
            "regex": "",
            "delay": 0
        },
        {
            "id": "Nazwa produktu [EN]",
            "type": "SelectorText",
            "parentSelectors": [
                "row-selector"
            ],
            "selector": "td[width='34%']",
            "multiple": false,
            "regex": "",
            "delay": 0
        },
        {
            "id": "Krótki opis produktu [EN]",
            "type": "SelectorText",
            "parentSelectors": [
                "row-selector"
            ],
            "selector": "td[width='34%']",
            "multiple": false,
            "regex": "",
            "delay": 0
        }
    ]
}