{

    "version": "0.2.0",
    "configurations": [
        {
            "name": "Python: Current File",
            "type": "python",
            "request": "launch",
            "program": "${workspaceFolder}/script.py",
            "console": "integratedTerminal",
            "args": ["--source", 
                "sitemaps/welmax/papier/results/welmax-papier-pl.csv", 
                "sitemaps/welmax/papier/results/welmax-papier-en.csv:3", 
                "sitemaps/welmax/papier/results/welmax-papier-de.csv:3", 
                "--scheme", 
                "sitemaps/welmax/papier/results/szablon.xls", 
                "--match", "Numer artykułu", 
                "--drop", "True", 
                "--skip_rows", "3", 
                "--save_path", "sitemaps/welmax/papier/results/results.xlsx"
            ]
        }
    ]
}