{

    "version": "0.2.0",
    "configurations": [
        {
            "name": "Python: Current File",
            "type": "python",
            "request": "launch",
            "program": "${workspaceFolder}/script.py",
            "console": "integratedTerminal",
            "args": ["--source", 
                "sitemaps/barlon/srodki-do-prania/results/barlon-srodki-do-prania.csv", 
                "--scheme", 
                "sitemaps/barlon/srodki-do-prania/results/szablon.xls", 
                "--match", "Numer artykułu", 
                "--drop", "True", 
                "--skip_rows", "3", 
                "--save_path", "sitemaps/barlon/srodki-do-prania/results/results.xlsx"
            ]
        }
    ]
}