﻿web-scraper-order,web-scraper-start-url,subcategory-link,subcategory-link-href,product-link,product-link-href,Nazwa produktu [PL],Krótki opis produktu [PL],Rozszerzenie opisu produktu [PL],Numer artykułu,Ilość opakowań pojedynczych w opakowaniu tranportowym [szt],Zdjęcie główne produktu-src,Podkategoria produktu
"1588188690-216","http://diverseysolutions.com/pl/Category/5185","Maszyny czyszcząco - zbierające","http://diverseysolutions.com/pl/Category/5263","Więcej informacji
                                                                                >","http://diverseysolutions.com/pl/Category/5263/Product/21499","TASKI Swingo XP","Innowacyjne podejście do prowadzenia maszyny, łączy znakomitą zwrotność z dużą prędkością by zapewnić szybsze efekty czyszczenia. Wysoce wydajny system zarządzania wodą obniża liczbę postojów, tym samym redukuje zużycie czasu potrzebnego na kolejne napełnianie zbiornika. Supernowa obrotowa mikro-szczotka gwarantuje doskonałe efekty czyszczenia, dając nawet o 50% lepsze wyniki w porównaniu z konwencjonalnymi systemami szczotek. Znakomity efekt osuszania pozwala stosować Swingo XP o każdej porze dnia, obniżając jednocześnie ryzyko pośliźnięć i upadków wynikających z chodzenia po mokrej podłodze. Wysoce ekonomiczne zużycie wody i energii, czyni Swingo XP przyjaznym dla środowiska oraz pozwala na znaczne obniżenie kosztów.","Znacznie większa wydajność pracyNajlepsze efekty czyszczeniaSuche podłogiZmniejszone zużycie wody i energii","7514505","","http://diverseysolutions.com/ProductImages/Noimages.jpeg","Maszyny czyszcząco - zbierające"
"1588188762-246","http://diverseysolutions.com/pl/Category/5185","Odkurzacze przemysłowe do pracy na sucho","http://diverseysolutions.com/pl/Category/5186","Więcej informacji
                                                                                >","http://diverseysolutions.com/pl/Category/5186/Product/21455","TASKI vento 8","Kształt poręcznego uchwytu łączy wiele funkcji, min.:intuicyjny mechanizm otwierania, ergononomiczne włączanie/wyłączanie urządzenia stopą i poręczne zwijanie przewodu.
Urządzenia wykorzystują główny system filtrowania składający się z nowej, jednorazowej, fizelinowej torby, tkaniny filtrującej, filtra chroniącego silnik oraz opcjonalnie filtra zewnętrznego. Powoduje to znacznie ulepszoną jakość ssania jak również dłuższą żywotność silnika. Odkurzacz posiada mocowania, które ułatwiają przechowywanie akcesoriów, jak również specjalne zabezpieczenie uniemożliwiające wyrwanie przewodu zasilającego. Nowoczesny kształt oraz stonowane kolory odkurzacza, idealnie wpasują się do każdego rodzaju
pomieszczeń.","Wielofunkcyjny uchwytBardzo wysoka jakość ssaniaŁatwość w prowadzeniuWiele drobnych dodatków","7514390","","http://diverseysolutions.com/ProductImages/Noimages.jpeg","Odkurzacze przemysłowe do pracy na sucho"
"1588188752-242","http://diverseysolutions.com/pl/Category/5185","Odkurzacze pionowe","http://diverseysolutions.com/pl/Category/5257","Więcej informacji
                                                                                >","http://diverseysolutions.com/pl/Category/5257/Product/21452","TASKI Jet 50","TASKI jet 50 posiada pięcio stopniowy system filtracji składający się z podwójnego filtra papierowego, filtra zabezpieczającego silnik, filtra wydmuchu oraz węglowego filtra szczotki. Możliwość podłączenia filtru HEPA. TASKI jet 50 posiada regulowany uchwyt w dwóch pozycjach, dzięki czemu użytkownik może odpowiednio dopasować urządzenie do pracy. TASKI jet 50 jest urządzeniem lekkim i ergonomicznym, dzięki czemu praca jest łatwa i komfortowa.","Siła i wydajnośćWszechstronnośćLepsza jakość czyszczeniaErgonomiczny i łatwy transport","7516256","","http://diverseysolutions.com/ProductImages/Noimages.jpeg","Odkurzacze pionowe"
"1588188758-244","http://diverseysolutions.com/pl/Category/5185","Odkurzacze przemysłowe do pracy na sucho","http://diverseysolutions.com/pl/Category/5186","Więcej informacji
                                                                                >","http://diverseysolutions.com/pl/Category/5186/Product/21450","TASKI dorsalino","Profesjonalny odkurzacz plecakowy, przeznaczony do czyszczenia na sucho tekstylnych wykładzin podłogowych oraz tapet ściennych w hotelach, restauracjach, salach konferencyjnych, biurach, kinach teatrach oraz budynkach mieszkalnych. Odkurzacz nadaje się również do czyszczenia schodów oraz innych trudno dostępnych miejsc.","Niewielka wagaCicha praca i niezawodnaProsta obsługaWygodne szelki i pas z mocowaniami na dodatkowe akcesoria","8003590","","http://diverseysolutions.com/ProductImages/Noimages.jpeg","Odkurzacze przemysłowe do pracy na sucho"
"1588188720-229","http://diverseysolutions.com/pl/Category/5185","Maszyny jednotarczowe Ergodisc","http://diverseysolutions.com/pl/Category/5261","Więcej informacji
                                                                                >","http://diverseysolutions.com/pl/Category/5261/Product/21487","TASKI Ergodisc 400","Specjalny kształt rękojeści  (przystosowany do naturalnego układu dłoni) znacznie ułatwia prowadzenie maszyny oraz skutecznie zapobiega zmęczeniu operatora.  specjalny uchwyt chroni ręce. Podwójny stopień zabezpieczenia przed przypadkowym uruchomieniem maszyny. Gumowa osłona obudowy szczotki chroni maszynę oraz jej otoczenie przed uszkodzeniami. Składany uchwyt maszyny ułatwia szybki transport i magazynowanie, szybka i prosta wymiana niezbędnych akcesoriów, metalowy uchwyt z tyłu rękojeści pozwala na przemieszczanie wraz z maszyną dodatkowych akcesoriów: tarcza, szczotka, pady.","Ekonomiczny kształtBezpieczeństwoProstotaTrwałośćWszechstronność","8003890","","http://diverseysolutions.com/ProductImages/Noimages.jpeg","Maszyny jednotarczowe Ergodisc"
"1588188724-231","http://diverseysolutions.com/pl/Category/5185","Maszyny jednotarczowe Ergodisc","http://diverseysolutions.com/pl/Category/5261","Więcej informacji
                                                                                >","http://diverseysolutions.com/pl/Category/5261/Product/21485","TASKI Ergodisc Duo","TASKI Ergodisc Duo to ciężka maszyna jednotarczowa z podwójną prędkością obrotową: 165obr./min. i 330obr./min. W standardzie urządzenie posiada ciężarek 5 kg, który poprawia stabilność maszyny. Przy zastosowaniu odpowiednich akcesoriów (tarcza napędowa, tarcza szybkoobrotowa, szczotka szorująca, pojemnik na wodę, spryskiwacz elektryczny/mechaniczny, elektryczne urządzenie ssące, obudowa ssąca) oraz po przełączeniu maszyny na odpowiednią prędkość obrotową urządzenie pozwala na wykonywanie różnorodnych czynności.","Czyszczenie na mokroUsuwanie starych powłokCzyszczenie natryskowePranie pianą na mokro","8004020","","http://diverseysolutions.com/ProductImages/Noimages.jpeg","Maszyny jednotarczowe Ergodisc"
"1588188742-238","http://diverseysolutions.com/pl/Category/5185","Odkurzacze do pracy na sucho - mokro","http://diverseysolutions.com/pl/Category/5260","Więcej informacji
                                                                                >","http://diverseysolutions.com/pl/Category/5260/Product/21460","TASKI vacumat 22T","Odkurzacz TASKI vacumat 22T pozwala na wyczyszczenie dużych o średnich rozmiarów powierzchni podłogowych w czasie krótszym do 3 razy niż tradycyjna metoda czyszczenia sucho-mokro. Używanie tego odkurzacza, w połączeniu z maszyną jednotarczową TASKI, zwiększa jej wydajność i efektywność, a tym samym skraca 
czas wykonywanych czynności. Odkurzacz wyposażony jest w standardzie w urządzenie zwane Fixomatem. Jest to specjalna, metalowa ściągaczka z gumą, przeznaczona do czyszczenia powierzchni ""na mokro"". Fixomat pozwalana na uzyskanie doskonałych efektów czyszczonej powierzchni w postaci suchych i
czystych podłóg.","Duża siła ssaniaWiększa wydajnośćErgonomiaOdporność i trwałość","8004560","","http://diverseysolutions.com/ProductImages/Noimages.jpeg","Odkurzacze do pracy na sucho - mokro"
"1588188740-237","http://diverseysolutions.com/pl/Category/5185","Odkurzacze do pracy na sucho - mokro","http://diverseysolutions.com/pl/Category/5260","Więcej informacji
                                                                                >","http://diverseysolutions.com/pl/Category/5260/Product/21461","TASKI vacumat 44T","Odkurzacz TASKI vacumat 44T idealnie nadaje się na czyszczenie dużych i średnich powierzchni. Dzięki dużej mocy w znacznym stopniu przyśpiesza proces czyszczenia. Używanie tego odkurzacza, w połączeniu z maszyną jednotarczową TASKI, zwiększa jej wydajność i efektywność, a tym samym skraca czas wykonywanych czynności. Odkurzacz wyposażony jest w standardzie w urządzenie zwane Fixomatem. Jest to specjalna, metalowa ściągaczka z gumą, przeznaczona do czyszczenia powierzchni ""na mokro"". Fixomat pozwalana na uzyskanie doskonałych efektów czyszczonej powierzchni w postaci suchych i czystych podłóg.","Większa wydajnośćDuża siła ssaniaErgonomiaOdporność i trwałość","8004710","","http://diverseysolutions.com/ProductImages/Noimages.jpeg","Odkurzacze do pracy na sucho - mokro"
"1588188722-230","http://diverseysolutions.com/pl/Category/5185","Maszyny jednotarczowe Ergodisc","http://diverseysolutions.com/pl/Category/5261","Więcej informacji
                                                                                >","http://diverseysolutions.com/pl/Category/5261/Product/21486","TASKI Ergodisc 200","Specjalny kształt rękojeści  (przystosowany do naturalnego układu dłoni) znacznie ułatwia prowadzenie maszyny oraz skutecznie zapobiega zmęczeniu operatora. 
Specjalny uchwyt chroni ręce podwójny stopień zabezpieczenia przed przypadkowym uruchomieniem maszyny gumowa osłona obudowy szczotki chroni maszynę oraz jej otoczenie przed uszkodzeniami. Składany uchwyt maszyny ułatwia szybki transport i magazynowanie, szybka i prosta wymiana niezbędnych akcesoriów, metalowy uchwyt z tyłu rękojeści pozwala na przemieszczanie wraz z maszyną dodatkowych akcesoriów: tarcza, szczotka, pady.","Czyszsczenie na mokroUsuwanie starych powłokCzyszczenie natryskowePranie pianą na mokro","8003810","","http://diverseysolutions.com/ProductImages/Noimages.jpeg","Maszyny jednotarczowe Ergodisc"
"1588188718-228","http://diverseysolutions.com/pl/Category/5185","Maszyny jednotarczowe Ergodisc","http://diverseysolutions.com/pl/Category/5261","Więcej informacji
                                                                                >","http://diverseysolutions.com/pl/Category/5261/Product/21489","TASKI Ergodisc 1200","Specjalny kształt rękojeści (przystosowany do naturalnego układu dłoni) znacznie ułatwia prowadzenie maszyny oraz skutecznie zapobiega zmęczeniu operatora. Specjalny uchwyt chroni ręce, podwójny stopień zabezpieczenia przed przypadkowym uruchomieniem maszyny, gumowa osłona obudowy szczotki chroni maszynę oraz jej otoczenie przed uszkodzeniami. Składany uchwyt maszyny ułatwia szybki transport i magazynowanie, szybka i prosta wymiana niezbędnych akcesoriów, metalowy uchwyt z tyłu rękojeści pozwala na przemieszczanie wraz z maszyną dodatkowych akcesoriów: tarcza, szczotka, pady. Dzięki zastosowaniu w TASKI ergodisc 1200 wysokiej jakości materiałów stworzono maszynę bardzo trwałą i mocną: niski poziom hałasu, wysoka jakość materiałów, odporność na uderzenia. Wbudowany spryskiwacz elektryczny oraz możliwość podłączenia elektrycznego urządzenia ssącego.","Ekonomiczny kształtBezpieczeństwoProstotaWszechstronność","8004660","","http://diverseysolutions.com/ProductImages/Noimages.jpeg","Maszyny jednotarczowe Ergodisc"
"1588188712-226","http://diverseysolutions.com/pl/Category/5185","Automatyczna szorowarka elektryczna","http://diverseysolutions.com/pl/Category/5262","Więcej informacji
                                                                                >","http://diverseysolutions.com/pl/Category/5262/Product/21491","TASKI Combimat 300E","Taski combimat 300E jest to automatyczna szorowarka elektryczna, która zapewnia doskonałe efekty czyszczonych powierzchni podłogowych. Zalety Taski combimat 300 E: mechaniczny pływak chroni silnik przed uszkodzeniem pianą lub przepełnieniem zbiornika, system pozwalający na kontrolowanie dozowania płynów, zdejmowany zbiornik brudnej wody, regulowana wysokość rękojeści pozwala na dostosowanie jej do wzrostu użytkownika, maszyna nie wymagająca dużej przestrzeni do magazynowania.","Prosta obsługa maszynyNiewielkie wymiaryMożliwość pracy do przodu i do tyłuSzczotka walcowata","8003560","","http://diverseysolutions.com/ProductImages/Noimages.jpeg","Automatyczna szorowarka elektryczna"
"1588188730-233","http://diverseysolutions.com/pl/Category/5185","Maszyny do prania dywanów metodą ekstrakcyjną","http://diverseysolutions.com/pl/Category/5259","Więcej informacji
                                                                                >","http://diverseysolutions.com/pl/Category/5259/Product/21479","TASKI Aqamat 45","TASKI Aquamat 45 jest maszyną przeznaczoną do prania dużych powierzchni dywanowych. Maszyna posiada możliwość zmiany kierunku prania dzięki przestawieniu rękojeści. Razem z urządzeniem TASKI Aquamat 45 powinna być stosowana lanca natryskowa. Po naniesieniu lancą roztworu piorącego na wykładzinę należy ją prać zachodzącymi na siebie pasami. Zastosowanie maszyny TASKI Aquamat 45 pozwala na osiągnięcie bardzo dobrych efektów prania dzięki mechanicznemu wspomaganiu szczotki walcowej. Duża siła ssania zapewnia niski stopień wilgotności wykładziny. Do prania miejsc trudno dostępnych zaleca się stosowanie maszyny wraz z akcesoriami ręcznymi.","Doskonałe rezultaty gruntownego czyszczeniaPraca do przodu i do tyłuWysoka wydajnośćProsta obsługa","8004810","","http://diverseysolutions.com/ProductImages/Noimages.jpeg","Maszyny do prania dywanów metodą ekstrakcyjną"
"1588188716-227","http://diverseysolutions.com/pl/Category/5185","Maszyny jednotarczowe Ergodisc","http://diverseysolutions.com/pl/Category/5261","Więcej informacji
                                                                                >","http://diverseysolutions.com/pl/Category/5261/Product/21490","TASKI Ergodisc Omni","Kompletny system do czyszczenia i pielęgnacji podłóg. System Omni to: 1. maszyna, 2. produkty, 3. pady gwarantują, że jest to unikalny, szybszy, praktyczny i bardzo wydajny system. Takie rozwiązanie zapewnia zmniejszenie kosztów związanych z utrzymaniem w czystości i pielęgnacją podłóg. Większość oszczędności wiąże się ze zwiększeniem wydajności maszyny. W porównaniu z tradycyjną, natryskową metodą czyszczenia podłóg urządzenie to pozwala na oszczędności nawet do 40%. System Omni to połączenie wysokiej prędkości obrotowej maszyny (900 obr./min) z dużym naciskiem padu. Rozwiązanie to, w połączeniu z odpowiednimi produktami i padami, pozwala na użycie systemu do czyszczenia podłóg, ich polerowania oraz do codziennej pielęgnacji. Dzięki swej wielofunkcyjności, maszyna TASKI ergodisc omni doskonale sobie radzi nawet w miejscach, których nie można wyłączyć z ruchu.","Kompletny system do czyszczenia i pielęgnacjiWszechstronność i funkcjonalnośćErgonomiaBezpieczeństwo","8004630","","http://diverseysolutions.com/ProductImages/Noimages.jpeg","Maszyny jednotarczowe Ergodisc"
"1588188760-245","http://diverseysolutions.com/pl/Category/5185","Odkurzacze przemysłowe do pracy na sucho","http://diverseysolutions.com/pl/Category/5186","Więcej informacji
                                                                                >","http://diverseysolutions.com/pl/Category/5186/Product/21449","TASKI vento 15","TASKI vento 15 zapewnia wysoką jakość odkurzania dzięki głównemu systemowi filtracji (nowa wełniana torba, tkanina filtracyjna, filtr chroniący silnik oraz opcjonalnie filtr wydmuchu). Czynniki te powodują znacznie ulepszoną jakość ssania, jak również dłuższą żywotność silinika.","Wielofunkcyjny uchwytBardzo wysoka jakość ssaniaŁatwość w prowadzeniuNiski poziom hałasu","7514410","","http://diverseysolutions.com/ProductImages/Noimages.jpeg","Odkurzacze przemysłowe do pracy na sucho"
"1588188692-217","http://diverseysolutions.com/pl/Category/5185","Maszyny czyszcząco - zbierające","http://diverseysolutions.com/pl/Category/5263","Więcej informacji
                                                                                >","http://diverseysolutions.com/pl/Category/5263/Product/21788","TASKI swingo 1650 B","TASKI swingo 1650 B jest automatem szorująco-zbierającym. Duże zbiorniki i efektywny system CSD
redukują zużycie wody nawet o 50% i zapewniają
dużą niezależność maszynie. Pozwala to na
umycie nawet 2500 m2 podłogi bez konieczności
tankowania i ładowania akumulatorów. Doskonała ergonomia i prostota ograniczają do
minimum wysiłek operatora i czas szkolenia.","Duża autonomiaDoskonałe rezultaty czyszczeniaProstota i ergonomiaŁatwa obsługa","7515883","","http://diverseysolutions.com/ProductImages/Noimages.jpeg","Maszyny czyszcząco - zbierające"
"1588188680-213","http://diverseysolutions.com/pl/Category/5185","Maszny do prania dywanów metodą suchej piany","http://diverseysolutions.com/pl/Category/6108","Więcej informacji
                                                                                >","http://diverseysolutions.com/pl/Category/6108/Product/21481","TASKI Swift 35","TASKI Swift 35 jest to urządzenie wyposażone w dwie szczotki walcowe, które równomiernie wprowadzają w strukturę wykładziny dywanowej warstwę suchej piany. Wilgotność piany można regulować za pomocą potencjometru. Po naniesieniu piany wykładzinę należy prać zachodzącymi na siebie pasami. Miejsca trudno dostępne oraz tapicerkę można prać szczotką ręczną połączoną z TASKI Swift 35","Regulowana wilgotność pianySkuteczne usuwanie zabrudzeńPranie metodą  suchej piany","V7511180","","http://diverseysolutions.com/ProductImages/Noimages.jpeg","Maszny do prania dywanów metodą suchej piany"
"1588188696-219","http://diverseysolutions.com/pl/Category/5185","Maszyny czyszcząco - zbierające","http://diverseysolutions.com/pl/Category/5263","Więcej informacji
                                                                                >","http://diverseysolutions.com/pl/Category/5263/Product/21497","TASKI Swingo 1255 E","TASKI swingo 1255 E jest maszyną czyszcząco-zbierającą o zasilianiu elektrycznym. Opatentowany system ruchomego ułożenia szczotki względem podłogi zapewnia równomierny nacisk na całej szerokości pracy. Dobre rezultaty czyszczenia bez względu
na nierówności podłogi. Prowadzona na 3 kółkach V - kształtna ssawa zapewnia idealnie suchą podłogę. Specjalna konstrukcja ssawy oraz jej doskonałe gumy pozwalają zbierać również większe zanieczyszczenia np.
niedopałki papierosów.","Elektryczne zasilanieProsta i łatwa w obsłudzeDuża pojemność zbiornikaDoskonałe i stabilne manewrowanieOpływowy kształt","7510376","","http://diverseysolutions.com/ProductImages/Noimages.jpeg","Maszyny czyszcząco - zbierające"
"1588188750-241","http://diverseysolutions.com/pl/Category/5185","Odkurzacze pionowe","http://diverseysolutions.com/pl/Category/5257","Więcej informacji
                                                                                >","http://diverseysolutions.com/pl/Category/5257/Product/21453","TASKI tapiset 70","TASKI tapiset 70 jest profesjonalnym odkurzaczem o dużej sile ssania, do codziennego czyszczenia dużych powierzchni wykładzin dywanowych, takich jak korytarze czy hole. Dzięki dużej szerokości pracy urządzenia - 70 cm i wysokiej sile ssania, wydajność jego jest dużo większa niż w przypadku innych odkurzaczy. Wydajność teoretyczna to:
2500m2/h. Odkurzacz posiada elastyczny wąż ssący, który pozwala na swobodne czyszczenie powierzchni ponad podłogami. Specjalne dysze czyszczące oraz możliwość ustawienia wysokości szczotki odkurzacza, umożliwiają czyszczenie różnego typu wykładzin i dywanów.","Wysoka wydajnośćTrwałośćWszechstronnośćUlepszona filtracja","8504870","","http://diverseysolutions.com/ProductImages/Noimages.jpeg","Odkurzacze pionowe"
"1588188726-232","http://diverseysolutions.com/pl/Category/5185","Maszyny jednotarczowe Ergodisc","http://diverseysolutions.com/pl/Category/5261","Więcej informacji
                                                                                >","http://diverseysolutions.com/pl/Category/5261/Product/21484","TASKI Ergodisc 165","TASKI Ergodisc 165 posiada ciężarek 5 kg, który pozwala na bardziej stabilne manewrowanie maszyną. Składany uchwyt maszyny ułatwia szybki transport i magazynowanie, szybka i prosta wymiana niezbędnych akcesoriów, metalowy uchwyt z tyłu rękojeści pozwala na przemieszczanie wraz z maszyną dodatkowych akcesoriów: tarcza, szczotka, pady.","Doskonałe rezultaty czyszczeniaWysoka wydajnośćProsta obsługaŁatwe utrzymanie","8003850","","http://diverseysolutions.com/ProductImages/Thumb/8003850_TASKI_ergodisc_165_2.jpg","Maszyny jednotarczowe Ergodisc"
"1588188700-221","http://diverseysolutions.com/pl/Category/5185","Maszyny czyszcząco - zbierające","http://diverseysolutions.com/pl/Category/5263","Więcej informacji
                                                                                >","http://diverseysolutions.com/pl/Category/5263/Product/21495","TASKI Swingo 755 E","null","Elektryczne zasilanieProsta i łatwa w obsłudzeDuża pojemność zbiornikaDoskonałe i stabilne manewrowanieOpływowy kształt","7510384","","http://diverseysolutions.com/ProductImages/Noimages.jpeg","Maszyny czyszcząco - zbierające"
"1588188738-236","http://diverseysolutions.com/pl/Category/5185","Odkurzacze do pracy na sucho - mokro","http://diverseysolutions.com/pl/Category/5260","Więcej informacji
                                                                                >","http://diverseysolutions.com/pl/Category/5260/Product/21480","TASKI Swift 35","TASKI Swift 35 jest to urządzenie wyposażone w dwie szczotki walcowe, które równomiernie wprowadzają w strukturę wykładziny dywanowej warstwę suchej piany. Wilgotność piany można regulować za pomocą potencjometru. Po naniesieniu piany wykładzinę należy prać zachodzącymi na siebie pasami. Miejsca trudno dostępne oraz tapicerkę można prać szczotką ręczną połączoną z TASKI Swift 35.","","7511180","","http://diverseysolutions.com/ProductImages/Noimages.jpeg","Odkurzacze do pracy na sucho - mokro"
"1588188704-223","http://diverseysolutions.com/pl/Category/5185","Maszyny czyszcząco - zbierające","http://diverseysolutions.com/pl/Category/5263","Więcej informacji
                                                                                >","http://diverseysolutions.com/pl/Category/5263/Product/21493","TASKI Swingo 450E","Stosowanie maszyny TASKI swingo 450 E gwarantuje osiągnięcie doskonałych efektów czyszczenia podłóg. Możliwe jest to dzięki specjalnej konstrukcji mechanizmu szczotki. Szczotka podczas pracy podąża z równomiernym naciskiem za profilem podłogi. Kształt ściągaczki (litera U) zapewnia dokładne zebranie wody z podłogi – nawet podczas zakręcania! Duża siła ssania pozwala na zebranie z podłogi wszystkich zanieczyszczeń. Specjalny kształt rękojeści (przystosowany do naturalnego ułożenia dłoni) znacznie ułatwia prowadzenie maszyny i jednocześnie poprawia komfort pracy. Wysokość rękojeści jest regulowana, użytkownik może ją dostosować do swojego wzrostu. Wszystkie niezbędne informacje są w czytelny i widoczny sposób umieszczone na panelu sterowania. Punkty / części urządzenia, które należy czyścić oznaczone zostały żółtym kolorem (żółte punkty obsługi). Miejsca te, operator może sam wyczyścić lub wymienić na nowe, zgodnie z instrukcją obsługi. Dzięki opływowym kształtom i niewielkim rozmiarom, maszynę można stosować w wielu miejscach. Jest to idealne urządzenie do czyszczenia twardych podłóg w obiektach typu: markety, sklepy, kuchnie, szkoły, hotele, szpitale, itp.","Doskonałe efekty czyszczeniaProstota i ergonomiaŁatwa obsługaWszechstronność","7513906","","http://diverseysolutions.com/ProductImages/Noimages.jpeg","Maszyny czyszcząco - zbierające"
"1588188684-214","http://diverseysolutions.com/pl/Category/5185","Odkurzacz na baterie","http://diverseysolutions.com/pl/Category/6087","Więcej informacji
                                                                                >","http://diverseysolutions.com/pl/Category/6087/Product/21454","TASKI smart","Bezprzewodowy odkurzacz pozwala na pracę w wielu obszarach gdzie dostęp do sieci elektrycznej jest utrudniony, takich jak: pociągi, windy, hole wejściowe i biura w systemie ""open space"". Bezprzewodowe odkurzanie eliminuje ryzyko wypadków związanych z potknięciami o kabel i urazów związanych z porażeniem prądem.
Odkurzacz możemy wykorzystywać w czasie
maksymalnego natężenia ruchu. Jego niewielka waga czyni odkurzanie łatwym i  ergonomicznym zajęciem.","Odkurzanie bezprzewodoweZnacznie wyższa wydajnośćBezpieczne środowisko pracyBardzo cicha praca","7512787","","http://diverseysolutions.com/ProductImages/Thumb/7512787_smart.JPG","Odkurzacz na baterie"
"1588188734-235","http://diverseysolutions.com/pl/Category/5185","Maszyny do prania dywanów metodą ekstrakcyjną","http://diverseysolutions.com/pl/Category/5259","Więcej informacji
                                                                                >","http://diverseysolutions.com/pl/Category/5259/Product/21462","TASKI Aguamat 10.1","TASKI aquamat 10.1 jest niewielkich rozmiarów maszyną, przeznaczoną do ekstrakcyjnego prania wykładzin dywanowych, tapicerek i obić. Pranie tą metodą zapewnia gruntowne doczyszczenie powierzchni dywanowych. Dzięki szybkiemu i dokładnemu usunięciu zanieczyszczeń wykładziny dywanowe, obicia i tapicerki będą dłużej wyglądać jak nowe. Dzięki niewielkim rozmiarom i małej wadze urządzenie TASKI aquamat 10.1 może być przechowywane w niewielkim pomieszczeniu. Ponadto, specjalna dysza do tapicerki oraz profesjonalne środki odplamiąjące umożliwiające proste i szybkie usunięcie plam.","Doskonałe rezultaty gruntownego czyszczeniaSzybkie i efektywne usuwanie plamŁatwy transportSpecjalny zestaw akcesoriów","8003300","","http://diverseysolutions.com/ProductImages/Noimages.jpeg","Maszyny do prania dywanów metodą ekstrakcyjną"
"1588188754-243","http://diverseysolutions.com/pl/Category/5185","Odkurzacze pionowe","http://diverseysolutions.com/pl/Category/5257","Więcej informacji
                                                                                >","http://diverseysolutions.com/pl/Category/5257/Product/21451","TASKI Jet 38","Zastosowanie w TASKI jet 38 systemu dwóch niezależnych silników, zapewnia dużą wydajność w przepływie powietrza oraz efektywną pracę szczotki walcowej. Dzięki temu uzyskujemy lepszy efekt czyszczenia oraz jakość czyszczonych podłóg. TASKI jet 38 jest lekkim i łatwym w obsłudze odkurzaczem, który zapewnia doskonałą ergonomię pracy. TASKI jet 38 można używać także w pozycji poziomej do czyszczenia powierzchni trudno dostępnych np. pod meblami, łóżkami. Dzięki zastosowaniu elastycznego węża ssącego, teleskopowej rury oraz kompleksowych akcesoriów łatwo odkurzysz powierzchnie ponad podłogami. Regulowany nacisk szczotki pozwala na czyszczenie różnego rodzaju wykładzin dywanowych.","Siła i wydajnośćWszechstronnośćLepsza jakość czyszczeniaErgonomiczny i łatwy transport","7516255","","http://diverseysolutions.com/ProductImages/Noimages.jpeg","Odkurzacze pionowe"
"1588188708-225","http://diverseysolutions.com/pl/Category/5185","Maszyny czyszcząco - zbierające","http://diverseysolutions.com/pl/Category/5263","Więcej informacji
                                                                                >","http://diverseysolutions.com/pl/Category/5263/Product/21492","TASKI Swingo 150","Czyszczenie za pomocą TASKI swingo 150 w
zatłoczonych miejscach jak sklepy, toalety
ogólnodostępne, restauracje i stacje benzynowe 
redukuje ryzyko poślizgnięcia. Maszyna osusza 
podłogę niezależnie od kierunku prowadzenia. 
Wyjątkowy układ ssący usuwa z podłogi do 99%
Wody podczas gdy ręczne metody czyszczenia
zawsze pozostawiają podłogę wilgotną co ,może
powodować pozostawianie brudnych śladów butów. Dzięki mechanicznemu systemowi szorowania i nacisku, TASKI swingo 150 jest nawet do 10 razy bardziej wydajny od tradycyjnych (ręcznych) metod czyszczenia. Pojedyncza szczotka oraz efektywny 
proces suszenia gwarantuje zmniejszenie ilości ilości pozostałości, zabrudzeń. Dzięki unikalnej nisko osadzonej szczotce szorującej TASKI swingo 150 pozwala na szybki swobodny dostęp pod półki, wieszaki i inne meble. Maszyna może być wykorzystana tam, gdzie tradycyjne szorowarki są po prostu zbyt ciężkie, a ręczne metody czyszczenia nie zapewniają odpowiedniej jakości sprzątania. Innowacyjna koncepcja pozwala na kierowanie maszyną z łatwością w każdym kierunku. Maszyna jest poręczna i łatwa w prowadzeniu. Wygodne uchwyty pozwalają z łatwością podnieść i przemieszczać się nawet po schodach. Dzięki niewielkim gabarytom można ją łatwo przechowywać.","Sucha podłoga zaraz po czyszczeniuDoskonałe efekty czyszczeniaŁatwe czyszczenie trudno dostępnych miejscProsta, szybka i ergonomiczna obsługa","7516209","","http://diverseysolutions.com/ProductImages/Noimages.jpeg","Maszyny czyszcząco - zbierające"
"1588188746-240","http://diverseysolutions.com/pl/Category/5185","Odkurzacze do pracy na sucho - mokro","http://diverseysolutions.com/pl/Category/5260","Więcej informacji
                                                                                >","http://diverseysolutions.com/pl/Category/5260/Product/21458","TASKI vacumat 12","Odkurzacz posiada specjalne zestaw akcesorii do pracy na mokro i na sucho. Wymiana ich zależy od potrzeb operatora, jest prosta i łatwa, nie wymaga specjalnego przeszkolenia. Dzięki temu maszyna ta może być stosowana do czyszczenia różnego typu powierzchni podłogowych, zarówno twardych jak i miękkich. Odkurzacz może być wykorzystywany do czyszczenia bieżącego lub do czyszczenia gruntownego oraz w połączeniu z maszyną jednotarczową TASKI.","WszechstronnośćWielofunkcyjnośćWysoka wydajnośćOdporność i trwałość","8003380","","http://diverseysolutions.com/ProductImages/Noimages.jpeg","Odkurzacze do pracy na sucho - mokro"
"1588188694-218","http://diverseysolutions.com/pl/Category/5185","Maszyny czyszcząco - zbierające","http://diverseysolutions.com/pl/Category/5263","Więcej informacji
                                                                                >","http://diverseysolutions.com/pl/Category/5263/Product/21498","TASKI Swingo 1255 B Power","Specjalny kształt szczotki pozwala na uzyskanie doskonałych efektów czyszczenia. Do czyszczenia wykorzystywana jest cała jej powierzchnia, efektem tego jest zebranie wszystkich, nawet najdrobniejszych zabrudzeń z podłóg. Kształt ściągaczki: litera U, pozwala na dokładne zebranie wody przy każdej prędkości pracującej maszyny. Dzięki zastosowaniu w maszynie specjalnie zaprojektowanej gumy i dużej sile ssania, zapewnione zostało zebranie nawet drobnych zanieczyszczeń (np. niedopałków papierosów) bez zapychania się urządzenia. Większa moc baterii, większe zbiorniki na płyny oraz Kontrolowany System Dozowania znacznie zwiększają wydajność maszyny. Podwójny system osi zapewnia łatwe prowadzenie urządzenia bez konieczności użycia dużej siły fizycznej operatora, a także doskonałe i stabilne manewrowanie, nawet w ciasnych i zatłoczonych miejscach. Specjalny kształt rękojeści, dostosowany do kształtu dłoni, zapewnia wygodę i komfort pracy. Wszystkie przyciski umieszczone są na czytelnym panelu, który znajduje się w zasięgu rąk operatora maszyny. Panel ten zawiera czytelne informacje, niezbędne do prawidłowej obsługi maszyny. Specjalne przyciski w różnych, odpowiednio dobranych kolorach z opisami zapewniają łatwą obsługę, nawet dla niedoświadczonego operatora. Mniejsza liczba części zamiennych oraz możliwość ich szybkiej wymiany powoduje, że maszyna ta jest łatwa i prosta w utrzymaniu.","Najlepsze wyniki czyszczeniaWydajność i doskonałe manewrowanieErgonomiaProsta obsługa i utrzymanie","7510361","","http://diverseysolutions.com/ProductImages/Noimages.jpeg","Maszyny czyszcząco - zbierające"
"1588188702-222","http://diverseysolutions.com/pl/Category/5185","Maszyny czyszcząco - zbierające","http://diverseysolutions.com/pl/Category/5263","Więcej informacji
                                                                                >","http://diverseysolutions.com/pl/Category/5263/Product/21494","TASKI Swingo 450 B","Stosowanie maszyny TASKI swingo 450 B gwarantuje osiągnięcie doskonałych efektów czyszczenia podłóg. Możliwe jest to dzięki specjalnej konstrukcji mechanizmu szczotki. Szczotka podczas pracy podąża z równomiernym naciskiem za profilem podłogi. Kształt ściągaczki (litera U) zapewnia dokładne zebranie wody z podłogi – nawet podczas zakręcania! Duża siła ssania pozwala na zebranie z podłogi wszystkich zanieczyszczeń. Specjalny kształt rękojeści (przystosowany do naturalnego ułożenia dłoni) znacznie ułatwia prowadzenie maszyny i jednocześnie poprawia komfort pracy. Wysokość rękojeści jest regulowana, użytkownik może ją dostosować do swojego wzrostu. Wszystkie niezbędne informacje są w czytelny i widoczny sposób umieszczone na panelu sterowania. Punkty / części urządzenia, które należy czyścić oznaczone zostały żółtym kolorem (żółte punkty obsługi). Miejsca te, operator może sam wyczyścić lub wymienić na nowe, zgodnie z instrukcją obsługi. Dzięki opływowym kształtom i niewielkim rozmiarom, maszynę można stosować w wielu miejscach. Jest to idealne urządzenie do czyszczenia twardych podłóg w obiektach typu: markety, sklepy, kuchnie, szkoły, hotele, szpitale, itp.","Doskonałe efekty czyszczeniaProstota i ergonomiaŁatwa obsługaWszechstronność","7513903","","http://diverseysolutions.com/ProductImages/Thumb/7513903_swingo 450B_Eco_BMS.jpg","Maszyny czyszcząco - zbierające"
"1588188744-239","http://diverseysolutions.com/pl/Category/5185","Odkurzacze do pracy na sucho - mokro","http://diverseysolutions.com/pl/Category/5260","Więcej informacji
                                                                                >","http://diverseysolutions.com/pl/Category/5260/Product/21459","TASKI vacumat 22","TASKI vacumat 22 dzięki możliwości zainstalowania w nim różnego rodzaju dysz, zestawów czyszczących pozwala na doskonałe wyczyszczenie schodów, podwyższeń, jak również na czyszczenie powierzchni pionowych i mycie okien. Mycie okien i czyszczenie powierzchni pionowych możliwe jest po podłączeniu do odkurzacza zastawu - TASKI Vertica. Duża siła ssania w połączeniu z doskonałym manewrowaniem oraz dużym zbiornikiem, zapewnia dużą wydajność odkurzacza.
Specjalnie zaprojektowany, mechaniczny pływak z podwójnym filtrem, zapewnia doskonałą ochronę silnika i jednocześnie przedłuża okres użytkowania urządzenia.","Odporność i trwałośćWysoka wydajnośćWszechstronnośćWielofunkcyjność","8004270","","http://diverseysolutions.com/ProductImages/Noimages.jpeg","Odkurzacze do pracy na sucho - mokro"
"1588188686-215","http://diverseysolutions.com/pl/Category/5185","Odkurzacz na baterie","http://diverseysolutions.com/pl/Category/6087","Więcej informacji
                                                                                >","http://diverseysolutions.com/pl/Category/6087/Product/21457","TASKI smart","Bezprzewodowy odkurzacz pozwala na pracę w wielu obszarach gdzie dostęp do sieci elektrycznej jest utrudniony, takich jak: pociągi, windy, hole wejściowe i biura w systemie ""open space"". Bezprzewodowe odkurzanie eliminuje ryzyko wypadków związanych z potknięciami o kabel i urazów związanych z porażeniem prądem.
Odkurzacz możemy wykorzystywać w czasie
maksymalnego natężenia ruchu. Jego niewielka waga czyni odkurzanie łatwym i  ergonomicznym zajęciem.","Bezpieczne środowisko pracyBardzo cicha pracaZnacznie wyższa wydajnośćOdkurzanie bezprzewodowe","V7512787","","http://diverseysolutions.com/ProductImages/Noimages.jpeg","Odkurzacz na baterie"
"1588188676-212","http://diverseysolutions.com/pl/Category/5185","Zamiatarki","http://diverseysolutions.com/pl/Category/6109","Więcej informacji
                                                                                >","http://diverseysolutions.com/pl/Category/6109/Product/21483","TASKI Balimat 45","Przy pomocy urządzenia TASKI balimat 45 powierzchnie zostaną wyczyszczone do 5 razy szybciej niż metodą tradycyjną, tj. szczotką. Docisk szczotek bocznych i szczotek głównych jest regulowany, dzięki czemu czyszczenie będzie przeprowadzone dokładniej. TASKI balimat 45 może być używany do czyszczenia wszystkich twardych powierzchni, zarówno wewnątrz budynków, jak i na zewnątrz. Boczne szczotki kierują luźny brud ( kurz, piasek, liście, papiery) z kątów i innych załamań do głównych, cylindrycznych szczotek. Szczotki główne przesuwają zanieczyszczenia do pojemnika na śmieci.","Doskonałe rezultaty czyszczeniaWysoka wydajnośćProsta obsługaŁatwe utrzymanie","V8004690","","http://diverseysolutions.com/ProductImages/Noimages.jpeg","Zamiatarki"
"1588188732-234","http://diverseysolutions.com/pl/Category/5185","Maszyny do prania dywanów metodą ekstrakcyjną","http://diverseysolutions.com/pl/Category/5259","Więcej informacji
                                                                                >","http://diverseysolutions.com/pl/Category/5259/Product/21463","TASKI Aquamat 20","Taski aquamat 20 to duże, wydajne urządzenie do prania wykładzin dywanowych, tapicerek oraz obić metodą ekstrakcyjną. Pranie tą metodą zapewnia gruntowne doczyszczanie powierzchni dywanowych. Dzięki szybkiemu i dokładnemu usunięciu zanieczyszczeń wykładziny dywanowe, obicia i tapicerki będą dłużej wyglądać jak nowe.Dzięki dużej pojemności zbiorników TASKI aquamat 20 idealnie nadaje się do czyszczenia małych i średnich pomieszczeń. Ponadto, duża siła ssania pozwala na wykorzystanie 6m węża, który umożliwia np. pozostawienie maszyny na dole schodów czy też na zewnątrz sprzątanego pomieszczenia. Różne opcje pracy pozwalają na skuteczne wyczyszczenie nawet bardzo zabrudzonych powierzchni.","WszechstronnośćDuży wybór akcesoriówŁatwy transportDoskonałe rezultaty czyszczenia","8003460","","http://diverseysolutions.com/ProductImages/Noimages.jpeg","Maszyny do prania dywanów metodą ekstrakcyjną"
"1588188674-211","http://diverseysolutions.com/pl/Category/5185","Zamiatarki","http://diverseysolutions.com/pl/Category/6109","Więcej informacji
                                                                                >","http://diverseysolutions.com/pl/Category/6109/Product/21482","TASKI Balimat 45","Przy pomocy urządzenia TASKI balimat 45 powierzchnie zostaną wyczyszczone do 5 razy szybciej niż metodą tradycyjną, tj. szczotką. Docisk szczotek bocznych i szczotek głównych jest regulowany, dzięki czemu czyszczenie będzie przeprowadzone dokładniej. TASKI balimat 45 może być używany do czyszczenia wszystkich twardych powierzchni, zarówno wewnątrz budynków, jak i na zewnątrz. Boczne szczotki kierują luźny brud ( kurz, piasek, liście, papiery) z kątów i innych załamań do głównych, cylindrycznych szczotek. Szczotki główne przesuwają zanieczyszczenia do pojemnika na śmieci.","Doskonałe rezultaty czyszczeniaWysoka wydajnośćProsta obsługaŁatwe utrzymanie","8004690","","http://diverseysolutions.com/ProductImages/Thumb/8004690 TASKI Balimat 45 High Res CMYK.jpg","Zamiatarki"
"1588188706-224","http://diverseysolutions.com/pl/Category/5185","Maszyny czyszcząco - zbierające","http://diverseysolutions.com/pl/Category/5263","Więcej informacji
                                                                                >","http://diverseysolutions.com/pl/Category/5263/Product/27368","TASKI swingo 350 B","Stosowanie maszyny TASKI swingo 350 B gwarantuje osiągniecie doskonałych efektów czyszczenia nawet w trudnodostepnych miejscach. Możliwe jest to dzięki małym
rozmiarom maszyny oraz możliwości przełożenia rękojeści do tyłu. Takie rozwiązania sprawiają, że maszyna jest łatwa w prowadzeniu co pozwala z łatwością omijać różne przeszkody
np. regały. Usytuowanie szczotki walcowej umożliwia wyczyszczenie trudnodostępnych miejsc z krawędziami przy ścianach, jak i narożników. Umieszczona przed szczotką ściągaczka, pozwala na prace maszyny zarówno w przód jak i do tyłu.","Doskonałe efekty czyszczenia trudnodostępnych miejscSkuteczne czyszczenie i osuszanieBezpieczeństwo i łatwa obsługa","7516860","","http://diverseysolutions.com/ProductImages/Thumb/7516860_TASKI swingo 350.jpg","Maszyny czyszcząco - zbierające"
"1588188698-220","http://diverseysolutions.com/pl/Category/5185","Maszyny czyszcząco - zbierające","http://diverseysolutions.com/pl/Category/5263","Więcej informacji
                                                                                >","http://diverseysolutions.com/pl/Category/5263/Product/21787","TASKI swingo 755 B","TASKI swingo 755B jest maszyną czyszcząco-zbierającą o zasilaniu bateryjnym. Podwójny system osi zapewnia łatwe prowadzenie urządzenia bez konieczności użycia dużej siły fizycznej operatora, a także doskonałe i stabilne manewrowanie, nawet w ciasnych i zatłoczonych pomieszczeniach. 40 litrowy zbiornik radykalnie zwiększa wydajność i redukuje czas poświęcony na napełnianie zbiornika w trakcie czyszczenia.","Zwinność i duża wydajnośćDoskonałe rezultaty czyszczeniaOdporność i trwałośćProsta obsługa i utrzymanie","7510369","","http://diverseysolutions.com/ProductImages/Thumb/7510369_swingo 750_B_Eco.jpg","Maszyny czyszcząco - zbierające"
