{
    "_id": "kimberly-mycie-en",
    "startUrl": [
        "https://www.kcprofessional.co.uk/products/hand-cleansers-sanitisers"
    ],
    "selectors": [
        {
            "id": "category-link",
            "type": "SelectorLink",
            "parentSelectors": [
                "_root"
            ],
            "selector": "a.blue-bold",
            "multiple": true,
            "delay": 0
        },
        {
            "id": "subcategory-link",
            "type": "SelectorLink",
            "parentSelectors": [
                "category-link"
            ],
            "selector": "a.blue-bold",
            "multiple": true,
            "delay": 0
        },
        {
            "id": "product-link",
            "type": "SelectorLink",
            "parentSelectors": [
                "subcategory-link"
            ],
            "selector": "a.test",
            "multiple": true,
            "delay": 0
        },
        {
            "id": "Numer artykułu",
            "type": "SelectorText",
            "parentSelectors": [
                "product-link"
            ],
            "selector": ".product-brand-name-code p:nth-of-type(2)",
            "multiple": false,
            "regex": "\\d+",
            "delay": 0
        },
        {
            "id": "Nazwa produktu [EN]",
            "type": "SelectorText",
            "parentSelectors": [
                "product-link"
            ],
            "selector": ".product-brand-name-code p:nth-of-type(1)",
            "multiple": false,
            "regex": "",
            "delay": 0
        },
        {
            "id": "Rozszerzenie opisu produktu [EN]",
            "type": "SelectorText",
            "parentSelectors": [
                "product-link"
            ],
            "selector": ".small-9 div.product-description",
            "multiple": false,
            "regex": "",
            "delay": 0
        },
        {
            "id": "Zdjęcie główne produktu",
            "type": "SelectorImage",
            "parentSelectors": [
                "product-link"
            ],
            "selector": ".small-3 img",
            "multiple": false,
            "delay": 0
        }
    ]
}