﻿web-scraper-order,web-scraper-start-url,product,product-href,Numer artykułu,Nazwa produktu [PL],Krótki opis produktu [PL],Rozszerzenie opisu produktu [PL],Kolor,Zdjęcie główne produktu,Długość [cm],Szerokość [cm],Wysokość [cm],Surowiec,Ilość warstw,Długość rolki,Szerokość rolki,Średnica rolki,Ilość opakowań pojedynczych w opakowaniu tranportowym [szt],Ilość opakowań zbiorczych na 1 palecie [szt],Karta produktu PL [nazwa pliku z rozszerzeniem]
"1584965367-50","https://www.lamix.pl/pl/produkty/3/toaleta.html","T ELLIS PROFESSIONAL 40/2KOLOR: BiałyKOD: 6279","https://www.lamix.pl/pl/produkt/49/ellis-professional-toaleta-t-ellis-professional-40-2.html","6279","t ellis professional 40/2","Dwuwarstwowy, celulozowy papier do użytku profesjonalnego w pomieszczeniach o zwiększonym natężeniu użytkowania.","Papier wykorzystywany wszędzie, gdzie nieekonomiczne jest użytkowanie rolek konsumpcyjnych.","KOLOR
Biały","https://www.lamix.pl/cms/products/00049/zdjecie_towaru.png","DŁUGOŚĆ
40 M","ŚREDNICA
12.5 CM","WYSOKOŚĆ
9 CM","Celuloza","IL. WARSTW
2","DŁUGOŚĆ
40 M","WYSOKOŚĆ
9 CM","ŚREDNICA
12.5 CM","W OP. ZBIORCZYM
24 ROL.","OP. NA PALECIE
60 WOR.","https://www.lamix.pl/cms/products/00049/karta_towaru.pdf"
"1584965365-49","https://www.lamix.pl/pl/produkty/3/toaleta.html","T ELLIS PROFESSIONAL 100/2KOLOR: BiałyKOD: 6255","https://www.lamix.pl/pl/produkt/50/ellis-professional-toaleta-t-ellis-professional-100-2.html","6255","t ellis professional 100/2","Dwuwarstwowy, celulozowy papier do użytku profesjonalnego w pomieszczeniach o zwiększonym natężeniu użytkowania.","Papier wykorzystywany wszędzie, gdzie nieekonomiczne jest użytkowanie rolek konsumpcyjnych.","KOLOR
Biały","https://www.lamix.pl/cms/products/00050/zdjecie_towaru.png","DŁUGOŚĆ
90 M","ŚREDNICA
19 CM","WYSOKOŚĆ
9 CM","Celuloza","IL. WARSTW
2","DŁUGOŚĆ
90 M","WYSOKOŚĆ
9 CM","ŚREDNICA
19 CM","W OP. ZBIORCZYM
12 ROL.","OP. NA PALECIE
60 WOR.","https://www.lamix.pl/cms/products/00050/karta_towaru.pdf"
"1584965357-45","https://www.lamix.pl/pl/produkty/3/toaleta.html","T CLIVER 130/1KOLOR: SzaryKOD: 6231","https://www.lamix.pl/pl/produkt/11/cliver-toaleta-t-cliver-130-1.html","6231","t cliver 130/1","Ekologiczny papier do użytku profesjonalnego w pomieszczeniach o zwiększonym natężeniu użytkowania.","Papier wykorzystywany wszędzie, gdzie nieekonomiczne jest użytkowanie rolek konsumpcyjnych.","KOLOR
Szary","https://www.lamix.pl/cms/products/00011/zdjecie_towaru.png","DŁUGOŚĆ
130 M","ŚREDNICA
18 CM","WYSOKOŚĆ
9 CM","Makulatura","IL. WARSTW
1","DŁUGOŚĆ
130 M","WYSOKOŚĆ
9 CM","ŚREDNICA
18 CM","W OP. ZBIORCZYM
12 ROL.","OP. NA PALECIE
60 WOR.","https://www.lamix.pl/cms/products/00011/karta_towaru.pdf"
"1584965359-46","https://www.lamix.pl/pl/produkty/3/toaleta.html","T CLIVER 130/1KOLOR: Extra białyKOD: 6057","https://www.lamix.pl/pl/produkt/10/cliver-toaleta-t-cliver-130-1.html","6057","t cliver 130/1","Ekologiczny papier do użytku profesjonalnego w pomieszczeniach o zwiększonym natężeniu użytkowania.","Papier wykorzystywany wszędzie, gdzie nieekonomiczne jest użytkowanie rolek konsumpcyjnych.","KOLOR
Extra biały","https://www.lamix.pl/cms/products/00010/zdjecie_towaru.png","DŁUGOŚĆ
130 M","ŚREDNICA
18 CM","WYSOKOŚĆ
9 CM","Makulatura","IL. WARSTW
1","DŁUGOŚĆ
130 M","WYSOKOŚĆ
9 CM","ŚREDNICA
18 CM","W OP. ZBIORCZYM
12 ROL.","OP. NA PALECIE
60 WOR.","https://www.lamix.pl/cms/products/00010/karta_towaru.pdf"
"1584965361-47","https://www.lamix.pl/pl/produkty/3/toaleta.html","T ELLIS ECOLINE 100/2KOLOR: Extra białyKOD: 6262","https://www.lamix.pl/pl/produkt/68/ellis-ecoline-toaleta-t-ellis-ecoline-100-2.html","6262","t ellis ecoline 100/2","Dwuwarstwowy, makulaturowy papier do użytku profesjonalnego w pomieszczeniach o zwiększonym natężeniu użytkowania.","Papier wykorzystywany wszędzie, gdzie nieekonomiczne jest użytkowanie rolek konsumpcyjnych.","KOLOR
Extra biały","https://www.lamix.pl/cms/products/00068/zdjecie_towaru.png","DŁUGOŚĆ
100 M","ŚREDNICA
19 CM","WYSOKOŚĆ
9 CM","Makulatura","IL. WARSTW
2","DŁUGOŚĆ
100 M","WYSOKOŚĆ
9 CM","ŚREDNICA
19 CM","W OP. ZBIORCZYM
12 ROL.","OP. NA PALECIE
60 WOR.","https://www.lamix.pl/cms/products/00068/karta_towaru.pdf"
"1584965363-48","https://www.lamix.pl/pl/produkty/3/toaleta.html","T ELLIS PROFESSIONAL 130/2KOLOR: BiałyKOD: 6248","https://www.lamix.pl/pl/produkt/51/ellis-professional-toaleta-t-ellis-professional-130-2.html","6248","t ellis professional 130/2","Dwuwarstwowy, celulozowy papier do użytku profesjonalnego w pomieszczeniach o zwiększonym natężeniu użytkowania.","Papier wykorzystywany wszędzie, gdzie nieekonomiczne jest użytkowanie rolek konsumpcyjnych.","KOLOR
Biały","https://www.lamix.pl/cms/products/00051/zdjecie_towaru.png","DŁUGOŚĆ
120 M","ŚREDNICA
19 CM","WYSOKOŚĆ
9 CM","Celuloza","IL. WARSTW
2","DŁUGOŚĆ
120 M","WYSOKOŚĆ
9 CM","ŚREDNICA
19 CM","W OP. ZBIORCZYM
12 ROL.","OP. NA PALECIE
60 WOR.","https://www.lamix.pl/cms/products/00051/karta_towaru.pdf"
