{
    "_id": "woca-zewnatrz-akcesoria-pl",
    "startUrl": [
        "http://www.woca.pl/produkty-na-zewnatrz"
    ],
    "selectors": [
        {
            "id": "product-link",
            "type": "SelectorLink",
            "parentSelectors": [
                "_root"
            ],
            "selector": ".featured div.span12:nth-of-type(1) li a",
            "multiple": true,
            "delay": 0
        },
        {
            "id": "Podkategoria produktu",
            "type": "SelectorText",
            "parentSelectors": [
                "_root"
            ],
            "selector": "[data-color='lightgrey'] h2",
            "multiple": false,
            "regex": "",
            "delay": 0
        },
        {
            "id": "Numer artykułu",
            "type": "SelectorText",
            "parentSelectors": [
                "product-link"
            ],
            "selector": ".js-e-number",
            "multiple": false,
            "regex": "",
            "delay": 0
        },
        {
            "id": "Nazwa produktu [PL]",
            "type": "SelectorText",
            "parentSelectors": [
                "product-link"
            ],
            "selector": "h1",
            "multiple": false,
            "regex": "",
            "delay": 0
        },
        {
            "id": "Krótki opis produktu [PL]",
            "type": "SelectorGroup",
            "parentSelectors": [
                "product-link"
            ],
            "selector": ".e-productdetails-info p:nth-of-type(2), ul.e-prod-props",
            "delay": 0,
            "extractAttribute": ""
        },
        {
            "id": "Kolor",
            "type": "SelectorText",
            "parentSelectors": [
                "product-link"
            ],
            "selector": "select.js-e-variantgroup-1",
            "multiple": false,
            "regex": "",
            "delay": 0
        },
        {
            "id": "Pojemność [L]",
            "type": "SelectorText",
            "parentSelectors": [
                "product-link"
            ],
            "selector": "select.js-e-variantgroup-2",
            "multiple": false,
            "regex": "",
            "delay": 0
        },
        {
            "id": "Rozszerzenie opisu produktu [PL]",
            "type": "SelectorText",
            "parentSelectors": [
                "product-link"
            ],
            "selector": ".row-fluid.pim-tab-content > p:nth-of-type(1)",
            "multiple": false,
            "regex": "",
            "delay": 0
        },
        {
            "id": "Zdjęcie główne produktu",
            "type": "SelectorImage",
            "parentSelectors": [
                "product-link"
            ],
            "selector": ".js-e-image img",
            "multiple": false,
            "delay": 0
        },
        {
            "id": "Karta charakterystyki PL [nazwa pliku z rozszerzeniem]",
            "type": "SelectorElementAttribute",
            "parentSelectors": [
                "product-link"
            ],
            "selector": ".pim-pdf-list li:nth-of-type(2) a",
            "multiple": false,
            "extractAttribute": "href",
            "delay": 0
        },
        {
            "id": "Karta produktu PL [nazwa pliku z rozszerzeniem]",
            "type": "SelectorElementAttribute",
            "parentSelectors": [
                "product-link"
            ],
            "selector": "li a[target]",
            "multiple": false,
            "extractAttribute": "href",
            "delay": 0
        }
    ]
}