{
    "_id": "gojo-odzywka-de",
    "startUrl": [
        "https://www.purell.eu/de/kategorien?cat=48&product_format=105&product_list_limit=100"
    ],
    "selectors": [
        {
            "id": "product-link",
            "type": "SelectorLink",
            "parentSelectors": [
                "_root"
            ],
            "selector": ".name a",
            "multiple": true,
            "delay": 0
        },
        {
            "id": "Numer artykułu",
            "type": "SelectorText",
            "parentSelectors": [
                "product-link"
            ],
            "selector": "div[itemprop='sku']",
            "multiple": false,
            "regex": "",
            "delay": 0
        },
        {
            "id": "Nazwa produktu [DE]",
            "type": "SelectorText",
            "parentSelectors": [
                "product-link"
            ],
            "selector": ".page-title",
            "multiple": false,
            "regex": "",
            "delay": 0
        },
        {
            "id": "EAN produktu",
            "type": "SelectorText",
            "parentSelectors": [
                "product-link"
            ],
            "selector": "tr:contains('Barcode / Stück') td",
            "multiple": false,
            "regex": "",
            "delay": 0
        },
        {
            "id": "Krótki opis produktu [DE]",
            "type": "SelectorText",
            "parentSelectors": [
                "product-link"
            ],
            "selector": ".description p:nth-of-type(1)",
            "multiple": false,
            "regex": "",
            "delay": 0
        },
        {
            "id": "Rozszerzenie opisu produktu [DE]",
            "type": "SelectorText",
            "parentSelectors": [
                "product-link"
            ],
            "selector": ".description ul",
            "multiple": false,
            "regex": "",
            "delay": 0
        },
        {
            "id": "Waga brutto [kg]",
            "type": "SelectorText",
            "parentSelectors": [
                "product-link"
            ],
            "selector": "tr:contains('Gewicht pro Stück inkl. Verpackung (kg)') td",
            "multiple": false,
            "regex": "",
            "delay": 0
        },
        {
            "id": "EAN opakowania transportowego",
            "type": "SelectorText",
            "parentSelectors": [
                "product-link"
            ],
            "selector": "tr:contains('Barcode / Umkarton') td",
            "multiple": false,
            "regex": "",
            "delay": 0
        },
        {
            "id": "Długość produktu",
            "type": "SelectorText",
            "parentSelectors": [
                "product-link"
            ],
            "selector": "tr:contains('Produktmaße (cm)') td",
            "multiple": false,
            "regex": "",
            "delay": 0
        },
        {
            "id": "Szerokość produktu",
            "type": "SelectorText",
            "parentSelectors": [
                "product-link"
            ],
            "selector": "tr:contains('Produktmaße (cm)') td",
            "multiple": false,
            "regex": "",
            "delay": 0
        },
        {
            "id": "Wysokość produktu",
            "type": "SelectorText",
            "parentSelectors": [
                "product-link"
            ],
            "selector": "tr:contains('Produktmaße (cm)') td",
            "multiple": false,
            "regex": "",
            "delay": 0
        },
        {
            "id": "Długość opakowania transportowego",
            "type": "SelectorText",
            "parentSelectors": [
                "product-link"
            ],
            "selector": "tr:contains('Kartonmaße (cm)') td",
            "multiple": false,
            "regex": "",
            "delay": 0
        },
        {
            "id": "Szerokość opakowania transportowego",
            "type": "SelectorText",
            "parentSelectors": [
                "product-link"
            ],
            "selector": "tr:contains('Kartonmaße (cm)') td",
            "multiple": false,
            "regex": "",
            "delay": 0
        },
        {
            "id": "Wysokość opakowania transportowego",
            "type": "SelectorText",
            "parentSelectors": [
                "product-link"
            ],
            "selector": "tr:contains('Kartonmaße (cm)') td",
            "multiple": false,
            "regex": "",
            "delay": 0
        }
    ]
}