﻿web-scraper-order,web-scraper-start-url,Numer artykułu,Nazwa produktu [PL],Ilość warstw,Długość rolki,Szerokość rolki,Ilość opakowań pojedynczych w opakowaniu tranportowym [szt],Ilość opakowań zbiorczych na 1 palecie [szt],Krótki opis produktu [PL]
"1587001716-75","http://welmax.eu/produkty/reczniki-papierowe-maxi/","RCMA2120","MAXI celuloza klej 120","2","120","19","6","48","MAXI celuloza klej 120"
"1587001716-73","http://welmax.eu/produkty/reczniki-papierowe-maxi/","RBMA1120","MAXI biały 1 warstwowy","1","120","19","6","48","MAXI biały 1 warstwowy"
"1587001716-71","http://welmax.eu/produkty/reczniki-papierowe-maxi/","RSMA1120","MAXI szary","1","120","19","6","48","MAXI szary"
"1587001716-74","http://welmax.eu/produkty/reczniki-papierowe-maxi/","RBMA2120","MAXI biały 2 warstwowy","2","120","19","6","48","MAXI biały 2 warstwowy"
"1587001716-72","http://welmax.eu/produkty/reczniki-papierowe-maxi/","RZMA1120","MAXI zielony","1","120","19","6","48","MAXI zielony"
"1587001716-76","http://welmax.eu/produkty/reczniki-papierowe-maxi/","RCMA2100","MAXI celuloza klej 100","2","100","19","6","60","MAXI celuloza klej 100"
